name	version	compactsave	rarity	spawnable	minac	maxac	absorbs	speed	reqstr	block	durability	nodurability	level	levelreq	cost	gamble cost	code	namestr	magic lvl	auto prefix	alternategfx	OpenBetaGfx	normcode	ubercode	ultracode	spelloffset	component	invwidth	invheight	hasinv	gemsockets	gemapplytype	flippyfile	invfile	uniqueinvfile	setinvfile	rArm	lArm	Torso	Legs	rSPad	lSPad	useable	throwable	stackable	minstack	maxstack	type	type2	dropsound	dropsfxframe	usesound	unique	transparent	transtbl	quivered	lightradius	belt	quest	missiletype	durwarning	qntwarning	mindam	maxdam	StrBonus	DexBonus	gemoffset	bitfield1	CharsiMin	CharsiMax	CharsiMagicMin	CharsiMagicMax	CharsiMagicLvl	GheedMin	GheedMax	GheedMagicMin	GheedMagicMax	GheedMagicLvl	AkaraMin	AkaraMax	AkaraMagicMin	AkaraMagicMax	AkaraMagicLvl	FaraMin	FaraMax	FaraMagicMin	FaraMagicMax	FaraMagicLvl	LysanderMin	LysanderMax	LysanderMagicMin	LysanderMagicMax	LysanderMagicLvl	DrognanMin	DrognanMax	DrognanMagicMin	DrognanMagicMax	DrognanMagicLvl	HraltiMin	HraltiMax	HraltiMagicMin	HraltiMagicMax	HratliMagicLvl	AlkorMin	AlkorMax	AlkorMagicMin	AlkorMagicMax	AlkorMagicLvl	OrmusMin	OrmusMax	OrmusMagicMin	OrmusMagicMax	OrmusMagicLvl	ElzixMin	ElzixMax	ElzixMagicMin	ElzixMagicMax	ElzixMagicLvl	AshearaMin	AshearaMax	AshearaMagicMin	AshearaMagicMax	AshearaMagicLvl	CainMin	CainMax	CainMagicMin	CainMagicMax	CainMagicLvl	HalbuMin	HalbuMax	HalbuMagicMin	HalbuMagicMax	HalbuMagicLvl	JamellaMin	JamellaMax	JamellaMagicMin	JamellaMagicMax	JamellaMagicLvl	LarzukMin	LarzukMax	LarzukMagicMin	LarzukMagicMax	LarzukMagicLvl	MalahMin	MalahMax	MalahMagicMin	MalahMagicMax	MalahMagicLvl	DrehyaMin	DrehyaMax	DrehyaMagicMin	DrehyaMagicMax	DrehyaMagicLvl	Source Art	Game Art	Transform	InvTrans	SkipName	NightmareUpgrade	HellUpgrade	mindam	maxdam	nameable
Cap/hat	0	0	1	1	4	8	0	0	5	0	10	0	1	1	32	3016	cap	cap	1		cap	cap	cap	xxx	xxx	0	0	2	2	1	2	1	flpcap	invcap	invcapu	invcapu							0	0	0	0	0	helm		item_cap	12	item_cap	0	0	5	0	0	0	0	0	3	0	0	0			0	1	0	1	0	1	1	0	1	0	1	1	0	0	0	0	255	0	0	0	0	255	0	0	0	0	255	0	0	0	0	255	0	0	0	0	255	0	0	0	0	255	0	0	0	0	255	0	0	255	0	0	0	0	0	0	255	0	0	0	0	255	0	0	0	0	255	0	0	0	0	255	0	0	0	0	255	0	0	0	0	255	0	0	0	0	255			2	8	0	crn	xkp	0	0	1
Skull Cap	0	0	1	1	8	15	0	0	15	0	20	0	7	4	221	5551	skp	skp	1		skp	skp	skp	xxx	xxx	0	0	2	2	1	2	1	flpskp	invskp									0	0	0	0	0	helm		item_helm	12	item_helm	0	0	5	0	0	0	0	0	3	0	0	0			0	3	0	1	0	1	1	0	1	0	1	1	0	0	0	0	255	0	0	0	0	255	0	0	0	0	255	0	0	0	0	255	0	0	0	0	255	0	0	0	0	255	0	0	0	0	255	0	1	1	0	1	0	0	0	0	255	0	0	0	0	255	0	0	0	0	255	0	0	0	0	255	0	0	0	0	255	0	0	0	0	255	0	0	0	0	255			2	8	0	crn	xkp	0	0	1
Helm	0	0	1	1	15	22	0	0	25	0	25	0	12	7	779	12284	hlm	hlm	1		hlm	hlm	hlm	xxx	xxx	0	0	2	2	1	2	1	flphlm	invhlm	invhlmu	invhlmu							0	0	0	0	0	helm		item_helm	12	item_helm	0	0	5	0	0	0	0	0	3	0	0	0			0	3	0	1	0	0	1	0	0	0	0	255	0	0	0	0	255	0	1	0	1	1	0	0	0	0	255	0	0	0	0	255	0	0	0	0	255	0	0	0	0	255	0	0	0	0	255	0	1	1	0	1	0	0	0	0	255	0	0	0	1	1	0	0	0	0	255	0	0	0	0	255	0	0	0	0	255	0	0	0	0	255	0	0	0	0	255			2	8	0	xap	xlm	0	0	1
Full Helm	0	0	1	1	29	39	0	1	50	0	40	0	27	16	3089	21606	fhl	fhl	1		fhl	hlm	fhl	xxx	xxx	0	0	2	2	1	2	1	flpfhl	invfhl	invfhlu	invfhlu							0	0	0	0	0	helm		item_helm	12	item_helm	0	0	5	0	0	0	0	0	3	0	0	0			0	3	0	0	0	0	255	0	0	0	0	255	0	0	0	0	255	0	0	0	0	255	0	0	0	0	255	0	0	0	0	255	0	1	0	1	1	0	0	0	0	255	0	0	0	0	255	0	0	255	0	0	0	0	0	0	255	1	1	0	1	1	0	2	0	2	1	0	2	0	2	1	0	2	0	2	1	0	0	0	0	255	0	0	0	0	255			0	8	0	xkp	xhm	0	0	1
Great Helm	0	0	1	1	22	29	0	0	40	0	30	0	22	13	1525	49517	ghm	ghm	1		ghm	hlm	ghm	xxx	xxx	0	0	2	2	1	2	1	flpghm	invghm									0	0	0	0	0	helm		item_helm	12	item_helm	0	0	5	0	0	0	0	0	3	0	0	0			0	3	0	0	0	0	255	0	0	0	0	255	0	0	0	0	255	0	1	0	0	1	0	0	0	0	255	0	0	0	0	255	0	1	0	1	1	0	0	0	0	255	0	0	0	0	255	0	0	255	0	0	0	1	0	1	1	1	1	1	1	1	0	0	0	0	255	0	0	0	0	255	0	0	0	0	255	0	0	0	0	255	0	0	0	0	255			2	8	0	xap	xlm	0	0	1
Crown	0	0	1	1	39	50	0	2	60	0	50	0	32	19	4173	77501	crn	crn	1		crn	hlm	crn	xxx	xxx	0	0	2	2	1	2	1	flpcrn	invcrn									0	0	0	0	0	helm		item_helm	12	item_helm	0	0	5	0	0	0	0	0	3	0	0	0			0	3	0	0	0	0	255	0	0	0	0	255	0	0	0	0	255	0	0	0	0	255	0	0	0	0	255	0	0	0	0	255	0	0	0	0	255	0	0	0	0	255	0	0	0	0	255	0	0	255	0	0	0	0	0	0	255	0	0	0	0	255	0	2	0	2	1	0	0	0	0	255	0	2	0	2	1	0	0	0	0	255	0	2	0	2	1			2	8	0	xlm	xhm	0	0	1
Orc Mask	0	0	1	1	10	29	0	1	23	0	20	0	19	11	1429	25570	msk	msk	1		msk	hlm	msk	xxx	xxx	0	0	2	2	1	2	1	flpmsk	invmsk									0	0	0	0	0	helm		item_helm	12	item_helm	0	0	5	0	0	0	0	0	3	0	0	0			0	3	0	0	0	0	255	0	0	0	0	255	0	0	0	0	255	0	0	0	0	255	0	0	0	0	255	0	0	0	0	255	0	0	0	0	255	0	0	0	0	255	0	0	0	0	255	0	0	255	0	0	0	0	0	0	255	0	0	0	0	255	0	0	0	0	255	0	0	0	0	255	0	0	0	0	255	0	0	0	0	255	0	0	0	0	255			1	2	0	xxx	xxx	0	0	1
Quilted Armor	0	0	1	1	9	15	0	2	12	0	30	0	1	1	70	3035	qui	qui	1		qlt	qlt	qui	xxx	xxx	0	1	2	3	1	3	1	flpqlt	invqlt			0	0	0	0	0	0	0	0	0	0	0	tors		item_lightarmor	12	item_lightarmor	0	0	5	0	0	0	0	0	2	0	0	0			0	1	0	1	0	1	1	0	1	0	1	1	0	0	0	0	255	0	0	0	0	255	0	0	0	0	255	0	0	0	0	255	0	0	0	0	255	0	0	0	0	255	0	0	0	0	255	0	0	255	0	0	0	0	0	0	255	0	0	0	0	255	0	0	0	0	255	0	0	0	0	255	0	0	0	0	255	0	0	0	0	255	0	0	0	0	255			2	8	0	xui	xrs	0	0	1
Leather Armor	0	0	1	1	15	25	0	3	15	0	33	0	3	2	241	4360	lea	lea	1		lea	lea	lea	xxx	xxx	0	1	2	3	1	3	1	flplea	invlea			0	0	1	0	1	1	0	0	0	0	0	tors		item_lightarmor	12	item_lightarmor	0	0	5	0	0	0	0	0	2	0	0	0			0	1	0	1	0	1	1	0	1	0	1	1	0	0	0	0	255	0	0	0	0	255	0	0	0	0	255	0	0	0	0	255	0	0	0	0	255	0	0	0	0	255	0	0	0	0	255	0	0	255	0	0	0	0	0	0	255	0	0	0	0	255	0	0	0	0	255	0	0	0	0	255	0	0	0	0	255	0	0	0	0	255	0	0	0	0	255			2	8	0	xea	xpl	0	0	1
Hard Leather Armor	0	0	1	1	25	35	0	4	20	0	35	0	5	3	530	6325	hla	hla	1		hla	hla	hla	xxx	xxx	0	1	2	3	1	3	1	flphla	invhla			1	1	1	0	1	1	0	0	0	0	0	tors		item_lightarmor	12	item_lightarmor	0	0	5	0	0	0	0	0	2	0	0	0			0	1	0	1	0	1	1	0	1	0	1	1	0	0	0	0	255	0	0	0	0	255	0	0	0	0	255	0	0	0	0	255	0	0	0	0	255	0	0	0	0	255	0	0	0	0	255	0	0	255	0	0	0	0	0	0	255	0	0	0	0	255	0	0	0	0	255	0	0	0	0	255	0	0	0	0	255	0	0	0	0	255	0	0	0	0	255			2	8	0	xla	xpl	0	0	1
Studded Leather 	0	0	1	1	35	45	0	5	27	0	40	0	8	5	1193	11270	stu	stu	1		stu	stu	stu	xxx	xxx	0	1	2	3	1	3	1	flpstu	invstu			1	0	0	1	1	1	0	0	0	0	0	tors		item_lightarmor	12	item_lightarmor	0	0	5	0	0	0	0	0	2	0	0	0			0	1	0	1	0	1	1	0	1	0	1	1	0	0	0	0	255	0	0	0	0	255	0	0	0	0	255	0	0	0	0	255	0	0	0	0	255	0	0	0	0	255	0	0	0	0	255	0	0	255	0	0	0	0	0	0	255	0	0	0	0	255	0	0	0	0	255	0	0	0	0	255	0	0	0	0	255	0	0	0	0	255	0	0	0	0	255			2	8	0	xtu	xlt	0	0	1
Ring Mail	0	0	1	1	45	60	0	7	35	0	50	0	11	7	2800	20177	rng	rng	1		rng	rng	rng	xxx	xxx	0	1	2	3	1	3	1	flprng	invrng			0	0	1	1	1	1	0	0	0	0	0	tors		item_chainarmor	12	item_chainarmor	0	0	5	0	0	0	0	0	2	0	0	0			0	3	0	1	0	0	1	0	0	0	0	255	0	0	0	0	255	0	1	0	1	1	0	0	0	0	255	0	0	0	0	255	0	0	0	0	255	0	0	0	0	255	0	0	0	0	255	0	1	1	0	1	0	0	0	0	255	0	0	0	0	255	0	0	0	0	255	0	0	0	0	255	0	0	0	0	255	0	0	0	0	255	0	0	0	0	255			2	8	0	xng	xlt	0	0	1
Scale Mail	0	0	1	1	60	70	0	8	44	0	52	0	13	8	3254	30151	scl	scl	1		scl	scl	scl	xxx	xxx	0	1	2	3	1	3	1	flpscl	invscl			1	1	1	1	1	1	0	0	0	0	0	tors		item_chainarmor	12	item_chainarmor	0	0	5	0	0	0	0	0	2	0	0	0			0	3	0	0	0	0	255	0	0	0	0	255	0	0	0	0	255	0	1	0	1	1	0	0	0	0	255	0	0	0	0	255	0	0	0	0	255	0	0	0	0	255	0	0	0	0	255	0	1	1	0	1	0	0	0	0	255	0	0	0	1	1	0	0	0	0	255	0	0	0	0	255	0	0	0	0	255	0	0	0	0	255	0	0	0	0	255			2	8	0	xcl	xlt	0	0	1
Chain Mail	0	0	1	1	70	80	0	9	50	0	55	0	14	8	4680	45100	chn	chn	1		chn	chn	chn	xxx	xxx	0	1	2	3	1	3	1	flpchn	invchn			1	1	1	1	2	2	0	0	0	0	0	tors		item_chainarmor	12	item_chainarmor	0	0	5	0	0	0	0	0	2	0	0	0			0	3	0	0	0	0	255	0	0	0	0	255	0	0	0	0	255	0	1	0	1	1	0	0	0	0	255	0	0	0	0	255	0	0	0	0	255	0	0	0	0	255	0	0	0	0	255	0	1	1	0	1	0	1	0	1	1	1	1	1	1	1	0	0	0	0	255	0	0	0	0	255	0	0	0	0	255	0	0	0	0	255	0	0	0	0	255			2	8	0	xhn	xld	0	0	1
Breast Plate	0	0	1	1	80	90	1	7	55	0	57	0	17	10	5039	56851	brs	brs	1		brs	brs	brs	xxx	xxx	0	1	2	3	1	3	1	flpbrs	invbrs			0	0	2	0	2	2	0	0	0	0	0	tors		item_platearmor	12	item_platearmor	0	0	5	0	0	0	0	0	2	0	0	0			0	3	0	0	0	0	255	0	0	0	0	255	0	0	0	0	255	0	1	0	1	1	0	0	0	0	255	0	0	0	0	255	0	0	0	0	255	0	0	0	0	255	0	0	0	0	255	0	1	1	0	1	0	1	0	1	1	1	1	1	1	1	0	0	0	0	255	0	0	0	0	255	0	0	0	0	255	0	0	0	0	255	0	0	0	0	255			2	8	0	xrs	xld	0	0	1
Splint Mail	0	0	1	1	90	110	0	10	60	0	60	0	20	12	7745	89945	spl	spl	1		spl	spl	spl	xxx	xxx	0	1	2	3	1	3	1	flpspl	invspl			1	1	2	1	1	1	0	0	0	0	0	tors		item_platearmor	12	item_platearmor	0	0	5	0	0	0	0	0	2	0	0	0			0	3	0	0	0	0	255	0	0	0	0	255	0	0	0	0	255	0	1	0	0	1	0	0	0	0	255	0	0	0	0	255	0	1	0	1	1	0	0	0	0	255	0	0	0	0	255	0	0	255	0	0	0	1	0	1	1	1	1	0	1	1	0	0	0	0	255	0	0	0	0	255	0	0	0	0	255	0	0	0	0	255	0	0	0	0	255			2	8	0	xrs	xld	0	0	1
Plate Mail	0	0	1	1	110	130	0	20	70	0	70	0	24	14	12000	148510	plt	plt	1		plt	plt	plt	xxx	xxx	0	1	2	3	1	3	1	flpplt	invplt			2	2	2	2	0	0	0	0	0	0	0	tors		item_platearmor	12	item_platearmor	0	0	5	0	0	0	0	0	2	0	0	0			0	3	0	0	0	0	255	0	0	0	0	255	0	0	0	0	255	0	0	0	0	255	0	0	0	0	255	0	0	0	0	255	0	1	0	1	1	0	0	0	0	255	0	0	0	0	255	0	0	255	0	0	0	0	0	0	255	0	0	0	0	255	0	0	0	0	255	0	2	0	2	1	0	0	0	0	255	0	0	0	0	255	0	0	0	0	255			2	8	0	xpl	xth	0	0	1
Field Plate	0	0	1	1	130	155	2	22	75	0	75	0	26	16	15000	183387	fld	fld	1		fld	fld	fld	xxx	xxx	0	1	2	3	1	3	1	flpfld	invfld			1	1	2	2	2	2	0	0	0	0	0	tors		item_platearmor	12	item_platearmor	0	0	5	0	0	0	0	0	2	0	0	0			0	3	0	0	0	0	255	0	0	0	0	255	0	0	0	0	255	0	0	0	0	255	0	0	0	0	255	0	0	0	0	255	0	1	0	0	1	0	0	0	0	255	0	0	0	0	255	0	0	255	0	0	0	0	0	0	255	0	0	0	0	255	0	1	0	1	1	0	2	0	2	1	0	0	0	0	255	0	0	0	0	255	0	0	0	0	255			2	8	0	xpl	xth	0	0	1
Battle Armor	0	0	1	1	155	180	0	22	80	0	80	0	28	17	17323	295668	gth	gth	1		gth	gth	gth	xxx	xxx	0	1	2	3	1	3	1	flpgth	invgth			2	2	1	2	2	2	0	0	0	0	0	tors		item_platearmor	12	item_platearmor	0	0	5	0	0	0	0	0	2	0	0	0			0	3	0	0	0	0	255	0	0	0	0	255	0	0	0	0	255	0	0	0	0	255	0	0	0	0	255	0	0	0	0	255	0	0	0	0	1	0	0	0	0	255	0	0	0	0	255	0	0	255	0	0	0	0	0	0	255	0	0	0	0	255	0	2	0	2	1	0	2	0	2	1	0	0	0	0	255	0	0	0	0	255	0	0	0	0	255			2	8	0	xlt	xth	0	0	1
Full Plate Armor	0	0	1	1	180	212	2	25	90	0	90	0	30	18	25000	457526	ful	ful	1		ful	ful	ful	xxx	xxx	0	1	2	3	1	3	1	flpful	invful	invfulu	invfulu	2	2	2	2	1	1	0	0	0	0	0	tors		item_platearmor	12	item_platearmor	0	0	5	0	0	0	0	0	2	0	0	0			0	3	0	0	0	0	255	0	0	0	0	255	0	0	0	0	255	0	0	0	0	255	0	0	0	0	255	0	0	0	0	255	0	0	0	0	1	0	0	0	0	255	0	0	0	0	255	0	0	255	0	0	0	0	0	0	255	0	0	0	0	255	0	2	0	2	1	0	0	0	0	255	0	2	0	2	1	0	0	0	0	255	0	2	0	2	1			2	8	0	xlt	xul	0	0	1
Full Plate Mail	0	0	1	1	212	256	5	25	100	0	100	0	32	19	37000	761140	aar	aar	1		aar	aar	aar	xxx	xxx	0	1	2	3	1	3	1	flpaar	invaar	invaaru	invaaru	2	2	2	2	2	2	0	0	0	0	0	tors		item_platearmor	12	item_platearmor	0	0	5	0	0	0	0	0	2	0	0	0			0	3	0	0	0	0	255	0	0	0	0	255	0	0	0	0	255	0	0	0	0	255	0	0	0	0	255	0	0	0	0	255	0	0	0	0	255	0	0	0	0	255	0	0	0	0	255	0	0	255	0	0	0	0	0	0	255	0	0	0	0	255	0	1	0	1	1	0	0	0	0	255	0	2	0	2	1	0	0	0	0	255	0	0	0	0	255			2	8	0	xld	xul	0	0	1
Light Plate	0	0	1	1	100	145	1	10	35	0	50	0	32	19	20000	267861	ltp	ltp	1		ltp	ltp	ltp	xxx	xxx	0	1	2	3	1	3	1	flpltp	invltp			2	0	1	1	2	2	0	0	0	0	0	tors		item_platearmor	12	item_platearmor	0	0	5	0	0	0	0	0	2	0	0	0			0	3	0	0	0	0	255	0	0	0	0	255	0	0	0	0	255	0	0	0	0	255	0	0	0	0	255	0	0	0	0	255	0	0	0	0	255	0	0	0	0	255	0	0	0	0	255	0	0	255	0	0	0	0	0	0	255	0	0	0	0	255	0	0	0	0	255	0	0	0	0	1	0	0	0	0	255	0	0	0	0	255	0	2	0	2	1			2	8	0	xld	xul	0	0	1
Buckler	0	0	1	1	9	15	0	0	15	3	15	0	3	1	70	3017	buc	buc	1		buc	buc	buc	xxx	xxx	0	7	2	2	1	2	2	flpbuc	invbuc	invbucu	invbucu							0	0	0	0	0	shie		item_woodshield	12	item_woodshield	0	0	5	0	0	0	0	0	1	0	1	3	100		0	3	0	1	0	1	1	0	1	0	1	1	0	0	0	0	255	0	0	0	0	255	0	0	0	0	255	0	0	0	0	255	0	0	0	0	255	0	0	0	0	255	0	0	0	0	255	0	0	255	0	0	0	0	0	0	255	0	0	0	0	255	0	0	0	0	255	0	0	0	0	255	0	0	0	0	255	0	0	0	0	255	0	0	0	0	255			5	8	0	gts	xml	0	0	1
Small Shield	0	0	1	1	15	24	0	0	25	7	25	0	7	4	500	5512	sml	sml	1		buc	buc	sml	xxx	xxx	0	7	2	2	1	2	2	flpsml	invsml	invsmlu	invsmlu							0	0	0	0	0	shie		item_woodshield	12	item_woodshield	0	0	5	0	0	0	0	0	1	0	1	5	100		0	3	0	1	0	1	1	0	1	0	1	1	0	0	0	0	255	0	0	0	0	255	0	0	0	0	255	0	0	0	0	255	0	0	0	0	255	0	0	0	0	255	0	0	0	0	255	0	0	255	0	0	0	0	0	0	255	0	0	0	1	1	0	0	0	0	255	0	0	0	0	255	0	0	0	0	255	0	0	0	0	255	0	0	0	0	255			5	5	0	xuc	xml	0	0	1
Large Shield	0	0	1	1	24	36	0	1	35	11	35	0	12	7	1200	11338	lrg	lrg	1		lrg	buc	lrg	xxx	xxx	0	7	2	3	1	3	2	flplrg	invlrg	invlrgu	invlrgu							0	0	0	0	0	shie		item_metalshield	12	item_metalshield	0	0	5	0	0	0	0	0	1	0	2	6	100		0	3	0	1	0	1	1	0	1	0	1	1	0	0	0	0	255	0	1	0	1	1	0	0	0	0	255	0	0	0	0	255	0	0	0	0	255	0	0	0	0	255	0	0	0	0	255	0	1	1	0	1	0	0	0	0	255	1	1	1	1	1	0	0	0	0	255	0	0	0	0	255	0	0	0	0	255	0	0	0	0	255	0	0	0	0	255			2	2	0	xml	xrg	0	0	1
Kite Shield	0	0	1	1	36	48	0	2	50	15	50	0	20	12	2000	17983	kit	kit	1		kit	buc	kit	xxx	xxx	0	7	2	3	1	3	2	flpkit	invkit	invkitu	invkitu							0	0	0	0	0	shie		item_metalshield	12	item_metalshield	0	0	5	0	0	0	0	0	1	0	3	7	100		0	3	0	0	0	0	255	0	0	0	0	255	0	0	0	0	255	0	1	0	1	1	0	0	0	0	255	0	0	0	0	255	0	1	0	1	1	0	0	0	0	255	0	0	0	0	255	0	1	1	0	1	0	1	0	1	1	1	1	0	1	1	0	0	0	0	255	0	2	0	2	1	0	0	0	0	255	0	0	0	0	255	0	0	0	0	255			2	2	0	xml	xrg	0	0	1
Tower Shield	0	0	1	1	50	60	1	3	60	18	60	0	28	17	4000	36869	tow	tow	1		tow	buc	tow	xxx	xxx	0	7	2	3	1	3	2	flptow	invtow	invtowu	invtowu							0	0	0	0	0	shie		item_metalshield	12	item_metalshield	0	0	5	0	0	0	0	0	1	0	4	8	100		0	3	0	0	0	0	255	0	0	0	0	255	0	0	0	0	255	0	0	0	0	255	0	0	0	0	255	0	0	0	0	255	0	1	0	1	1	0	0	0	0	255	0	0	0	0	255	0	0	255	0	0	0	1	0	1	1	0	0	0	0	255	0	2	0	2	1	0	2	0	2	1	0	2	0	2	1	0	0	0	0	255	0	0	0	0	255			2	2	0	xrg	xit	0	0	1
Wall Shield	0	0	1	1	60	70	0	5	75	21	70	0	32	19	7000	77500	gts	gts	1		kit	buc	gts	xxx	xxx	0	7	2	4	1	3	2	flpgts	invgts	invgtsu	invgtsu							0	0	0	0	0	shie		item_metalshield	12	item_metalshield	0	0	5	0	0	0	0	0	1	0	5	10	100		0	3	0	0	0	0	255	0	0	0	0	255	0	0	0	0	255	0	0	0	0	255	0	0	0	0	255	0	0	0	0	255	0	0	0	0	255	0	0	0	0	255	0	0	0	0	255	0	0	255	0	0	0	0	0	0	255	0	0	0	0	255	0	2	0	2	1	0	0	0	0	255	0	2	0	2	1	0	0	0	0	255	0	2	0	2	1			2	2	0	xrg	xow	0	0	1
Gloves(L)	0	0	1	1	1	5	0	0	0	0	10	0	3	1	40	4060	lgl	lgl	1		lgl	lgl	lgl	xxx	xxx	0	16	2	2	0	0	0	flplgl	invlgl									0	0	0	0	0	glov		item_gloves	12	item_gloves	0	0	5	0	0	0	0	0	5	0	0	0			0	1	0	1	0	1	1	0	1	0	1	1	0	0	0	0	255	0	0	0	0	255	0	0	0	0	255	0	0	0	0	255	0	0	0	0	255	0	0	0	0	255	0	0	0	0	255	0	0	255	0	0	0	0	0	0	255	0	0	0	0	255	0	0	0	0	255	0	0	0	0	255	0	0	0	0	255	0	0	0	0	255	0	0	0	0	255			0	8	0	hgl	xvg	0	0	1
Heavy Gloves	0	0	1	1	5	9	0	0	12	0	14	0	7	4	176	6616	vgl	vgl	1		vgl	vgl	vgl	xxx	xxx	0	16	2	2	0	0	0	flpvgl	invvgl									0	0	0	0	0	glov		item_gloves	12	item_gloves	0	0	5	0	0	0	0	0	5	0	0	0			0	1	0	1	0	1	1	0	1	0	1	1	0	0	0	0	255	0	1	0	1	1	0	0	0	0	255	0	0	0	0	255	0	0	0	0	255	0	0	0	0	255	0	0	0	0	255	0	1	1	0	1	0	0	0	0	255	0	0	0	0	255	0	0	0	0	255	0	0	0	0	255	0	0	0	0	255	0	0	0	0	255	0	0	0	0	255			0	8	0	xlg	xvg	0	0	1
Bracers(M)	0	0	1	1	9	12	0	0	25	0	17	0	12	7	430	11077	mgl	mgl	1		mgl	mgl	mgl	xxx	xxx	0	16	2	2	0	0	0	flpmgl	invmgl									0	0	0	0	0	glov		item_gloveschain	12	item_gloveschain	0	0	5	0	0	0	0	0	5	0	0	0			0	1	0	1	0	0	1	0	1	0	1	255	0	0	0	0	255	0	1	0	1	1	0	0	0	0	255	0	0	0	0	255	0	0	0	0	255	0	0	0	0	255	0	0	0	0	255	0	1	1	0	1	0	1	0	1	1	1	1	0	1	1	0	0	0	0	255	0	0	0	0	255	0	0	0	0	255	0	0	0	0	255	0	0	0	0	255			0	8	0	xlg	xmg	0	0	1
Light Gauntlets	0	0	1	1	12	16	0	0	45	0	22	0	20	12	818	20675	tgl	tgl	1		mgl	mgl	tgl	xxx	xxx	0	16	2	2	0	0	0	flptgl	invtgl									0	0	0	0	0	glov		item_glovesmetal	12	item_glovesmetal	0	0	5	0	0	0	0	0	5	0	0	0			0	1	0	0	0	0	255	0	0	0	0	255	0	0	0	0	255	0	1	0	0	1	0	0	0	0	255	0	0	0	0	255	0	1	0	1	1	0	0	0	0	255	0	0	0	0	255	0	1	1	0	1	0	1	0	1	1	1	2	1	1	1	0	0	0	0	255	0	2	0	2	1	0	0	0	0	255	0	0	0	0	255	0	2	0	2	1			0	8	0	xvg	xmg	0	0	1
Gaunlets(H)	0	0	1	1	16	21	0	1	60	0	25	0	27	16	1482	36007	hgl	hgl	1		hgl	hgl	hgl	xxx	xxx	0	16	2	2	0	0	0	flphgl	invhgl									0	0	0	0	0	glov		item_glovesmetal	12	item_glovesmetal	0	0	5	0	0	0	0	0	5	0	0	0			0	1	0	0	0	0	255	0	0	0	0	255	0	0	0	0	255	0	0	0	0	255	0	0	0	0	255	0	0	0	0	255	0	1	0	1	1	0	0	0	0	255	0	0	0	0	255	0	0	255	0	0	0	1	0	1	1	1	1	0	1	1	0	1	0	1	1	0	2	0	2	1	0	2	0	2	1	0	0	0	0	255	0	2	0	2	1			0	8	0	xmg	xtg	0	0	1
Leather Boots	0	0	1	1	1	5	0	0	5	0	12	0	3	1	40	4060	lbt	lbt	1		lbt	lbt	lbt	xxx	xxx	0	16	2	2	0	0	0	flplbt	invlbt									0	0	0	0	0	boot		item_boots	12	item_boots	0	0	5	0	0	0	0	0	6	0	0	0	120		0	1	0	1	0	1	1	0	1	0	1	1	0	0	0	0	255	0	0	0	0	255	0	0	0	0	255	0	0	0	0	255	0	0	0	0	255	0	0	0	0	255	0	0	0	0	255	0	0	255	0	0	0	0	0	0	255	0	0	0	0	255	0	0	0	0	255	0	0	0	0	255	0	0	0	0	255	0	0	0	0	255	0	0	0	0	255			0	8	0	hbt	xvb	0	0	1
Heavy Boots	0	0	1	1	5	9	0	0	18	0	14	0	7	4	167	6584	vbt	vbt	1		vbt	vbt	vbt	xxx	xxx	0	16	2	2	0	0	0	flpvbt	invvbt									0	0	0	0	0	boot		item_boots	12	item_boots	0	0	5	0	0	0	0	0	6	0	0	0	120		0	1	0	1	0	1	1	0	1	0	1	1	0	0	0	0	255	0	1	0	1	1	0	0	0	0	255	0	0	0	0	255	0	0	0	0	255	0	0	0	0	255	0	0	0	0	255	0	1	1	0	1	0	0	0	0	255	0	0	0	0	255	0	0	0	0	255	0	0	0	0	255	0	0	0	0	255	0	0	0	0	255	0	0	0	0	255			0	8	0	xlb	xvb	0	0	1
Chain Boots	0	0	1	1	9	12	0	0	30	0	17	0	12	7	427	11062	mbt	mbt	1		mbt	mbt	mbt	xxx	xxx	0	16	2	2	0	0	0	flpmbt	invmbt									0	0	0	0	0	boot		item_bootschain	12	item_bootschain	0	0	5	0	0	0	0	0	6	0	0	0	120		0	3	0	1	0	0	1	0	1	0	1	1	0	0	0	0	255	0	1	0	1	1	0	0	0	0	255	0	0	0	0	255	0	0	0	0	255	0	0	0	0	255	0	0	0	0	255	0	1	1	0	1	0	1	0	1	1	1	1	0	1	1	0	0	0	0	255	0	0	0	0	255	0	0	0	0	255	0	0	0	0	255	0	0	0	0	255			0	8	0	xlb	xmb	0	0	1
Light Plate Boots	0	0	1	1	12	16	0	1	45	0	22	0	20	12	815	20650	tbt	tbt	1		mbt	mbt	tbt	xxx	xxx	0	16	2	2	0	0	0	flptbt	invtbt									0	0	0	0	0	boot		item_bootsmetal	12	item_bootsmetal	0	0	5	0	0	0	0	0	6	0	0	0	120		0	3	0	0	0	0	255	0	0	0	0	255	0	0	0	0	255	0	1	0	1	1	0	0	0	0	255	0	0	0	0	255	0	1	0	1	1	0	0	0	0	255	0	0	0	0	255	0	1	1	0	1	0	1	0	1	1	1	2	1	1	1	0	0	0	0	255	0	2	0	2	1	0	0	0	0	255	0	0	0	0	255	0	2	0	2	1			0	8	0	xvb	xmb	0	0	1
Plate Boots	0	0	1	1	16	21	0	2	60	0	25	0	27	16	1477	35939	hbt	hbt	1		hbt	hbt	hbt	xxx	xxx	0	16	2	2	0	0	0	flphbt	invhbt									0	0	0	0	0	boot		item_bootsmetal	12	item_bootsmetal	0	0	5	0	0	0	0	0	6	0	0	0	120		0	3	0	0	0	0	255	0	0	0	0	255	0	0	0	0	255	0	0	0	0	255	0	0	0	0	255	0	0	0	0	255	0	1	0	1	1	0	0	0	0	255	0	0	0	0	255	0	0	255	0	0	0	1	0	1	1	1	1	0	1	1	0	1	0	1	1	0	2	0	2	1	0	2	0	2	1	0	0	0	0	255	0	2	0	2	1			0	8	0	xmb	xtb	0	0	1
Sash(L)	0	0	1	1	1	5	0	0	0	0	12	0	3	1	40	4048	lbl	lbl	1		lbl	lbl	lbl	xxx	xxx	0	16	2	1	0	0	0	flplbl	invlbl									0	0	0	0	0	belt		item_lightarmor	12	item_lightarmor	0	0	5	0	0	1	0	0	4	0	0	0			0	1	0	1	0	1	1	0	1	0	1	1	0	0	0	0	255	0	0	0	0	255	0	0	0	0	255	0	0	0	0	255	0	0	0	0	255	0	0	0	0	255	0	0	0	0	255	0	0	255	0	0	0	0	0	0	255	0	0	0	0	255	0	0	0	0	255	0	0	0	0	255	0	0	0	0	255	0	0	0	0	255	0	0	0	0	255			0	8	0	hbl	zvb	0	0	1
Light Belt	0	0	1	1	5	9	0	0	12	0	14	0	7	4	167	6336	vbl	vbl	1		vbl	vbl	vbl	xxx	xxx	0	16	2	1	0	0	0	flpvbl	invvbl									0	0	0	0	0	belt		item_belt	12	item_belt	0	0	5	0	0	4	0	0	4	0	0	0			0	1	0	1	0	1	1	0	1	0	1	1	0	0	0	0	255	0	1	0	1	1	0	0	0	0	255	0	0	0	0	255	0	0	0	0	255	0	0	0	0	255	0	0	0	0	255	0	1	1	0	1	0	0	0	0	255	0	0	0	0	255	0	0	0	0	255	0	0	0	0	255	0	0	0	0	255	0	0	0	0	255	0	0	0	0	255			0	8	0	zlb	zvb	0	0	1
Belt(M)	0	0	1	1	9	12	0	0	25	0	17	0	12	7	427	9985	mbl	mbl	1		mbl	mbl	mbl	xxx	xxx	0	16	2	1	0	0	0	flpmbl	invmbl									0	0	0	0	0	belt		item_belt	12	item_belt	0	0	5	0	0	0	0	0	4	0	0	0			0	1	0	1	0	1	1	0	1	0	1	1	0	0	0	0	255	0	1	0	1	1	0	0	0	0	255	0	0	0	0	255	0	0	0	0	255	0	0	0	0	255	0	0	0	0	255	0	1	1	0	1	0	1	0	1	1	1	1	0	1	1	0	0	0	0	255	0	0	0	0	255	0	0	0	0	255	0	0	0	0	255	0	0	0	0	255			0	8	0	zlb	zmb	0	0	1
Heavy Belt	0	0	1	1	12	16	0	0	45	0	22	0	20	12	815	17315	tbl	tbl	1		mbl	mbl	tbl	xxx	xxx	0	16	2	1	0	0	0	flptbl	invtbl									0	0	0	0	0	belt		item_belt	12	item_belt	0	0	5	0	0	5	0	0	4	0	0	0			0	1	0	0	0	0	255	0	0	0	0	255	0	0	0	0	255	0	1	0	1	1	0	0	0	0	255	0	0	0	0	255	0	1	0	1	1	0	0	0	0	255	0	0	0	0	255	0	1	1	0	1	0	1	0	1	1	1	2	1	1	1	0	0	0	0	255	0	2	0	2	1	0	0	0	0	255	0	0	0	0	255	0	2	0	2	1			0	8	0	zvb	zmb	0	0	1
Girdle(H)	0	0	1	1	16	21	0	1	50	0	25	0	27	16	1477	29959	hbl	hbl	1		hbl	hbl	hbl	xxx	xxx	0	16	2	1	0	0	0	flphbl	invhbl									0	0	0	0	0	belt		item_belt	12	item_belt	0	0	5	0	0	3	0	0	4	0	0	0			0	1	0	0	0	0	255	0	0	0	0	255	0	0	0	0	255	0	0	0	0	255	0	0	0	0	255	0	0	0	0	255	0	1	0	1	1	0	0	0	0	255	0	0	0	0	255	0	0	255	0	0	0	1	0	1	1	1	1	0	1	1	0	1	0	1	1	0	2	0	2	1	0	2	0	2	1	0	0	0	0	255	0	2	0	2	1			0	8	0	zmb	ztb	0	0	1
Bone Helm	0	0	1	1	17	35	0	0	25	0	30	0	22	13	2167	48276	bhm	bhm	1		bhm	hlm	bhm	xxx	xxx	0	0	2	2	1	2	1	flpbhm	invbhm	invbhmu	invbhmu							0	0	0	0	0	helm		item_helm	12	item_helm	0	0	5	0	2	0	0	0	3	0	0	0			0	1	0	0	0	0	255	0	0	0	0	255	0	0	0	0	255	0	0	0	0	255	0	0	0	0	255	0	0	0	0	255	0	0	0	0	255	0	0	0	0	255	0	0	0	0	255	0	0	255	0	0	0	0	0	0	255	0	0	0	0	255	0	0	0	0	255	0	0	0	0	255	0	0	0	0	255	0	0	0	0	255	0	0	0	0	255			2	8	0	xxx	xxx	0	0	1
Bone Shield	0	0	1	1	29	50	0	1	30	12	30	0	19	11	1588	27081	bsh	bsh	1		bsh	buc	bsh	xxx	xxx	0	7	2	3	1	3	2	flpbsh	invbsh	invbshu	invbshu							0	0	0	0	0	shie		item_metalshield	12	item_metalshield	0	0	5	0	0	0	0	0	1	0	4	8	100		0	1	0	0	0	0	255	0	0	0	0	255	0	0	0	0	255	0	0	0	0	255	0	0	0	0	255	0	0	0	0	255	0	0	0	0	255	0	0	0	0	255	0	0	0	0	255	0	0	255	0	0	0	0	0	0	255	0	0	0	0	255	0	0	0	0	255	0	0	0	0	255	0	0	0	0	255	0	0	0	0	255	0	0	0	0	255			2	8	0	xxx	xxx	0	0	1
Spiked Shield	0	0	1	1	40	63	0	2	40	15	40	0	25	15	4500	13197	spk	spk	1		spk	buc	spk	xxx	xxx	0	7	2	3	1	3	2	flpspk	invspk	invspku	invspku							0	0	0	0	0	shie		item_metalshield	12	item_metalshield	0	0	5	0	0	0	0	0	1	0	7	12	100		0	1	0	0	0	0	255	0	0	0	0	255	0	0	0	0	255	0	0	0	0	255	0	0	0	0	255	0	0	0	0	255	0	0	0	0	255	0	0	0	0	255	0	0	0	0	255	0	0	255	0	0	0	0	0	0	255	0	0	0	0	255	0	0	0	0	255	0	0	0	0	255	0	0	0	0	255	0	0	0	0	255	0	0	0	0	255			2	8	0	xxx	xxx	0	0	1
Grand Cap	0	0	1	1	44	55	0	0	40	0	15	0	28	17	5180	82061	xap	xap	3		cap	cap	cap	xxx	xxx	0	0	2	2	1	2	1	flpcap	leatherhat									0	0	0	0	0	helm		item_cap	12	item_cap	0	0	5	0	0	0	0	0	3	0	0	0			0	1	0	0	0	0	255	0	0	0	0	255	0	0	0	0	255	0	0	0	0	255	0	0	0	0	255	0	0	0	0	255	0	0	0	0	255	0	0	0	0	255	0	0	0	0	255	0	0	255	0	0	0	0	0	0	255	0	0	0	0	255	0	0	0	0	255	0	0	0	0	255	0	0	0	0	255	0	0	0	0	255	0	0	0	0	255			2	8	0	xxx	xxx	0	0	1
Reinforced Cap	0	0	1	1	55	66	0	0	50	0	20	0	37	22	6732	113647	xkp	xkp	3		skp	skp	skp	xxx	xxx	0	0	2	2	1	2	1	flpskp	helm09									0	0	0	0	0	helm		item_helm	12	item_helm	0	0	5	0	0	0	0	0	3	0	0	0			0	3	0	0	0	0	255	0	0	0	0	255	0	0	0	0	255	0	0	0	0	255	0	0	0	0	255	0	0	0	0	255	0	0	0	0	255	0	0	0	0	255	0	0	0	0	255	0	0	255	0	0	0	0	0	0	255	0	0	0	0	255	0	0	0	0	255	0	0	0	0	255	0	0	0	0	255	0	0	0	0	255	0	0	0	0	255			2	0	0	xxx	xxx	0	0	1
War Helm	0	0	1	1	66	77	0	0	60	0	25	0	47	28	9184	171804	xlm	xlm	3		hlm	hlm	hlm	xxx	xxx	0	0	2	2	1	2	1	flphlm	helm4									0	0	0	0	0	helm		item_helm	12	item_helm	0	0	5	0	0	0	0	0	3	0	0	0			0	3	0	0	0	0	255	0	0	0	0	255	0	0	0	0	255	0	0	0	0	255	0	0	0	0	255	0	0	0	0	255	0	0	0	0	255	0	0	0	0	255	0	0	0	0	255	0	0	255	0	0	0	0	0	0	255	0	0	0	0	255	0	0	0	0	255	0	0	0	0	255	0	0	0	0	255	0	0	0	0	255	0	0	0	0	255			2	0	0	xxx	xxx	0	0	1
Dwarven Helm	0	0	1	1	88	100	0	2	75	0	40	0	72	43	15500	233910	xhl	xhl	3		fhl	fhl	fhl	xxx	xxx	0	0	2	2	1	3	1	flpfhl	invhlmu									0	0	0	0	0	helm		item_helm	12	item_helm	0	0	5	0	0	0	0	0	3	0	0	0			0	3	0	0	0	0	255	0	0	0	0	255	0	0	0	0	255	0	0	0	0	255	0	0	0	0	255	0	0	0	0	255	0	0	0	0	255	0	0	0	0	255	0	0	0	0	255	0	0	255	0	0	0	0	0	0	255	0	0	0	0	255	0	0	0	0	255	0	0	0	0	255	0	0	0	0	255	0	0	0	0	255	0	0	0	0	255			0	8	0	xxx	xxx	0	0	1
Mithril Helm	0	0	1	1	77	88	0	1	50	0	100	0	57	34	11500	355900	xhm	xhm	3		fhl	fhl	ghm	xxx	xxx	0	0	2	2	1	2	1	flpghm	helm2	wingedhelm								0	0	0	0	0	helm		item_helm	12	item_helm	0	0	5	0	0	0	0	0	3	0	0	0			0	3	0	0	0	0	255	0	0	0	0	255	0	0	0	0	255	0	0	0	0	255	0	0	0	0	255	0	0	0	0	255	0	0	0	0	255	0	0	0	0	255	0	0	0	0	255	0	0	255	0	0	0	0	0	0	255	0	0	0	0	255	0	0	0	0	255	0	0	0	0	255	0	0	0	0	255	0	0	0	0	255	0	0	0	0	255			2	0	0	xxx	xxx	0	0	1
Elven Crown	0	0	1	1	100	125	0	3	100	0	60	0	78	47	18094	448816	xrn	xrn	3		crn	crn	crn	xxx	xxx	0	0	2	2	1	3	1	flpcrn	helm1									0	0	0	0	0	helm		item_helm	12	item_helm	0	0	5	0	0	0	0	0	3	0	0	0			0	3	0	0	0	0	255	0	0	0	0	255	0	0	0	0	255	0	0	0	0	255	0	0	0	0	255	0	0	0	0	255	0	0	0	0	255	0	0	0	0	255	0	0	0	0	255	0	0	255	0	0	0	0	0	0	255	0	0	0	0	255	0	0	0	0	255	0	0	0	0	255	0	0	0	0	255	0	0	0	0	255	0	0	0	0	255			2	0	0	xxx	xxx	0	0	1
Troll Mask	0	0	1	1	55	80	0	1	55	0	20	0	39	23	11163	241184	xsk	xsk	3		msk	msk	msk	xxx	xxx	0	0	2	2	1	3	1	flpmsk	invmsk									0	0	0	0	0	helm		item_helm	12	item_helm	0	0	5	0	0	0	0	0	3	0	0	0			0	3	0	0	0	0	255	0	0	0	0	255	0	0	0	0	255	0	0	0	0	255	0	0	0	0	255	0	0	0	0	255	0	0	0	0	255	0	0	0	0	255	0	0	0	0	255	0	0	255	0	0	0	0	0	0	255	0	0	0	0	255	0	0	0	0	255	0	0	0	0	255	0	0	0	0	255	0	0	0	0	255	0	0	0	0	255			1	2	0	xxx	xxx	0	0	1
Morgul Armor	0	0	1	1	133	155	0	7	40	0	35	0	28	17	11671	165635	xui	xui	3		qlt	qlt	qui	xxx	xxx	0	1	2	3	1	4	1	flpqlt	invqlt			0	0	0	0	0	0	0	0	0	0	0	tors		item_lightarmor	12	item_lightarmor	0	0	5	0	0	0	0	0	2	0	0	0			0	1	0	0	0	0	255	0	0	0	0	255	0	0	0	0	255	0	0	0	0	255	0	0	0	0	255	0	0	0	0	255	0	0	0	0	255	0	0	0	0	255	0	0	0	0	255	0	0	255	0	0	0	0	0	0	255	0	0	0	0	255	0	0	0	0	255	0	0	0	0	255	0	0	0	0	255	0	0	0	0	255	0	0	0	0	255			2	8	0	xxx	xxx	0	0	1
Serpentskin Armor	0	0	1	1	155	170	0	8	45	0	40	0	30	28	13341	197896	xea	xea	3		lea	lea	lea	xxx	xxx	0	1	2	3	1	4	1	flplea	invlea			0	0	1	0	1	1	0	0	0	0	0	tors		item_lightarmor	12	item_lightarmor	0	0	5	0	0	0	0	0	2	0	0	0			0	1	0	0	0	0	255	0	0	0	0	255	0	0	0	0	255	0	0	0	0	255	0	0	0	0	255	0	0	0	0	255	0	0	0	0	255	0	0	0	0	255	0	0	0	0	255	0	0	255	0	0	0	0	0	0	255	0	0	0	0	255	0	0	0	0	255	0	0	0	0	255	0	0	0	0	255	0	0	0	0	255	0	0	0	0	255			2	8	0	xxx	xxx	0	0	1
Mumakhide Armor	0	0	1	1	170	195	0	9	50	0	45	0	32	19	15297	236758	xla	xla	3		hla	hla	hla	xxx	xxx	0	1	2	3	1	4	1	flphla	leatherarmor			1	1	1	0	1	1	0	0	0	0	0	tors		item_lightarmor	12	item_lightarmor	0	0	5	0	0	0	0	0	2	0	0	0			0	1	0	0	0	0	255	0	0	0	0	255	0	0	0	0	255	0	0	0	0	255	0	0	0	0	255	0	0	0	0	255	0	0	0	0	255	0	0	0	0	255	0	0	0	0	255	0	0	255	0	0	0	0	0	0	255	0	0	0	0	255	0	0	0	0	255	0	0	0	0	255	0	0	0	0	255	0	0	0	0	255	0	0	0	0	255			2	8	0	xxx	xxx	0	0	1
Boiled Leather Armor	0	0	1	1	195	220	0	10	60	0	50	0	37	22	18562	305707	xtu	xtu	3		stu	stu	stu	xxx	xxx	0	1	2	3	1	4	1	flpstu	invstu			1	0	0	1	1	1	0	0	0	0	0	tors		item_lightarmor	12	item_lightarmor	0	0	5	0	0	0	0	0	2	0	0	0			0	1	0	0	0	0	255	0	0	0	0	255	0	0	0	0	255	0	0	0	0	255	0	0	0	0	255	0	0	0	0	255	0	0	0	0	255	0	0	0	0	255	0	0	0	0	255	0	0	255	0	0	0	0	0	0	255	0	0	0	0	255	0	0	0	0	255	0	0	0	0	255	0	0	0	0	255	0	0	0	0	255	0	0	0	0	255			2	8	0	xxx	xxx	0	0	1
Linked Mail	0	0	1	1	220	240	0	13	75	0	60	0	42	25	22534	393748	xng	xng	3		rng	rng	rng	xxx	xxx	0	1	2	3	1	4	1	flprng	invrng			0	0	1	1	1	1	0	0	0	0	0	tors		item_chainarmor	12	item_chainarmor	0	0	5	0	0	0	0	0	2	0	0	0			0	3	0	0	0	0	255	0	0	0	0	255	0	0	0	0	255	0	0	0	0	255	0	0	0	0	255	0	0	0	0	255	0	0	0	0	255	0	0	0	0	255	0	0	0	0	255	0	0	255	0	0	0	0	0	0	255	0	0	0	0	255	0	0	0	0	255	0	0	0	0	255	0	0	0	0	255	0	0	0	0	255	0	0	0	0	255			2	8	0	xxx	xxx	0	0	1
Tigulated Mail	0	0	1	1	240	260	0	14	78	0	62	0	45	26	26091	473193	xcl	xcl	3		scl	scl	scl	xxx	xxx	0	1	2	3	1	4	1	flpscl	invrom			1	1	1	1	1	1	0	0	0	0	0	tors		item_chainarmor	12	item_chainarmor	0	0	5	0	0	0	0	0	2	0	0	0			0	3	0	0	0	0	255	0	0	0	0	255	0	0	0	0	255	0	0	0	0	255	0	0	0	0	255	0	0	0	0	255	0	0	0	0	255	0	0	0	0	255	0	0	0	0	255	0	0	255	0	0	0	0	0	0	255	0	0	0	0	255	0	0	0	0	255	0	0	0	0	255	0	0	0	0	255	0	0	0	0	255	0	0	0	0	255			2	8	0	xxx	xxx	0	0	1
Mesh Armor	0	0	1	1	260	280	0	15	80	0	65	0	47	28	30537	574094	xhn	xhn	3		chn	chn	chn	xxx	xxx	0	1	2	3	1	4	1	flpchn	invchn			1	1	1	1	2	2	0	0	0	0	0	tors		item_chainarmor	12	item_chainarmor	0	0	5	0	0	0	0	0	2	0	0	0			0	3	0	0	0	0	255	0	0	0	0	255	0	0	0	0	255	0	0	0	0	255	0	0	0	0	255	0	0	0	0	255	0	0	0	0	255	0	0	0	0	255	0	0	0	0	255	0	0	255	0	0	0	0	0	0	255	0	0	0	0	255	0	0	0	0	255	0	0	0	0	255	0	0	0	0	255	0	0	0	0	255	0	0	0	0	255			2	8	0	xxx	xxx	0	0	1
Cuirass	0	0	1	1	280	300	1	13	85	0	70	0	49	29	30738	613456	xrs	xrs	3		brs	brs	brs	xxx	xxx	0	1	2	3	1	4	1	flpbrs	invbrs			0	0	2	0	2	2	0	0	0	0	0	tors		item_platearmor	12	item_platearmor	0	0	5	0	0	0	0	0	2	0	0	0			0	3	0	0	0	0	255	0	0	0	0	255	0	0	0	0	255	0	0	0	0	255	0	0	0	0	255	0	0	0	0	255	0	0	0	0	255	0	0	0	0	255	0	0	0	0	255	0	0	255	0	0	0	0	0	0	255	0	0	0	0	255	0	0	0	0	255	0	0	0	0	255	0	0	0	0	255	0	0	0	0	255	0	0	0	0	255			2	8	0	xxx	xxx	0	0	1
Gondorian Mail	0	0	1	1	300	325	0	16	90	0	75	0	52	31	38287	788235	xpl	xpl	3		spl	spl	spl	xxx	xxx	0	1	2	3	1	4	1	flpspl	armor20			1	1	2	1	1	1	0	0	0	0	0	tors		item_platearmor	12	item_platearmor	0	0	5	0	0	0	0	0	2	0	0	0			0	3	0	0	0	0	255	0	0	0	0	255	0	0	0	0	255	0	0	0	0	255	0	0	0	0	255	0	0	0	0	255	0	0	0	0	255	0	0	0	0	255	0	0	0	0	255	0	0	255	0	0	0	0	0	0	255	0	0	0	0	255	0	0	0	0	255	0	0	0	0	255	0	0	0	0	255	0	0	0	0	255	0	0	0	0	255			2	0	0	xxx	xxx	0	0	1
Moria Plate	0	0	1	1	325	360	0	25	100	0	90	0	57	34	46230	1017928	xlt	xlt	3		plt	plt	plt	xxx	xxx	0	1	2	3	1	4	1	flpplt	armor01a			2	2	2	2	0	0	0	0	0	0	0	tors		item_platearmor	12	item_platearmor	0	0	5	0	0	0	0	0	2	0	0	0			0	3	0	0	0	0	255	0	0	0	0	255	0	0	0	0	255	0	0	0	0	255	0	0	0	0	255	0	0	0	0	255	0	0	0	0	255	0	0	0	0	255	0	0	0	0	255	0	0	255	0	0	0	0	0	0	255	0	0	0	0	255	0	0	0	0	255	0	0	0	0	255	0	0	0	0	255	0	0	0	0	255	0	0	0	0	255			2	0	0	xxx	xxx	0	0	1
Numenorean Plate Mail	0	0	1	1	360	390	2	26	110	0	100	0	70	42	55000	1103159	xld	xld	3		fld	fld	fld	xxx	xxx	0	1	2	3	1	4	1	flpfld	invedl			1	1	2	2	2	2	0	0	0	0	0	tors		item_platearmor	12	item_platearmor	0	0	5	0	0	0	0	0	2	0	0	0			0	3	0	0	0	0	255	0	0	0	0	255	0	0	0	0	255	0	0	0	0	255	0	0	0	0	255	0	0	0	0	255	0	0	0	0	255	0	0	0	0	255	0	0	0	0	255	0	0	255	0	0	0	0	0	0	255	0	0	0	0	255	0	0	0	0	255	0	0	0	0	255	0	0	0	0	255	0	0	0	0	255	0	0	0	0	255			2	8	0	xxx	xxx	0	0	1
Naugrim Plate Mail	0	0	1	1	390	420	0	28	125	0	110	0	74	43	58388	1457493	xth	xth	3		gth	gth	gth	xxx	xxx	0	1	2	3	1	4	1	flpgth	armor07			2	2	1	2	2	2	0	0	0	0	0	tors		item_platearmor	12	item_platearmor	0	0	5	0	0	0	0	0	2	0	0	0			0	3	0	0	0	0	255	0	0	0	0	255	0	0	0	0	255	0	0	0	0	255	0	0	0	0	255	0	0	0	0	255	0	0	0	0	255	0	0	0	0	255	0	0	0	0	255	0	0	255	0	0	0	0	0	0	255	0	0	0	0	255	0	0	0	0	255	0	0	0	0	255	0	0	0	0	255	0	0	0	0	255	0	0	0	0	255			2	0	0	xxx	xxx	0	0	1
Dwarven Battle Armor	0	0	1	1	420	445	2	30	140	0	125	0	78	47	70504	1888411	xul	xul	3		ful	ful	ful	xxx	xxx	0	1	2	3	1	4	1	flpful	invfulu			2	2	2	2	1	1	0	0	0	0	0	tors		item_platearmor	12	item_platearmor	0	0	5	0	0	0	0	0	2	0	0	0			0	3	0	0	0	0	255	0	0	0	0	255	0	0	0	0	255	0	0	0	0	255	0	0	0	0	255	0	0	0	0	255	0	0	0	0	255	0	0	0	0	255	0	0	0	0	255	0	0	255	0	0	0	0	0	0	255	0	0	0	0	255	0	0	0	0	255	0	0	0	0	255	0	0	0	0	255	0	0	0	0	255	0	0	0	0	255			2	8	0	xxx	xxx	0	0	1
Elven Royal Mail	0	0	1	1	445	500	5	33	180	0	150	0	82	49	100000	2696482	xar	xar	3		aar	aar	aar	xxx	xxx	0	1	2	3	1	4	1	flpaar	invxaru			2	2	2	2	2	2	0	0	0	0	0	tors		item_platearmor	12	item_platearmor	0	0	5	0	0	0	0	0	2	0	0	0			0	3	0	0	0	0	255	0	0	0	0	255	0	0	0	0	255	0	0	0	0	255	0	0	0	0	255	0	0	0	0	255	0	0	0	0	255	0	0	0	0	255	0	0	0	0	255	0	0	255	0	0	0	0	0	0	255	0	0	0	0	255	0	0	0	0	255	0	0	0	0	255	0	0	0	0	255	0	0	0	0	255	0	0	0	0	255			2	8	0	xxx	xxx	0	0	1
Mithril Plate Mail	0	0	1	1	278	367	1	15	55	0	250	0	82	49	75000	1327498	xtp	xtp	3		ltp	ltp	ltp	xxx	xxx	0	1	2	3	1	6	1	flpltp	platearmor			2	0	1	1	2	2	0	0	0	0	0	tors		item_platearmor	12	item_platearmor	0	0	5	0	0	0	0	0	2	0	0	0			0	3	0	0	0	0	255	0	0	0	0	255	0	0	0	0	255	0	0	0	0	255	0	0	0	0	255	0	0	0	0	255	0	0	0	0	255	0	0	0	0	255	0	0	0	0	255	0	0	255	0	0	0	0	0	0	255	0	0	0	0	255	0	0	0	0	255	0	0	0	0	255	0	0	0	0	255	0	0	0	0	255	0	0	0	0	255			2	8	0	xxx	xxx	0	0	1
Round Shield	0	0	1	1	55	67	0	0	40	15	40	0	30	18	7500	77123	xuc	xuc	3		buc	buc	buc	xxx	xxx	0	7	2	2	1	2	2	flpbuc	invbucu	invbucu	invbucu							0	0	0	0	0	shie		item_woodshield	12	item_woodshield	0	0	5	0	0	0	0	0	1	0	3	10	100		0	3	0	0	0	0	255	0	0	0	0	255	0	0	0	0	255	0	0	0	0	255	0	0	0	0	255	0	0	0	0	255	0	0	0	0	255	0	0	0	0	255	0	0	0	0	255	0	0	255	0	0	0	0	0	0	255	0	0	0	0	255	0	0	0	0	255	0	0	0	0	255	0	0	0	0	255	0	0	0	0	255	0	0	0	0	255			5	8	0	xxx	xxx	0	0	1
Harad Shield	0	0	1	1	67	80	0	1	55	17	50	0	37	22	9000	103735	xml	xml	3		buc	buc	sml	xxx	xxx	0	7	2	2	1	2	2	flpsml	invsmlu	invsmlu								0	0	0	0	0	shie		item_woodshield	12	item_woodshield	0	0	5	0	0	0	0	0	1	0	4	12	100		0	3	0	0	0	0	255	0	0	0	0	255	0	0	0	0	255	0	0	0	0	255	0	0	0	0	255	0	0	0	0	255	0	0	0	0	255	0	0	0	0	255	0	0	0	0	255	0	0	255	0	0	0	0	0	0	255	0	0	0	0	255	0	0	0	0	255	0	0	0	0	255	0	0	0	0	255	0	0	0	0	255	0	0	0	0	255			5	8	0	xxx	xxx	0	0	1
Dwarven Shield	0	0	1	1	90	100	0	2	75	19	75	0	47	28	12000	148359	xrg	xrg	3		lrg	lrg	lrg	xxx	xxx	0	7	2	3	1	3	2	flplrg	invlrgu	invlrgu								0	0	0	0	0	shie		item_metalshield	12	item_metalshield	0	0	5	0	0	0	0	0	1	0	5	14	100		0	3	0	0	0	0	255	0	0	0	0	255	0	0	0	0	255	0	0	0	0	255	0	0	0	0	255	0	0	0	0	255	0	0	0	0	255	0	0	0	0	255	0	0	0	0	255	0	0	255	0	0	0	0	0	0	255	0	0	0	0	255	0	0	0	0	255	0	0	0	0	255	0	0	0	0	255	0	0	0	0	255	0	0	0	0	255			2	0	0	xxx	xxx	0	0	1
Mithril Shield	0	0	1	1	100	115	0	3	60	21	200	0	57	34	16000	189944	xit	xit	3		kit	kit	kit	xxx	xxx	0	7	2	3	1	3	2	flpkit	shield02	shield02	shield02							0	0	0	0	0	shie		item_metalshield	12	item_metalshield	0	0	5	0	0	0	0	0	1	0	6	15	100		0	3	0	0	0	0	255	0	0	0	0	255	0	0	0	0	255	0	0	0	0	255	0	0	0	0	255	0	0	0	0	255	0	0	0	0	255	0	0	0	0	255	0	0	0	0	255	0	0	255	0	0	0	0	0	0	255	0	0	0	0	255	0	0	0	0	255	0	0	0	0	255	0	0	0	0	255	0	0	0	0	255	0	0	0	0	255			2	0	0	xxx	xxx	0	0	1
Numenorean Shield	0	0	1	1	115	140	1	5	110	23	90	0	72	43	20000	278500	xow	xow	3		tow	tow	tow	xxx	xxx	0	7	2	3	1	3	2	flptow	invtowu	invtowu	invtowu							0	0	0	0	0	shie		item_metalshield	12	item_metalshield	0	0	5	0	0	0	0	0	1	0	7	18	100		0	3	0	0	0	0	255	0	0	0	0	255	0	0	0	0	255	0	0	0	0	255	0	0	0	0	255	0	0	0	0	255	0	0	0	0	255	0	0	0	0	255	0	0	0	0	255	0	0	255	0	0	0	0	0	0	255	0	0	0	0	255	0	0	0	0	255	0	0	0	0	255	0	0	0	0	255	0	0	0	0	255	0	0	0	0	255			2	0	0	xxx	xxx	0	0	1
Elvish Great Shield	0	0	1	1	140	170	0	7	140	25	100	0	80	48	30000	422340	xts	xts	3		kit	kit	gts	xxx	xxx	0	7	2	3	1	4	2	flpgts	shield10	shield10	shield10							0	0	0	0	0	shie		item_metalshield	12	item_metalshield	0	0	5	0	0	0	0	0	1	0	8	20	100		0	3	0	0	0	0	255	0	0	0	0	255	0	0	0	0	255	0	0	0	0	255	0	0	0	0	255	0	0	0	0	255	0	0	0	0	255	0	0	0	0	255	0	0	0	0	255	0	0	255	0	0	0	0	0	0	255	0	0	0	0	255	0	0	0	0	255	0	0	0	0	255	0	0	0	0	255	0	0	0	0	255	0	0	0	0	255			2	0	0	xxx	xxx	0	0	1
Mumakhide Gloves	0	0	1	1	20	25	0	0	20	0	15	0	30	18	3522	64102	xlg	xlg	3		lgl	lgl	lgl	xxx	xxx	0	16	2	2	0	0	0	flplgl	invlgl									0	0	0	0	0	glov		item_gloves	12	item_gloves	0	0	5	0	0	0	0	0	5	0	0	0			0	1	0	0	0	0	255	0	0	0	0	255	0	0	0	0	255	0	0	0	0	255	0	0	0	0	255	0	0	0	0	255	0	0	0	0	255	0	0	0	0	255	0	0	0	0	255	0	0	255	0	0	0	0	0	0	255	0	0	0	0	255	0	0	0	0	255	0	0	0	0	255	0	0	0	0	255	0	0	0	0	255	0	0	0	0	255			0	8	0	xxx	xxx	0	0	1
Seadrakeskin Gloves	0	0	1	1	25	30	0	0	35	0	18	0	35	21	4459	85063	xvg	xvg	3		vgl	vgl	vgl	xxx	xxx	0	16	2	2	0	0	0	flpvgl	invvgl									0	0	0	0	0	glov		item_gloves	12	item_gloves	0	0	5	0	0	0	0	0	5	0	0	0			0	1	0	0	0	0	255	0	0	0	0	255	0	0	0	0	255	0	0	0	0	255	0	0	0	0	255	0	0	0	0	255	0	0	0	0	255	0	0	0	0	255	0	0	0	0	255	0	0	255	0	0	0	0	0	0	255	0	0	0	0	255	0	0	0	0	255	0	0	0	0	255	0	0	0	0	255	0	0	0	0	255	0	0	0	0	255			0	8	0	xxx	xxx	0	0	1
Heavy Bracers	0	0	1	1	30	36	0	0	50	0	20	0	40	24	5607	114806	xmg	xmg	3		mgl	mgl	mgl	xxx	xxx	0	16	2	2	0	0	0	flpmgl	invmgl									0	0	0	0	0	glov		item_gloveschain	12	item_gloveschain	0	0	5	0	0	0	0	0	5	0	0	0			0	1	0	0	0	0	255	0	0	0	0	255	0	0	0	0	255	0	0	0	0	255	0	0	0	0	255	0	0	0	0	255	0	0	0	0	255	0	0	0	0	255	0	0	0	0	255	0	0	255	0	0	0	0	0	0	255	0	0	0	0	255	0	0	0	0	255	0	0	0	0	255	0	0	0	0	255	0	0	0	0	255	0	0	0	0	255			0	8	0	xxx	xxx	0	0	1
Battle Gauntlets	0	0	1	1	36	46	0	1	75	0	30	0	50	30	6927	161025	xtg	xtg	3		mgl	mgl	tgl	xxx	xxx	0	16	2	2	0	0	0	flptgl	invtgl									0	0	0	0	0	glov		item_glovesmetal	12	item_glovesmetal	0	0	5	0	0	0	0	0	5	0	0	0			0	1	0	0	0	0	255	0	0	0	0	255	0	0	0	0	255	0	0	0	0	255	0	0	0	0	255	0	0	0	0	255	0	0	0	0	255	0	0	0	0	255	0	0	0	0	255	0	0	255	0	0	0	0	0	0	255	0	0	0	0	255	0	0	0	0	255	0	0	0	0	255	0	0	0	0	255	0	0	0	0	255	0	0	0	0	255			0	8	0	xxx	xxx	0	0	1
Elven Gauntlets	0	0	1	1	46	56	0	2	100	0	40	0	70	42	8779	223744	xhg	xhg	3		hgl	hgl	hgl	xxx	xxx	0	16	2	2	0	0	0	flphgl	invhgl									0	0	0	0	0	glov		item_glovesmetal	12	item_glovesmetal	0	0	5	0	0	0	0	0	5	0	0	0			0	1	0	0	0	0	255	0	0	0	0	255	0	0	0	0	255	0	0	0	0	255	0	0	0	0	255	0	0	0	0	255	0	0	0	0	255	0	0	0	0	255	0	0	0	0	255	0	0	255	0	0	0	0	0	0	255	0	0	0	0	255	0	0	0	0	255	0	0	0	0	255	0	0	0	0	255	0	0	0	0	255	0	0	0	0	255			0	8	0	xxx	xxx	0	0	1
Mumakhide Boots	0	0	1	1	20	25	0	0	20	0	15	0	30	18	3522	64102	xlb	xlb	3		lbt	lbt	lbt	xxx	xxx	0	16	2	2	0	0	0	flplbt	invlbt									0	0	0	0	0	boot		item_boots	12	item_boots	0	0	5	0	0	0	0	0	6	0	0	0	120		0	1	0	0	0	0	255	0	0	0	0	255	0	0	0	0	255	0	0	0	0	255	0	0	0	0	255	0	0	0	0	255	0	0	0	0	255	0	0	0	0	255	0	0	0	0	255	0	0	255	0	0	0	0	0	0	255	0	0	0	0	255	0	0	0	0	255	0	0	0	0	255	0	0	0	0	255	0	0	0	0	255	0	0	0	0	255			0	8	0	xxx	xxx	0	0	1
Seadrakeskin Boots	0	0	1	1	25	30	0	0	35	0	18	0	35	21	4446	84859	xvb	xvb	3		vbt	vbt	vbt	xxx	xxx	0	16	2	2	0	0	0	flpvbt	invvbt									0	0	0	0	0	boot		item_boots	12	item_boots	0	0	5	0	0	0	0	0	6	0	0	0	120		0	1	0	0	0	0	255	0	0	0	0	255	0	0	0	0	255	0	0	0	0	255	0	0	0	0	255	0	0	0	0	255	0	0	0	0	255	0	0	0	0	255	0	0	0	0	255	0	0	255	0	0	0	0	0	0	255	0	0	0	0	255	0	0	0	0	255	0	0	0	0	255	0	0	0	0	255	0	0	0	0	255	0	0	0	0	255			0	8	0	xxx	xxx	0	0	1
Mesh Boots	0	0	1	1	30	36	0	1	50	0	20	0	40	24	5603	114742	xmb	xmb	3		mbt	mbt	mbt	xxx	xxx	0	16	2	2	0	0	0	flpmbt	invmbt									0	0	0	0	0	boot		item_bootschain	12	item_bootschain	0	0	5	0	0	0	0	0	6	0	0	0	120		0	3	0	0	0	0	255	0	0	0	0	255	0	0	0	0	255	0	0	0	0	255	0	0	0	0	255	0	0	0	0	255	0	0	0	0	255	0	0	0	0	255	0	0	0	0	255	0	0	255	0	0	0	0	0	0	255	0	0	0	0	255	0	0	0	0	255	0	0	0	0	255	0	0	0	0	255	0	0	0	0	255	0	0	0	0	255			0	8	0	xxx	xxx	0	0	1
Battle Boots	0	0	1	1	36	46	0	2	75	0	30	0	50	30	6923	160950	xtb	xtb	3		mbt	mbt	tbt	xxx	xxx	0	16	2	2	0	0	0	flptbt	invtbt									0	0	0	0	0	boot		item_bootsmetal	12	item_bootsmetal	0	0	5	0	0	0	0	0	6	0	0	0	120		0	3	0	0	0	0	255	0	0	0	0	255	0	0	0	0	255	0	0	0	0	255	0	0	0	0	255	0	0	0	0	255	0	0	0	0	255	0	0	0	0	255	0	0	0	0	255	0	0	255	0	0	0	0	0	0	255	0	0	0	0	255	0	0	0	0	255	0	0	0	0	255	0	0	0	0	255	0	0	0	0	255	0	0	0	0	255			0	8	0	xxx	xxx	0	0	1
Elven Boots	0	0	1	1	46	56	0	3	100	0	40	0	70	42	8772	223574	xhb	xhb	3		hbt	hbt	hbt	xxx	xxx	0	16	2	2	0	0	0	flphbt	invhbt									0	0	0	0	0	boot		item_bootsmetal	12	item_bootsmetal	0	0	5	0	0	0	0	0	6	0	0	0	120		0	3	0	0	0	0	255	0	0	0	0	255	0	0	0	0	255	0	0	0	0	255	0	0	0	0	255	0	0	0	0	255	0	0	0	0	255	0	0	0	0	255	0	0	0	0	255	0	0	255	0	0	0	0	0	0	255	0	0	0	0	255	0	0	0	0	255	0	0	0	0	255	0	0	0	0	255	0	0	0	0	255	0	0	0	0	255			0	8	0	xxx	xxx	0	0	1
Mumakhide Belt	0	0	1	1	20	25	0	0	20	0	15	0	30	18	3550	64486	zlb	zlb	3		lbl	lbl	lbl	xxx	xxx	0	16	2	1	0	0	0	flplbl	invlbl									0	0	0	0	0	belt		item_lightarmor	12	item_lightarmor	0	0	5	0	0	6	0	0	4	0	0	0			0	1	0	0	0	0	255	0	0	0	0	255	0	0	0	0	255	0	0	0	0	255	0	0	0	0	255	0	0	0	0	255	0	0	0	0	255	0	0	0	0	255	0	0	0	0	255	0	0	255	0	0	0	0	0	0	255	0	0	0	0	255	0	0	0	0	255	0	0	0	0	255	0	0	0	0	255	0	0	0	0	255	0	0	0	0	255			0	8	0	xxx	xxx	0	0	1
Seadrakeskin Belt	0	0	1	1	25	30	0	0	35	0	18	0	35	21	4178	80809	zvb	zvb	3		vbl	vbl	vbl	xxx	xxx	0	16	2	1	0	0	0	flpvbl	invvbl									0	0	0	0	0	belt		item_belt	12	item_belt	0	0	5	0	0	6	0	0	4	0	0	0			0	1	0	0	0	0	255	0	0	0	0	255	0	0	0	0	255	0	0	0	0	255	0	0	0	0	255	0	0	0	0	255	0	0	0	0	255	0	0	0	0	255	0	0	0	0	255	0	0	255	0	0	0	0	0	0	255	0	0	0	0	255	0	0	0	0	255	0	0	0	0	255	0	0	0	0	255	0	0	0	0	255	0	0	0	0	255			0	8	0	xxx	xxx	0	0	1
Mesh Belt	0	0	1	1	30	36	0	0	50	0	20	0	40	24	5222	108261	zmb	zmb	3		mbl	mbl	mbl	xxx	xxx	0	16	2	1	0	0	0	flpmbl	invmbl									0	0	0	0	0	belt		item_belt	12	item_belt	0	0	5	0	0	6	0	0	4	0	0	0			0	1	0	0	0	0	255	0	0	0	0	255	0	0	0	0	255	0	0	0	0	255	0	0	0	0	255	0	0	0	0	255	0	0	0	0	255	0	0	0	0	255	0	0	0	0	255	0	0	255	0	0	0	0	0	0	255	0	0	0	0	255	0	0	0	0	255	0	0	0	0	255	0	0	0	0	255	0	0	0	0	255	0	0	0	0	255			0	8	0	xxx	xxx	0	0	1
Battle Belt	0	0	1	1	36	46	0	1	75	0	30	0	50	30	6435	151185	ztb	ztb	3		mbl	mbl	tbl	xxx	xxx	0	16	2	1	0	0	0	flptbl	invtbl									0	0	0	0	0	belt		item_belt	12	item_belt	0	0	5	0	0	6	0	0	4	0	0	0			0	1	0	0	0	0	255	0	0	0	0	255	0	0	0	0	255	0	0	0	0	255	0	0	0	0	255	0	0	0	0	255	0	0	0	0	255	0	0	0	0	255	0	0	0	0	255	0	0	255	0	0	0	0	0	0	255	0	0	0	0	255	0	0	0	0	255	0	0	0	0	255	0	0	0	0	255	0	0	0	0	255	0	0	0	0	255			0	8	0	xxx	xxx	0	0	1
Elven Belt	0	0	1	1	46	56	0	2	100	0	40	0	70	42	8548	218512	zhb	zhb	3		hbl	hbl	hbl	xxx	xxx	0	16	2	1	0	0	0	flphbl	invhbl									0	0	0	0	0	belt		item_belt	12	item_belt	0	0	5	0	0	6	0	0	4	0	0	0			0	1	0	0	0	0	255	0	0	0	0	255	0	0	0	0	255	0	0	0	0	255	0	0	0	0	255	0	0	0	0	255	0	0	0	0	255	0	0	0	0	255	0	0	0	0	255	0	0	255	0	0	0	0	0	0	255	0	0	0	0	255	0	0	0	0	255	0	0	0	0	255	0	0	0	0	255	0	0	0	0	255	0	0	0	0	255			0	8	0	xxx	xxx	0	0	1
Grim Helm	0	0	1	1	66	90	0	1	60	0	40	0	60	36	15697	348947	xh9	xh9	3		bhm	bhm	bhm	xxx	xxx	0	0	2	2	1	3	1	flpbhm	invbhmu	invbhmu	invbhmu							0	0	0	0	0	helm		item_helm	12	item_helm	0	0	5	0	2	0	0	0	3	0	0	0			0	1	0	0	0	0	255	0	0	0	0	255	0	0	0	0	255	0	0	0	0	255	0	0	0	0	255	0	0	0	0	255	0	0	0	0	255	0	0	0	0	255	0	0	0	0	255	0	0	255	0	0	0	0	0	0	255	0	0	0	0	255	0	0	0	0	255	0	0	0	0	255	0	0	0	0	255	0	0	0	0	255	0	0	0	0	255			2	8	0	xxx	xxx	0	0	1
Grim Shield	0	0	1	1	85	125	0	3	65	15	50	0	50	30	16072	337523	xsh	xsh	3		bsh	bsh	bsh	xxx	xxx	0	7	2	3	1	3	2	flpbsh	invbsh	invbshu								0	0	0	0	0	shie		item_metalshield	12	item_metalshield	0	0	5	0	0	0	0	0	1	0	7	14	100		0	1	0	0	0	0	255	0	0	0	0	255	0	0	0	0	255	0	0	0	0	255	0	0	0	0	255	0	0	0	0	255	0	0	0	0	255	0	0	0	0	255	0	0	0	0	255	0	0	255	0	0	0	0	0	0	255	0	0	0	0	255	0	0	0	0	255	0	0	0	0	255	0	0	0	0	255	0	0	0	0	255	0	0	0	0	255			2	8	0	xxx	xxx	0	0	1
Dragontooth Shield	0	0	1	1	100	133	0	4	80	20	70	0	65	39	20000	172324	xpk	xpk	3		spk	spk	spk	xxx	xxx	0	7	2	3	1	3	2	flpspk	invspku	invspku								0	0	0	0	0	shie		item_metalshield	12	item_metalshield	0	0	5	0	0	0	0	0	1	0	12	24	100		0	1	0	0	0	0	255	0	0	0	0	255	0	0	0	0	255	0	0	0	0	255	0	0	0	0	255	0	0	0	0	255	0	0	0	0	255	0	0	0	0	255	0	0	0	0	255	0	0	255	0	0	0	0	0	0	255	0	0	0	0	255	0	0	0	0	255	0	0	0	0	255	0	0	0	0	255	0	0	0	0	255	0	0	0	0	255			2	8	0	xxx	xxx	0	0	1
Expansion			1																					xxx	xxx																																																																																																																																										
Wolf Head	100	0	1	1	5	12	0	0	15	0	15	0	5	3	200	4868	dr1	dr1	1		dr1	dr1	dr1	xxx	xxx	0	0	2	2	1	2	1	flpdr1	invdr1									0	0	0	0	0	pelt		item_helm	12	item_helm	0	0	5	0	0	0	0	0	3	0	0	0			0	1	0	0	0	0	255	0	0	0	0	255	0	0	0	0	255	0	0	0	0	255	0	0	0	0	255	0	0	0	0	255	0	0	0	0	255	0	0	0	0	255	0	0	0	0	255	0	0	255	0	0	0	0	0	0	255	0	0	0	0	255	0	0	0	0	255	0	0	0	0	255	0	0	0	0	255	0	0	0	0	20	0	0	0	0	255			0	0	0	xxx	xxx	0	0	1
Hawk Helm	100	0	1	1	12	16	0	0	22	0	20	0	10	6	500	7840	dr2	dr2	1		dr4	dr4	dr2	xxx	xxx	0	0	2	2	1	2	1	flpdr4	invdr2									0	0	0	0	0	pelt		item_helm	12	item_helm	0	0	5	0	0	0	0	0	3	0	0	0			0	1	0	0	0	0	255	0	0	0	0	255	0	0	0	0	255	0	0	0	0	255	0	0	0	0	255	0	0	0	0	255	0	0	0	0	255	0	0	0	0	255	0	0	0	0	255	0	0	255	0	0	0	0	0	0	255	0	0	0	0	255	0	0	0	0	255	0	0	0	0	255	0	0	0	0	255	0	0	0	0	20	0	0	0	0	255			0	0	0	xxx	xxx	0	0	1
Antlers	100	0	1	1	16	22	0	0	35	0	30	0	18	11	1200	21852	dr3	dr3	1		dr3	dr3	dr3	xxx	xxx	0	0	2	2	1	2	1	flpdr3	invdr3									0	0	0	0	0	pelt		item_helm	12	item_helm	0	0	5	0	0	0	0	0	3	0	0	0			0	1	0	0	0	0	255	0	0	0	0	255	0	0	0	0	255	0	0	0	0	255	0	0	0	0	255	0	0	0	0	255	0	0	0	0	255	0	0	0	0	255	0	0	0	0	255	0	0	255	0	0	0	0	0	0	255	0	0	0	0	255	0	0	0	0	255	0	0	0	0	255	0	0	0	0	255	0	0	0	0	20	0	0	0	0	255			0	0	0	xxx	xxx	0	0	1
Falcon Mask	100	0	1	1	23	33	0	0	50	0	40	0	25	15	2400	29200	dr4	dr4	1		dr4	dr4	dr4	xxx	xxx	0	0	2	2	1	2	1	flpdr4	invdr4									0	0	0	0	0	pelt		item_helm	12	item_helm	0	0	5	0	0	0	0	0	3	0	0	0			0	1	0	0	0	0	255	0	0	0	0	255	0	0	0	0	255	0	0	0	0	255	0	0	0	0	255	0	0	0	0	255	0	0	0	0	255	0	0	0	0	255	0	0	0	0	255	0	0	255	0	0	0	0	0	0	255	0	0	0	0	255	0	0	0	0	255	0	0	0	0	255	0	0	0	0	255	0	0	0	0	20	0	0	0	0	255			0	0	0	xxx	xxx	0	0	1
Spirit Mask	100	0	1	1	34	43	0	1	60	0	50	0	30	18	3300	48550	dr5	dr5	1		dr1	dr1	dr5	xxx	xxx	0	0	2	2	1	2	1	flpdr1	invdr5									0	0	0	0	0	pelt		item_helm	12	item_helm	0	0	5	0	0	0	0	0	3	0	0	0			0	1	0	0	0	0	255	0	0	0	0	255	0	0	0	0	255	0	0	0	0	255	0	0	0	0	255	0	0	0	0	255	0	0	0	0	255	0	0	0	0	255	0	0	0	0	255	0	0	255	0	0	0	0	0	0	255	0	0	0	0	255	0	0	0	0	255	0	0	0	0	255	0	0	0	0	255	0	0	0	0	255	0	0	0	0	255			0	0	0	xxx	xxx	0	0	1
Jawbone Cap	100	0	1	1	6	12	0	0	25	0	18	0	5	3	200	4750	ba1	ba1	1		ba1	dr1	ba1	xxx	xxx	0	0	2	2	1	2	1	flpba1	invba1									0	0	0	0	0	phlm		item_helm	12	item_helm	0	0	5	0	0	0	0	0	3	0	0	0			0	1	0	0	0	0	255	0	0	0	0	255	0	0	0	0	255	0	0	0	0	255	0	0	0	0	255	0	0	0	0	255	0	0	0	0	255	0	0	0	0	255	0	0	0	0	255	0	0	255	0	0	0	0	0	0	255	0	0	0	0	255	0	0	0	0	255	0	0	0	0	255	0	0	0	0	255	0	0	0	0	20	0	0	0	0	255			5	0	0	xxx	xxx	0	0	1
Fanged Helm	100	0	1	1	12	18	0	0	35	0	24	0	10	6	500	8250	ba2	ba2	1		ba1	bhm	ba2	xxx	xxx	0	0	2	2	1	2	1	flpba1	invba2									0	0	0	0	0	phlm		item_helm	12	item_helm	0	0	5	0	0	0	0	0	3	0	0	0			0	1	0	0	0	0	255	0	0	0	0	255	0	0	0	0	255	0	0	0	0	255	0	0	0	0	255	0	0	0	0	255	0	0	0	0	255	0	0	0	0	255	0	0	0	0	255	0	0	255	0	0	0	0	0	0	255	0	0	0	0	255	0	0	0	0	255	0	0	0	0	255	0	0	0	0	255	0	0	0	0	20	0	0	0	0	255			5	0	0	xxx	xxx	0	0	1
Horned Helm	100	0	1	1	18	22	0	0	40	0	35	0	18	11	1200	20750	ba3	ba3	1		ba3	bhm	ba3	xxx	xxx	0	0	2	2	1	2	1	flpba3	invba3									0	0	0	0	0	phlm		item_helm	12	item_helm	0	0	5	0	0	0	0	0	3	0	0	0			0	3	0	0	0	0	255	0	0	0	0	255	0	0	0	0	255	0	0	0	0	255	0	0	0	0	255	0	0	0	0	255	0	0	0	0	255	0	0	0	0	255	0	0	0	0	255	0	0	255	0	0	0	0	0	0	255	0	0	0	0	255	0	0	0	0	255	0	0	0	0	255	0	0	0	0	255	0	0	0	0	20	0	0	0	0	255			5	0	0	xxx	xxx	0	0	1
Assault Helmet	100	0	1	1	24	35	0	0	60	0	45	0	25	15	2400	29360	ba4	ba4	1		ba5	bhm	ba4	xxx	xxx	0	0	2	2	1	2	1	flpba5	invba4									0	0	0	0	0	phlm		item_helm	12	item_helm	0	0	5	0	0	0	0	0	3	0	0	0			0	3	0	0	0	0	255	0	0	0	0	255	0	0	0	0	255	0	0	0	0	255	0	0	0	0	255	0	0	0	0	255	0	0	0	0	255	0	0	0	0	255	0	0	0	0	255	0	0	255	0	0	0	0	0	0	255	0	0	0	0	255	0	0	0	0	255	0	0	0	0	255	0	0	0	0	255	0	0	0	0	20	0	0	0	0	255			5	0	0	xxx	xxx	0	0	1
Fighter Guard	100	0	1	1	36	45	0	1	70	0	55	0	30	18	3300	49280	ba5	ba5	1		ba5	bhm	ba5	xxx	xxx	0	0	2	2	1	2	1	flpba5	invba5									0	0	0	0	0	phlm		item_helm	12	item_helm	0	0	5	0	0	0	0	0	3	0	0	0			0	3	0	0	0	0	255	0	0	0	0	255	0	0	0	0	255	0	0	0	0	255	0	0	0	0	255	0	0	0	0	255	0	0	0	0	255	0	0	0	0	255	0	0	0	0	255	0	0	255	0	0	0	0	0	0	255	0	0	0	0	255	0	0	0	0	255	0	0	0	0	255	0	0	0	0	255	0	0	0	0	255	0	0	0	0	255			5	0	0	xxx	xxx	0	0	1
Targe	100	0	1	1	12	16	0	0	25	8	20	0	5	3	300	6317	pa1	pa1	1	304	pa1	spk	pa1	xxx	xxx	0	7	2	2	1	3	2	flppa1	invpa1									0	0	0	0	0	ashd		item_metalshield	12	item_metalshield	0	0	5	0	1	0	0	0	1	0	2	7	100		0	3	0	0	0	0	255	0	0	0	0	255	0	0	0	0	255	0	0	0	0	255	0	0	0	0	255	0	0	0	0	255	0	0	0	0	255	0	0	0	0	255	0	0	0	0	255	0	0	255	0	0	0	0	0	0	255	0	0	0	0	255	0	0	0	0	255	0	0	0	0	255	0	0	0	0	255	0	0	0	0	20	0	0	0	0	255			0	0	0	xxx	xxx	0	0	1
Ward	100	0	1	1	18	28	0	0	35	14	35	0	10	6	750	10517	pa2	pa2	1	304	pa1	spk	pa2	xxx	xxx	0	7	2	2	1	3	2	flppa1	invpa2									0	0	0	0	0	ashd		item_metalshield	12	item_metalshield	0	0	5	0	2	0	0	0	1	0	3	8	100		0	3	0	0	0	0	255	0	0	0	0	255	0	0	0	0	255	0	0	0	0	255	0	0	0	0	255	0	0	0	0	255	0	0	0	0	255	0	0	0	0	255	0	0	0	0	255	0	0	255	0	0	0	0	0	0	255	0	0	0	0	255	0	0	0	0	255	0	0	0	0	255	0	0	0	0	255	0	0	0	0	20	0	0	0	0	255			0	0	0	xxx	xxx	0	0	1
Heraldic Shield	100	0	1	1	30	40	0	1	50	17	50	0	18	11	1800	21240	pa3	pa3	1	304	pa5	spk	pa3	xxx	xxx	0	7	2	2	1	3	2	flppa5	invpa5									0	0	0	0	0	ashd		item_metalshield	12	item_metalshield	0	0	5	0	3	0	0	0	1	0	4	9	100		0	3	0	0	0	0	255	0	0	0	0	255	0	0	0	0	255	0	0	0	0	255	0	0	0	0	255	0	0	0	0	255	0	0	0	0	255	0	0	0	0	255	0	0	0	0	255	0	0	255	0	0	0	0	0	0	255	0	0	0	0	255	0	0	0	0	255	0	0	0	0	255	0	0	0	0	255	0	0	0	0	20	0	0	0	0	255			0	0	0	xxx	xxx	0	0	1
Aerin Shield	100	0	1	1	36	42	0	2	60	20	60	0	25	15	3200	43557	pa4	pa4	1	304	pa3	spk	pa4	xxx	xxx	0	7	2	4	1	3	2	flppa3	invpa3									0	0	0	0	0	ashd		item_metalshield	12	item_metalshield	0	0	5	0	4	0	0	0	1	0	5	10	100		0	3	0	0	0	0	255	0	0	0	0	255	0	0	0	0	255	0	0	0	0	255	0	0	0	0	255	0	0	0	0	255	0	0	0	0	255	0	0	0	0	255	0	0	0	0	255	0	0	255	0	0	0	0	0	0	255	0	0	0	0	255	0	0	0	0	255	0	0	0	0	255	0	0	0	0	255	0	0	0	0	20	0	0	0	0	255			0	0	0	xxx	xxx	0	0	1
Crown Shield	100	0	1	1	45	60	0	4	70	23	70	0	30	18	4400	82075	pa5	pa5	1	304	pa3	spk	pa5	xxx	xxx	0	7	2	4	1	3	2	flppa3	invpa4									0	0	0	0	0	ashd		item_metalshield	12	item_metalshield	0	0	5	0	5	0	0	0	1	0	6	12	100		0	3	0	0	0	0	255	0	0	0	0	255	0	0	0	0	255	0	0	0	0	255	0	0	0	0	255	0	0	0	0	255	0	0	0	0	255	0	0	0	0	255	0	0	0	0	255	0	0	255	0	0	0	0	0	0	255	0	0	0	0	255	0	0	0	0	255	0	0	0	0	255	0	0	0	0	255	0	0	0	0	255	0	0	0	0	255			0	0	0	xxx	xxx	0	0	1
Preserved Head	100	0	1	1	10	15	0	0	12	5	15	0	5	3	300	4628	ne1	ne1	1	305	ne1	dr1	ne1	xxx	xxx	0	10	2	2	1	3	2	flpne1	invne1									0	0	0	0	0	head		item_head	12	item_head	0	0	5	0	0	0	0	0	3	0	0	0			0	1	0	0	0	0	255	0	0	0	0	255	0	0	0	0	255	0	0	0	0	255	0	0	0	0	255	0	0	0	0	255	0	0	0	0	255	0	0	0	0	255	0	0	0	0	255	0	0	255	0	0	0	0	0	0	255	0	0	0	0	255	0	0	0	0	255	0	0	0	0	255	0	0	0	0	255	0	0	0	0	20	0	0	0	0	255			1	0	0	xxx	xxx	0	0	1
Zombie Head	100	0	1	1	16	21	0	0	14	8	20	0	10	6	750	7336	ne2	ne2	1	305	ne2	bhm	ne2	xxx	xxx	0	10	2	2	1	3	2	flpne2	invne2									0	0	0	0	0	head		item_head	12	item_head	0	0	5	0	0	0	0	0	3	0	0	0			0	1	0	0	0	0	255	0	0	0	0	255	0	0	0	0	255	0	0	0	0	255	0	0	0	0	255	0	0	0	0	255	0	0	0	0	255	0	0	0	0	255	0	0	0	0	255	0	0	255	0	0	0	0	0	0	255	0	0	0	0	255	0	0	0	0	255	0	0	0	0	255	0	0	0	0	255	0	0	0	0	20	0	0	0	0	255			1	0	0	xxx	xxx	0	0	1
Ghoul Head	100	0	1	1	21	30	0	0	18	10	30	0	18	11	1800	14780	ne3	ne3	1	305	ne3	bhm	ne3	xxx	xxx	0	10	2	2	1	3	2	flpne3	invne3									0	0	0	0	0	head		item_head	12	item_head	0	0	5	0	0	0	0	0	3	0	0	0			0	1	0	0	0	0	255	0	0	0	0	255	0	0	0	0	255	0	0	0	0	255	0	0	0	0	255	0	0	0	0	255	0	0	0	0	255	0	0	0	0	255	0	0	0	0	255	0	0	255	0	0	0	0	0	0	255	0	0	0	0	255	0	0	0	0	255	0	0	0	0	255	0	0	0	0	255	0	0	0	0	20	0	0	0	0	255			1	0	0	xxx	xxx	0	0	1
Wraith Head	100	0	1	1	31	40	0	0	20	12	40	0	25	15	3200	23320	ne4	ne4	1	305	ne3	bhm	ne4	xxx	xxx	0	10	2	2	1	3	2	flpne3	invne4									0	0	0	0	0	head		item_head	12	item_head	0	0	5	0	0	0	0	0	3	0	0	0			0	1	0	0	0	0	255	0	0	0	0	255	0	0	0	0	255	0	0	0	0	255	0	0	0	0	255	0	0	0	0	255	0	0	0	0	255	0	0	0	0	255	0	0	0	0	255	0	0	255	0	0	0	0	0	0	255	0	0	0	0	255	0	0	0	0	255	0	0	0	0	255	0	0	0	0	255	0	0	0	0	20	0	0	0	0	255			1	0	0	xxx	xxx	0	0	1
Wight Head	100	0	1	1	41	50	0	0	25	15	50	0	30	18	4400	35350	ne5	ne5	1	305	ne2	bhm	ne5	xxx	xxx	0	10	2	2	1	3	2	flpne2	invne5									0	0	0	0	0	head		item_head	12	item_head	0	0	5	0	0	0	0	0	3	0	0	0			0	1	0	0	0	0	255	0	0	0	0	255	0	0	0	0	255	0	0	0	0	255	0	0	0	0	255	0	0	0	0	255	0	0	0	0	255	0	0	0	0	255	0	0	0	0	255	0	0	255	0	0	0	0	0	0	255	0	0	0	0	255	0	0	0	0	255	0	0	0	0	255	0	0	0	0	255	0	0	0	0	255	0	0	0	0	255			1	0	0	xxx	xxx	0	0	1
Circlet	100	0	1	1	31	40	0	0	25	0	20	0	24	14	6000	85625	ci0	ci0	10		lit	lit	ci0	xxx	xxx	0	0	2	2	1	2	1	flpci0	invci0									0	0	0	0	0	circ		item_helm	12	item_helm	0	0	5	0	0	0	0	0	3	0	0	0			0	3	0	0	0	0	255	0	0	0	0	255	0	0	0	0	255	0	0	0	0	255	0	0	0	0	255	0	0	0	0	255	0	0	0	0	255	0	0	0	0	255	0	0	0	0	255	0	0	255	0	0	0	0	0	0	255	0	0	0	0	255	0	0	0	0	255	0	0	0	0	255	0	0	0	0	255	0	0	0	0	20	0	0	0	0	255			1	2	0	xxx	xxx	0	0	1
Coronet	100	0	1	1	51	70	0	0	35	0	25	0	52	31	12500	171250	ci1	ci1	15		lit	lit	ci1	xxx	xxx	0	0	2	2	1	2	1	flpci1	invci1									0	0	0	0	0	circ		item_helm	12	item_helm	0	0	5	0	1	0	0	0	3	0	0	0			0	3	0	0	0	0	255	0	0	0	0	255	0	0	0	0	255	0	0	0	0	255	0	0	0	0	255	0	0	0	0	255	0	0	0	0	255	0	0	0	0	255	0	0	0	0	255	0	0	255	0	0	0	0	0	0	255	0	0	0	0	255	0	0	0	0	255	0	0	0	0	255	0	0	0	0	255	0	0	0	0	20	0	0	0	0	255			1	2	0	xxx	xxx	0	0	1
Tiara	100	0	1	1	71	80	0	0	45	0	30	0	70	42	20000	700000	ci2	ci2	20		lit	lit	ci1	xxx	xxx	0	0	2	2	1	3	1	flpci1	invci2									0	0	0	0	0	circ		item_helm	12	item_helm	0	0	5	0	2	0	0	0	3	0	0	0			0	3	0	0	0	0	255	0	0	0	0	255	0	0	0	0	255	0	0	0	0	255	0	0	0	0	255	0	0	0	0	255	0	0	0	0	255	0	0	0	0	255	0	0	0	0	255	0	0	255	0	0	0	0	0	0	255	0	0	0	0	255	0	0	0	0	255	0	0	0	0	255	0	0	0	0	255	0	0	0	0	255	0	0	0	0	255			1	2	0	xxx	xxx	0	0	1
Diadem	100	0	1	1	81	90	0	0	55	0	35	0	86	52	27000	1382500	ci3	ci3	25		lit	lit	ci1	xxx	xxx	0	0	2	2	1	3	1	flpci2	invci3									0	0	0	0	0	circ		item_helm	12	item_helm	0	0	5	0	3	0	0	0	3	0	0	0			0	3	0	0	0	0	255	0	0	0	0	255	0	0	0	0	255	0	0	0	0	255	0	0	0	0	255	0	0	0	0	255	0	0	0	0	255	0	0	0	0	255	0	0	0	0	255	0	0	255	0	0	0	0	0	0	255	0	0	0	0	255	0	0	0	0	255	0	0	0	0	255	0	0	0	0	255	0	0	0	0	255	0	0	0	0	255			1	2	0	xxx	xxx	0	0	1
Plated Cap	100	0	1	1	71	93	0	0	80	0	50	0	55	33	11000	503591	uap	uap	7	306	cap	cap	cap	xxx	xxx	0	0	2	2	1	2	1	flpcap	invxkpu									0	0	0	0	0	helm		item_cap	12	item_cap	0	0	5	0	0	0	0	0	3	0	0	0			0	1	0	0	0	0	255	0	0	0	0	255	0	0	0	0	255	0	0	0	0	255	0	0	0	0	255	0	0	0	0	255	0	0	0	0	255	0	0	0	0	255	0	0	0	0	255	0	0	255	0	0	0	0	0	0	255	0	0	0	0	255	0	0	0	0	255	0	0	0	0	255	0	0	0	0	255	0	0	0	0	255	0	0	0	0	255			2	8	0	xxx	xxx	0	0	1
Fortified Cap	100	0	1	1	93	100	0	0	100	0	70	0	65	39	14000	568276	ukp	ukp	7	306	skp	skp	skp	xxx	xxx	0	0	2	2	1	2	1	flpskp	invxrnu									0	0	0	0	0	helm		item_helm	12	item_helm	0	0	5	0	0	0	0	0	3	0	0	0			0	3	0	0	0	0	255	0	0	0	0	255	0	0	0	0	255	0	0	0	0	255	0	0	0	0	255	0	0	0	0	255	0	0	0	0	255	0	0	0	0	255	0	0	0	0	255	0	0	255	0	0	0	0	0	0	255	0	0	0	0	255	0	0	0	0	255	0	0	0	0	255	0	0	0	0	255	0	0	0	0	255	0	0	0	0	255			2	8	0	xxx	xxx	0	0	1
Ithildnaur Battle Visor	100	0	1	1	100	115	0	1	120	0	90	0	72	43	16000	671703	ulm	ulm	7	306	hlm	hlm	hlm	xxx	xxx	0	0	2	2	1	2	1	flphlm	helm4									0	0	0	0	0	helm		item_helm	12	item_helm	0	0	5	0	0	0	0	0	3	0	0	0			0	3	0	0	0	0	255	0	0	0	0	255	0	0	0	0	255	0	0	0	0	255	0	0	0	0	255	0	0	0	0	255	0	0	0	0	255	0	0	0	0	255	0	0	0	0	255	0	0	255	0	0	0	0	0	0	255	0	0	0	0	255	0	0	0	0	255	0	0	0	0	255	0	0	0	0	255	0	0	0	0	255	0	0	0	0	255			2	0	0	xxx	xxx	0	0	1
Noldorin Great Helm	100	0	1	1	125	135	0	3	150	0	110	0	85	51	22000	757863	uhl	uhl	7	306	fhl	fhl	fhl	xxx	xxx	0	0	2	2	1	3	1	flpfhl	invhlmu	invfhlu	invfhlu							0	0	0	0	0	helm		item_helm	12	item_helm	0	0	5	0	0	0	0	0	3	0	0	0			0	3	0	0	0	0	255	0	0	0	0	255	0	0	0	0	255	0	0	0	0	255	0	0	0	0	255	0	0	0	0	255	0	0	0	0	255	0	0	0	0	255	0	0	0	0	255	0	0	255	0	0	0	0	0	0	255	0	0	0	0	255	0	0	0	0	255	0	0	0	0	255	0	0	0	0	255	0	0	0	0	255	0	0	0	0	255			0	8	0	xxx	xxx	0	0	1
Numenorean Mithril Helm	100	0	1	1	115	125	0	2	75	0	125	0	80	48	18000	920880	uhm	uhm	7	306	ghm	ghm	ghm	xxx	xxx	0	0	2	2	1	2	1	flpghm	helm2	wingedhelm								0	0	0	0	0	helm		item_helm	12	item_helm	0	0	5	0	0	0	0	0	3	0	0	0			0	3	0	0	0	0	255	0	0	0	0	255	0	0	0	0	255	0	0	0	0	255	0	0	0	0	255	0	0	0	0	255	0	0	0	0	255	0	0	0	0	255	0	0	0	0	255	0	0	255	0	0	0	0	0	0	255	0	0	0	0	255	0	0	0	0	255	0	0	0	0	255	0	0	0	0	255	0	0	0	0	255	0	0	0	0	255			2	0	0	xxx	xxx	0	0	1
Vanyarin Imperial Crown	100	0	1	1	135	145	0	4	175	0	150	0	89	53	26000	1042170	urn	urn	7	306	crn	crn	crn	xxx	xxx	0	0	2	2	1	3	1	flpcrn	helm1									0	0	0	0	0	helm		item_helm	12	item_helm	0	0	5	0	0	0	0	0	3	0	0	0			0	3	0	0	0	0	255	0	0	0	0	255	0	0	0	0	255	0	0	0	0	255	0	0	0	0	255	0	0	0	0	255	0	0	0	0	255	0	0	0	0	255	0	0	0	0	255	0	0	255	0	0	0	0	0	0	255	0	0	0	0	255	0	0	0	0	255	0	0	0	0	255	0	0	0	0	255	0	0	0	0	255	0	0	0	0	255			2	0	0	xxx	xxx	0	0	1
Demon Mask	100	0	1	1	77	100	0	0	50	0	25	0	65	39	12000	799703	usk	usk	7	306	msk	msk	msk	xxx	xxx	0	0	2	2	1	3	1	flpmsk	invmsk									0	0	0	0	0	helm		item_helm	12	item_helm	0	0	5	0	0	0	0	0	3	0	0	0			0	3	0	0	0	0	255	0	0	0	0	255	0	0	0	0	255	0	0	0	0	255	0	0	0	0	255	0	0	0	0	255	0	0	0	0	255	0	0	0	0	255	0	0	0	0	255	0	0	255	0	0	0	0	0	0	255	0	0	0	0	255	0	0	0	0	255	0	0	0	0	255	0	0	0	0	255	0	0	0	0	255	0	0	0	0	255			1	2	0	xxx	xxx	0	0	1
Carn Dum Shroud	100	0	1	1	275	300	0	12	85	0	75	0	50	30	35000	1685148	uui	uui	7	306	qlt	qlt	qui	xxx	xxx	0	1	2	3	1	4	1	flpqlt	invqlt			0	0	0	0	0	0	0	0	0	0	0	tors		item_lightarmor	12	item_lightarmor	0	0	5	0	0	0	0	0	2	0	0	0			0	1	0	0	0	0	255	0	0	0	0	255	0	0	0	0	255	0	0	0	0	255	0	0	0	0	255	0	0	0	0	255	0	0	0	0	255	0	0	0	0	255	0	0	0	0	255	0	0	255	0	0	0	0	0	0	255	0	0	0	0	255	0	0	0	0	255	0	0	0	0	255	0	0	0	0	255	0	0	0	0	255	0	0	0	0	255			2	8	0	xxx	xxx	0	0	1
Drakeskin Armor	100	0	1	1	300	325	0	13	90	0	80	0	52	31	50000	1785276	uea	uea	7	306	lea	lea	lea	xxx	xxx	0	1	2	3	1	4	1	flplea	invlea			0	0	1	0	1	1	0	0	0	0	0	tors		item_lightarmor	12	item_lightarmor	0	0	5	0	0	0	0	0	2	0	0	0			0	1	0	0	0	0	255	0	0	0	0	255	0	0	0	0	255	0	0	0	0	255	0	0	0	0	255	0	0	0	0	255	0	0	0	0	255	0	0	0	0	255	0	0	0	0	255	0	0	255	0	0	0	0	0	0	255	0	0	0	0	255	0	0	0	0	255	0	0	0	0	255	0	0	0	0	255	0	0	0	0	255	0	0	0	0	255			2	8	0	xxx	xxx	0	0	1
Bolstered Mumakhide Armor	100	0	1	1	325	345	0	14	95	0	90	0	55	33	53000	1891607	ula	ula	7	306	hla	hla	hla	xxx	xxx	0	1	2	3	1	4	1	flphla	leatherarmor			1	1	1	0	1	1	0	0	0	0	0	tors		item_lightarmor	12	item_lightarmor	0	0	5	0	0	0	0	0	2	0	0	0			0	1	0	0	0	0	255	0	0	0	0	255	0	0	0	0	255	0	0	0	0	255	0	0	0	0	255	0	0	0	0	255	0	0	0	0	255	0	0	0	0	255	0	0	0	0	255	0	0	255	0	0	0	0	0	0	255	0	0	0	0	255	0	0	0	0	255	0	0	0	0	255	0	0	0	0	255	0	0	0	0	255	0	0	0	0	255			2	8	0	xxx	xxx	0	0	1
Plated Troll Hide	100	0	1	1	345	380	0	17	110	0	100	0	60	36	55000	2059887	utu	utu	7	306	stu	stu	stu	xxx	xxx	0	1	2	3	1	4	1	flpstu	invxtuu			1	0	0	1	1	1	0	0	0	0	0	tors		item_lightarmor	12	item_lightarmor	0	0	5	0	0	0	0	0	2	0	0	0			0	1	0	0	0	0	255	0	0	0	0	255	0	0	0	0	255	0	0	0	0	255	0	0	0	0	255	0	0	0	0	255	0	0	0	0	255	0	0	0	0	255	0	0	0	0	255	0	0	255	0	0	0	0	0	0	255	0	0	0	0	255	0	0	0	0	255	0	0	0	0	255	0	0	0	0	255	0	0	0	0	255	0	0	0	0	255			2	8	0	xxx	xxx	0	0	1
Linked Hauberk	100	0	1	1	380	410	0	18	135	0	110	0	65	39	57000	2243423	ung	ung	7	306	rng	rng	rng	xxx	xxx	0	1	2	3	1	4	1	flprng	invrng			0	0	1	1	1	1	0	0	0	0	0	tors		item_chainarmor	12	item_chainarmor	0	0	5	0	0	0	0	0	2	0	0	0			0	3	0	0	0	0	255	0	0	0	0	255	0	0	0	0	255	0	0	0	0	255	0	0	0	0	255	0	0	0	0	255	0	0	0	0	255	0	0	0	0	255	0	0	0	0	255	0	0	255	0	0	0	0	0	0	255	0	0	0	0	255	0	0	0	0	255	0	0	0	0	255	0	0	0	0	255	0	0	0	0	255	0	0	0	0	255			2	8	0	xxx	xxx	0	0	1
Ithildin Mail Coat	100	0	1	1	410	425	0	19	140	0	115	0	68	41	58000	2382039	ucl	ucl	7	306	scl	scl	scl	xxx	xxx	0	1	2	3	1	4	1	flpscl	invrom			1	1	1	1	1	1	0	0	0	0	0	tors		item_chainarmor	12	item_chainarmor	0	0	5	0	0	0	0	0	2	0	0	0			0	3	0	0	0	0	255	0	0	0	0	255	0	0	0	0	255	0	0	0	0	255	0	0	0	0	255	0	0	0	0	255	0	0	0	0	255	0	0	0	0	255	0	0	0	0	255	0	0	255	0	0	0	0	0	0	255	0	0	0	0	255	0	0	0	0	255	0	0	0	0	255	0	0	0	0	255	0	0	0	0	255	0	0	0	0	255			2	8	0	xxx	xxx	0	0	1
Mithril Chain Armor	100	0	1	1	425	440	0	20	150	0	125	0	70	42	59000	2536340	uhn	uhn	7	306	chn	chn	chn	xxx	xxx	0	1	2	3	1	4	1	flpchn	invchn			1	1	1	1	2	2	0	0	0	0	0	tors		item_chainarmor	12	item_chainarmor	0	0	5	0	0	0	0	0	2	0	0	0			0	3	0	0	0	0	255	0	0	0	0	255	0	0	0	0	255	0	0	0	0	255	0	0	0	0	255	0	0	0	0	255	0	0	0	0	255	0	0	0	0	255	0	0	0	0	255	0	0	255	0	0	0	0	0	0	255	0	0	0	0	255	0	0	0	0	255	0	0	0	0	255	0	0	0	0	255	0	0	0	0	255	0	0	0	0	255			2	8	0	xxx	xxx	0	0	1
Great Hauberk	100	0	1	1	440	455	1	18	158	0	130	0	72	43	60000	2676189	urs	urs	7	306	brs	brs	brs	xxx	xxx	0	1	2	3	1	4	1	flpbrs	invxrss			0	0	2	0	2	2	0	0	0	0	0	tors		item_platearmor	12	item_platearmor	0	0	5	0	0	0	0	0	2	0	0	0			0	3	0	0	0	0	255	0	0	0	0	255	0	0	0	0	255	0	0	0	0	255	0	0	0	0	255	0	0	0	0	255	0	0	0	0	255	0	0	0	0	255	0	0	0	0	255	0	0	255	0	0	0	0	0	0	255	0	0	0	0	255	0	0	0	0	255	0	0	0	0	255	0	0	0	0	255	0	0	0	0	255	0	0	0	0	255			2	8	0	xxx	xxx	0	0	1
Plate Hauberk	100	0	1	1	455	475	0	21	165	0	140	0	74	44	70000	2882894	upl	upl	7	306	spl	spl	spl	xxx	xxx	0	1	2	3	1	4	1	flpspl	armor20			1	1	2	1	1	1	0	0	0	0	0	tors		item_platearmor	12	item_platearmor	0	0	5	0	0	0	0	0	2	0	0	0			0	3	0	0	0	0	255	0	0	0	0	255	0	0	0	0	255	0	0	0	0	255	0	0	0	0	255	0	0	0	0	255	0	0	0	0	255	0	0	0	0	255	0	0	0	0	255	0	0	255	0	0	0	0	0	0	255	0	0	0	0	255	0	0	0	0	255	0	0	0	0	255	0	0	0	0	255	0	0	0	0	255	0	0	0	0	255			2	0	0	xxx	xxx	0	0	1
Dwarven Royal Plate	100	0	1	1	476	495	0	30	180	0	150	0	78	47	80000	3197721	ult	ult	7	306	plt	plt	plt	xxx	xxx	0	1	2	3	1	4	1	flpplt	armor01a			2	2	2	2	0	0	0	0	0	0	0	tors		item_platearmor	12	item_platearmor	0	0	5	0	0	0	0	0	2	0	0	0			0	3	0	0	0	0	255	0	0	0	0	255	0	0	0	0	255	0	0	0	0	255	0	0	0	0	255	0	0	0	0	255	0	0	0	0	255	0	0	0	0	255	0	0	0	0	255	0	0	255	0	0	0	0	0	0	255	0	0	0	0	255	0	0	0	0	255	0	0	0	0	255	0	0	0	0	255	0	0	0	0	255	0	0	0	0	255			2	0	0	xxx	xxx	0	0	1
Numenorean Royal Plate	100	0	1	1	495	515	2	34	190	0	170	0	82	49	105000	3411990	uld	uld	7	306	fld	fld	fld	xxx	xxx	0	1	2	3	1	4	1	flpfld	invedl			1	1	2	2	2	2	0	0	0	0	0	tors		item_platearmor	12	item_platearmor	0	0	5	0	0	0	0	0	2	0	0	0			0	3	0	0	0	0	255	0	0	0	0	255	0	0	0	0	255	0	0	0	0	255	0	0	0	0	255	0	0	0	0	255	0	0	0	0	255	0	0	0	0	255	0	0	0	0	255	0	0	255	0	0	0	0	0	0	255	0	0	0	0	255	0	0	0	0	255	0	0	0	0	255	0	0	0	0	255	0	0	0	0	255	0	0	0	0	255			2	8	0	xxx	xxx	0	0	1
Tumunzahar Mithril Plate	100	0	1	1	515	530	0	36	195	0	180	0	84	51	110000	3803464	uth	uth	7	306	gth	gth	gth	xxx	xxx	0	1	2	3	1	4	1	flpgth	armor07			2	2	1	2	2	2	0	0	0	0	0	tors		item_platearmor	12	item_platearmor	0	0	5	0	0	0	0	0	2	0	0	0			0	3	0	0	0	0	255	0	0	0	0	255	0	0	0	0	255	0	0	0	0	255	0	0	0	0	255	0	0	0	0	255	0	0	0	0	255	0	0	0	0	255	0	0	0	0	255	0	0	255	0	0	0	0	0	0	255	0	0	0	0	255	0	0	0	0	255	0	0	0	0	255	0	0	0	0	255	0	0	0	0	255	0	0	0	0	255			2	0	0	xxx	xxx	0	0	1
Noldorin War Plate	100	0	1	1	530	550	2	38	205	0	185	0	86	52	120000	4274953	uul	uul	7	306	ful	ful	ful	xxx	xxx	0	1	2	3	1	4	1	flpful	invfulu			2	2	2	2	1	1	0	0	0	0	0	tors		item_platearmor	12	item_platearmor	0	0	5	0	0	0	0	0	2	0	0	0			0	3	0	0	0	0	255	0	0	0	0	255	0	0	0	0	255	0	0	0	0	255	0	0	0	0	255	0	0	0	0	255	0	0	0	0	255	0	0	0	0	255	0	0	0	0	255	0	0	255	0	0	0	0	0	0	255	0	0	0	0	255	0	0	0	0	255	0	0	0	0	255	0	0	0	0	255	0	0	0	0	255	0	0	0	0	255			2	8	0	xxx	xxx	0	0	1
Vanyarin Imperial Armor	100	0	1	1	551	600	5	38	230	0	200	0	90	54	140000	4872212	uar	uar	7	306	aar	aar	aar	xxx	xxx	0	1	2	3	1	4	1	flpaar	invxaru			2	2	2	2	2	2	0	0	0	0	0	tors		item_platearmor	12	item_platearmor	0	0	5	0	0	0	0	0	2	0	0	0			0	3	0	0	0	0	255	0	0	0	0	255	0	0	0	0	255	0	0	0	0	255	0	0	0	0	255	0	0	0	0	255	0	0	0	0	255	0	0	0	0	255	0	0	0	0	255	0	0	255	0	0	0	0	0	0	255	0	0	0	0	255	0	0	0	0	255	0	0	0	0	255	0	0	0	0	255	0	0	0	0	255	0	0	0	0	255			2	8	0	xxx	xxx	0	0	1
Khazad-dum Plate Armor	100	0	1	1	350	400	1	20	110	0	250	0	86	52	120000	3851372	utp	utp	7	306	ltp	ltp	ltp	xxx	xxx	0	1	2	3	1	6	1	flpltp	platearmor			2	0	1	1	2	2	0	0	0	0	0	tors		item_platearmor	12	item_platearmor	0	0	5	0	0	0	0	0	2	0	0	0			0	3	0	0	0	0	255	0	0	0	0	255	0	0	0	0	255	0	0	0	0	255	0	0	0	0	255	0	0	0	0	255	0	0	0	0	255	0	0	0	0	255	0	0	0	0	255	0	0	255	0	0	0	0	0	0	255	0	0	0	0	255	0	0	0	0	255	0	0	0	0	255	0	0	0	0	255	0	0	0	0	255	0	0	0	0	255			2	8	0	xxx	xxx	0	0	1
Defender	100	0	1	1	95	105	0	2	80	20	80	0	50	30	11700	385227	uuc	uuc	7	306	buc	buc	buc	xxx	xxx	0	7	2	2	1	2	2	flpbuc	invbucu	invbucu	invbucu							0	0	0	0	0	shie		item_woodshield	12	item_woodshield	0	0	5	0	0	0	0	0	1	0	5	11	100		0	3	0	0	0	0	255	0	0	0	0	255	0	0	0	0	255	0	0	0	0	255	0	0	0	0	255	0	0	0	0	255	0	0	0	0	255	0	0	0	0	255	0	0	0	0	255	0	0	255	0	0	0	0	0	0	255	0	0	0	0	255	0	0	0	0	255	0	0	0	0	255	0	0	0	0	255	0	0	0	0	255	0	0	0	0	255			5	8	0	xxx	xxx	0	0	1
Harad Defender	100	0	1	1	105	115	0	3	70	22	200	0	60	36	18000	436543	uml	uml	7	306	buc	buc	sml	xxx	xxx	0	7	2	2	1	2	2	flpsml	invxmlu									0	0	0	0	0	shie		item_woodshield	12	item_woodshield	0	0	5	0	0	0	0	0	1	0	6	13	100		0	3	0	0	0	0	255	0	0	0	0	255	0	0	0	0	255	0	0	0	0	255	0	0	0	0	255	0	0	0	0	255	0	0	0	0	255	0	0	0	0	255	0	0	0	0	255	0	0	255	0	0	0	0	0	0	255	0	0	0	0	255	0	0	0	0	255	0	0	0	0	255	0	0	0	0	255	0	0	0	0	255	0	0	0	0	255			5	5	0	xxx	xxx	0	0	1
Moria Shield	100	0	1	1	115	145	0	4	120	24	100	0	70	42	21000	514278	urg	urg	7	306	lrg	lrg	lrg	xxx	xxx	0	7	2	3	1	3	2	flplrg	invxrgu									0	0	0	0	0	shie		item_metalshield	12	item_metalshield	0	0	5	0	0	0	0	0	1	0	7	16	100		0	3	0	0	0	0	255	0	0	0	0	255	0	0	0	0	255	0	0	0	0	255	0	0	0	0	255	0	0	0	0	255	0	0	0	0	255	0	0	0	0	255	0	0	0	0	255	0	0	255	0	0	0	0	0	0	255	0	0	0	0	255	0	0	0	0	255	0	0	0	0	255	0	0	0	0	255	0	0	0	0	255	0	0	0	0	255			2	0	0	xxx	xxx	0	0	1
Eog Shield	100	0	1	1	145	175	0	5	150	26	125	0	80	48	31000	576154	uit	uit	7	306	kit	kit	kit	xxx	xxx	0	7	2	3	1	3	2	flpkit	shield04	shield04	shield04							0	0	0	0	0	shie		item_metalshield	12	item_metalshield	0	0	5	0	0	0	0	0	1	0	8	18	100		0	3	0	0	0	0	255	0	0	0	0	255	0	0	0	0	255	0	0	0	0	255	0	0	0	0	255	0	0	0	0	255	0	0	0	0	255	0	0	0	0	255	0	0	0	0	255	0	0	255	0	0	0	0	0	0	255	0	0	0	0	255	0	0	0	0	255	0	0	0	0	255	0	0	0	0	255	0	0	0	0	255	0	0	0	0	255			2	0	0	xxx	xxx	0	0	1
Noldorin Tower Shield	100	0	1	1	175	200	1	7	200	28	150	0	85	51	38000	693568	uow	uow	7	306	tow	tow	tow	xxx	xxx	0	7	2	3	1	3	2	flptow	shield08									0	0	0	0	0	shie		item_metalshield	12	item_metalshield	0	0	5	0	0	0	0	0	1	0	9	21	100		0	3	0	0	0	0	255	0	0	0	0	255	0	0	0	0	255	0	0	0	0	255	0	0	0	0	255	0	0	0	0	255	0	0	0	0	255	0	0	0	0	255	0	0	0	0	255	0	0	255	0	0	0	0	0	0	255	0	0	0	0	255	0	0	0	0	255	0	0	0	0	255	0	0	0	0	255	0	0	0	0	255	0	0	0	0	255			2	0	0	xxx	xxx	0	0	1
Vanyarin Wall Shield	100	0	1	1	200	225	0	9	225	30	200	0	89	53	50000	856602	uts	uts	7	306	kit	kit	gts	xxx	xxx	0	7	2	3	1	4	2	flpgts	shield10	shield10	shield10							0	0	0	0	0	shie		item_metalshield	12	item_metalshield	0	0	5	0	0	0	0	0	1	0	10	24	100		0	3	0	0	0	0	255	0	0	0	0	255	0	0	0	0	255	0	0	0	0	255	0	0	0	0	255	0	0	0	0	255	0	0	0	0	255	0	0	0	0	255	0	0	0	0	255	0	0	255	0	0	0	0	0	0	255	0	0	0	0	255	0	0	0	0	255	0	0	0	0	255	0	0	0	0	255	0	0	0	0	255	0	0	0	0	255			2	0	0	xxx	xxx	0	0	1
Elder Seadrakeskin Gloves	100	0	1	1	41	48	0	0	100	0	40	0	55	33	7500	269938	ulg	ulg	7	306	lgl	lgl	lgl	xxx	xxx	0	16	2	2	0	0	0	flplgl	invlgl									0	0	0	0	0	glov		item_gloves	12	item_gloves	0	0	5	0	0	0	0	0	5	0	0	0			0	1	0	0	0	0	255	0	0	0	0	255	0	0	0	0	255	0	0	0	0	255	0	0	0	0	255	0	0	0	0	255	0	0	0	0	255	0	0	0	0	255	0	0	0	0	255	0	0	255	0	0	0	0	0	0	255	0	0	0	0	255	0	0	0	0	255	0	0	0	0	255	0	0	0	0	255	0	0	0	0	255	0	0	0	0	255			0	8	0	xxx	xxx	0	0	1
Gondorian Gloves	100	0	1	1	48	56	0	0	110	0	45	0	60	36	8000	306103	uvg	uvg	7	306	vgl	vgl	vgl	xxx	xxx	0	16	2	2	0	0	0	flpvgl	invvgl									0	0	0	0	0	glov		item_gloves	12	item_gloves	0	0	5	0	0	0	0	0	5	0	0	0			0	1	0	0	0	0	255	0	0	0	0	255	0	0	0	0	255	0	0	0	0	255	0	0	0	0	255	0	0	0	0	255	0	0	0	0	255	0	0	0	0	255	0	0	0	0	255	0	0	255	0	0	0	0	0	0	255	0	0	0	0	255	0	0	0	0	255	0	0	0	0	255	0	0	0	0	255	0	0	0	0	255	0	0	0	0	255			0	8	0	xxx	xxx	0	0	1
Numenorean Gloves	100	0	1	1	56	64	0	0	115	0	50	0	65	39	8800	352152	umg	umg	7	306	mgl	mgl	mgl	xxx	xxx	0	16	2	2	0	0	0	flpmgl	invmgl									0	0	0	0	0	glov		item_gloveschain	12	item_gloveschain	0	0	5	0	0	0	0	0	5	0	0	0			0	1	0	0	0	0	255	0	0	0	0	255	0	0	0	0	255	0	0	0	0	255	0	0	0	0	255	0	0	0	0	255	0	0	0	0	255	0	0	0	0	255	0	0	0	0	255	0	0	255	0	0	0	0	0	0	255	0	0	0	0	255	0	0	0	0	255	0	0	0	0	255	0	0	0	0	255	0	0	0	0	255	0	0	0	0	255			0	8	0	xxx	xxx	0	0	1
Noldorin Gauntlets	100	0	1	1	64	72	0	0	130	0	60	0	75	45	10000	420620	utg	utg	7	306	mgl	mgl	tgl	xxx	xxx	0	16	2	2	0	0	0	flptgl	invtgl									0	0	0	0	0	glov		item_glovesmetal	12	item_glovesmetal	0	0	5	0	0	0	0	0	5	0	0	0			0	1	0	0	0	0	255	0	0	0	0	255	0	0	0	0	255	0	0	0	0	255	0	0	0	0	255	0	0	0	0	255	0	0	0	0	255	0	0	0	0	255	0	0	0	0	255	0	0	255	0	0	0	0	0	0	255	0	0	0	0	255	0	0	0	0	255	0	0	0	0	255	0	0	0	0	255	0	0	0	0	255	0	0	0	0	255			0	8	0	xxx	xxx	0	0	1
Vanyarin Gauntlets	100	0	1	1	72	80	0	1	150	0	75	0	85	51	13000	498191	uhg	uhg	7	306	hgl	hgl	hgl	xxx	xxx	0	16	2	2	0	0	0	flphgl	invhgl									0	0	0	0	0	glov		item_glovesmetal	12	item_glovesmetal	0	0	5	0	0	0	0	0	5	0	0	0			0	1	0	0	0	0	255	0	0	0	0	255	0	0	0	0	255	0	0	0	0	255	0	0	0	0	255	0	0	0	0	255	0	0	0	0	255	0	0	0	0	255	0	0	0	0	255	0	0	255	0	0	0	0	0	0	255	0	0	0	0	255	0	0	0	0	255	0	0	0	0	255	0	0	0	0	255	0	0	0	0	255	0	0	0	0	255			0	8	0	xxx	xxx	0	0	1
Elder Seadrakeskin Boots	100	0	1	1	41	48	0	0	100	0	40	0	55	33	7500	269938	ulb	ulb	7	306	lbt	lbt	lbt	xxx	xxx	0	16	2	2	0	0	0	flplbt	invlbt									0	0	0	0	0	boot		item_boots	12	item_boots	0	0	5	0	0	0	0	0	6	0	23	38	120		0	1	0	0	0	0	255	0	0	0	0	255	0	0	0	0	255	0	0	0	0	255	0	0	0	0	255	0	0	0	0	255	0	0	0	0	255	0	0	0	0	255	0	0	0	0	255	0	0	255	0	0	0	0	0	0	255	0	0	0	0	255	0	0	0	0	255	0	0	0	0	255	0	0	0	0	255	0	0	0	0	255	0	0	0	0	255			0	8	0	xxx	xxx	0	0	1
Ranger Boots	100	0	1	1	48	56	0	0	110	0	45	0	60	36	8000	305620	uvb	uvb	7	306	vbt	vbt	vbt	xxx	xxx	0	16	2	2	0	0	0	flpvbt	invvbt									0	0	0	0	0	boot		item_boots	12	item_boots	0	0	5	0	0	0	0	0	6	0	24	40	120		0	1	0	0	0	0	255	0	0	0	0	255	0	0	0	0	255	0	0	0	0	255	0	0	0	0	255	0	0	0	0	255	0	0	0	0	255	0	0	0	0	255	0	0	0	0	255	0	0	255	0	0	0	0	0	0	255	0	0	0	0	255	0	0	0	0	255	0	0	0	0	255	0	0	0	0	255	0	0	0	0	255	0	0	0	0	255			0	8	0	xxx	xxx	0	0	1
Adunaic Boots	100	0	1	1	56	64	0	0	115	0	50	0	65	39	8800	352010	umb	umb	7	306	mbt	mbt	mbt	xxx	xxx	0	16	2	2	0	0	0	flpmbt	invmbt									0	0	0	0	0	boot		item_bootschain	12	item_bootschain	0	0	5	0	0	0	0	0	6	0	26	42	120		0	3	0	0	0	0	255	0	0	0	0	255	0	0	0	0	255	0	0	0	0	255	0	0	0	0	255	0	0	0	0	255	0	0	0	0	255	0	0	0	0	255	0	0	0	0	255	0	0	255	0	0	0	0	0	0	255	0	0	0	0	255	0	0	0	0	255	0	0	0	0	255	0	0	0	0	255	0	0	0	0	255	0	0	0	0	255			0	8	0	xxx	xxx	0	0	1
Noldorin Greaves	100	0	1	1	64	72	0	0	130	0	60	0	75	45	10000	420465	utb	utb	7	306	mbt	mbt	tbt	xxx	xxx	0	16	2	2	0	0	0	flptbt	invtbt									0	0	0	0	0	boot		item_bootsmetal	12	item_bootsmetal	0	0	5	0	0	0	0	0	6	0	28	46	120		0	3	0	0	0	0	255	0	0	0	0	255	0	0	0	0	255	0	0	0	0	255	0	0	0	0	255	0	0	0	0	255	0	0	0	0	255	0	0	0	0	255	0	0	0	0	255	0	0	255	0	0	0	0	0	0	255	0	0	0	0	255	0	0	0	0	255	0	0	0	0	255	0	0	0	0	255	0	0	0	0	255	0	0	0	0	255			0	8	0	xxx	xxx	0	0	1
Vanyarin Greaves	100	0	1	1	72	80	0	1	150	0	75	0	85	51	13000	497859	uhb	uhb	7	306	hbt	hbt	hbt	xxx	xxx	0	16	2	2	0	0	0	flphbt	invhbt									0	0	0	0	0	boot		item_bootsmetal	12	item_bootsmetal	0	0	5	0	0	0	0	0	6	0	30	50	120		0	3	0	0	0	0	255	0	0	0	0	255	0	0	0	0	255	0	0	0	0	255	0	0	0	0	255	0	0	0	0	255	0	0	0	0	255	0	0	0	0	255	0	0	0	0	255	0	0	255	0	0	0	0	0	0	255	0	0	0	0	255	0	0	0	0	255	0	0	0	0	255	0	0	0	0	255	0	0	0	0	255	0	0	0	0	255			0	8	0	xxx	xxx	0	0	1
Elder Seadrakeskin Sash	100	0	1	1	41	48	0	0	100	0	40	0	55	33	7500	270466	ulc	ulc	7	306	lbl	lbl	lbl	xxx	xxx	0	16	2	1	0	0	0	flplbl	invlbl									0	0	0	0	0	belt		item_lightarmor	12	item_lightarmor	0	0	5	0	0	6	0	0	4	0	0	0			0	1	0	0	0	0	255	0	0	0	0	255	0	0	0	0	255	0	0	0	0	255	0	0	0	0	255	0	0	0	0	255	0	0	0	0	255	0	0	0	0	255	0	0	0	0	255	0	0	255	0	0	0	0	0	0	255	0	0	0	0	255	0	0	0	0	255	0	0	0	0	255	0	0	0	0	255	0	0	0	0	255	0	0	0	0	255			0	8	0	xxx	xxx	0	0	1
Ranger Belt	100	0	1	1	48	56	0	0	110	0	45	0	60	36	8000	300879	uvc	uvc	7	306	vbl	vbl	vbl	xxx	xxx	0	16	2	1	0	0	0	flpvbl	invvbl									0	0	0	0	0	belt		item_belt	12	item_belt	0	0	5	0	0	6	0	0	4	0	0	0			0	1	0	0	0	0	255	0	0	0	0	255	0	0	0	0	255	0	0	0	0	255	0	0	0	0	255	0	0	0	0	255	0	0	0	0	255	0	0	0	0	255	0	0	0	0	255	0	0	255	0	0	0	0	0	0	255	0	0	0	0	255	0	0	0	0	255	0	0	0	0	255	0	0	0	0	255	0	0	0	0	255	0	0	0	0	255			0	8	0	xxx	xxx	0	0	1
Numenorean Coil	100	0	1	1	56	64	0	0	115	0	50	0	65	39	8800	345000	umc	umc	7	306	mbl	mbl	mbl	xxx	xxx	0	16	2	1	0	0	0	flpmbl	invmbl									0	0	0	0	0	belt		item_belt	12	item_belt	0	0	5	0	0	6	0	0	4	0	0	0			0	1	0	0	0	0	255	0	0	0	0	255	0	0	0	0	255	0	0	0	0	255	0	0	0	0	255	0	0	0	0	255	0	0	0	0	255	0	0	0	0	255	0	0	0	0	255	0	0	255	0	0	0	0	0	0	255	0	0	0	0	255	0	0	0	0	255	0	0	0	0	255	0	0	0	0	255	0	0	0	0	255	0	0	0	0	255			0	8	0	xxx	xxx	0	0	1
Noldorin Girdle	100	0	1	1	64	72	0	0	130	0	60	0	75	45	10000	411380	utc	utc	7	306	mbl	mbl	tbl	xxx	xxx	0	16	2	1	0	0	0	flptbl	invtbl									0	0	0	0	0	belt		item_belt	12	item_belt	0	0	5	0	0	6	0	0	4	0	0	0			0	1	0	0	0	0	255	0	0	0	0	255	0	0	0	0	255	0	0	0	0	255	0	0	0	0	255	0	0	0	0	255	0	0	0	0	255	0	0	0	0	255	0	0	0	0	255	0	0	255	0	0	0	0	0	0	255	0	0	0	0	255	0	0	0	0	255	0	0	0	0	255	0	0	0	0	255	0	0	0	0	255	0	0	0	0	255			0	8	0	xxx	xxx	0	0	1
Vanyarin Girdle	100	0	1	1	72	80	0	1	150	0	75	0	85	51	13000	493775	uhc	uhc	7	306	hbl	hbl	hbl	xxx	xxx	0	16	2	1	0	0	0	flphbl	invhbl									0	0	0	0	0	belt		item_belt	12	item_belt	0	0	5	0	0	6	0	0	4	0	0	0			0	1	0	0	0	0	255	0	0	0	0	255	0	0	0	0	255	0	0	0	0	255	0	0	0	0	255	0	0	0	0	255	0	0	0	0	255	0	0	0	0	255	0	0	0	0	255	0	0	255	0	0	0	0	0	0	255	0	0	0	0	255	0	0	0	0	255	0	0	0	0	255	0	0	0	0	255	0	0	0	0	255	0	0	0	0	255			0	8	0	xxx	xxx	0	0	1
Wight Skull	100	0	1	1	90	120	0	0	80	0	40	0	75	45	15000	598161	uh9	uh9	7	306	bhm	bhm	bhm	xxx	xxx	0	0	2	2	1	3	1	flpbhm	helm10	helm10	helm10							0	0	0	0	0	helm		item_helm	12	item_helm	0	0	5	0	2	0	0	0	3	0	0	0			0	1	0	0	0	0	255	0	0	0	0	255	0	0	0	0	255	0	0	0	0	255	0	0	0	0	255	0	0	0	0	255	0	0	0	0	255	0	0	0	0	255	0	0	0	0	255	0	0	255	0	0	0	0	0	0	255	0	0	0	0	255	0	0	0	0	255	0	0	0	0	255	0	0	0	0	255	0	0	0	0	255	0	0	0	0	255			2	0	0	xxx	xxx	0	0	1
Wight Shield	100	0	1	1	100	140	0	2	90	18	70	0	70	42	17000	586580	ush	ush	7	306	bsh	bsh	bsh	xxx	xxx	0	7	2	3	1	3	2	flpbsh	invxshu									0	0	0	0	0	shie		item_metalshield	12	item_metalshield	0	0	5	0	0	0	0	0	1	0	10	20	100		0	1	0	0	0	0	255	0	0	0	0	255	0	0	0	0	255	0	0	0	0	255	0	0	0	0	255	0	0	0	0	255	0	0	0	0	255	0	0	0	0	255	0	0	0	0	255	0	0	255	0	0	0	0	0	0	255	0	0	0	0	255	0	0	0	0	255	0	0	0	0	255	0	0	0	0	255	0	0	0	0	255	0	0	0	0	255			2	8	0	xxx	xxx	0	0	1
Dragonfang Ward	100	0	1	1	130	170	0	4	115	20	80	0	80	48	28000	413914	upk	upk	7	306	spk	spk	spk	xxx	xxx	0	7	2	3	1	3	2	flpspk	invxpku									0	0	0	0	0	shie		item_metalshield	12	item_metalshield	0	0	5	0	0	0	0	0	1	0	15	30	100		0	1	0	0	0	0	255	0	0	0	0	255	0	0	0	0	255	0	0	0	0	255	0	0	0	0	255	0	0	0	0	255	0	0	0	0	255	0	0	0	0	255	0	0	0	0	255	0	0	255	0	0	0	0	0	0	255	0	0	0	0	255	0	0	0	0	255	0	0	0	0	255	0	0	0	0	255	0	0	0	0	255	0	0	0	0	255			2	8	0	xxx	xxx	0	0	1
Warg Helm	3	0	1	1	40	45	0	0	45	0	20	0	35	21	5000	82061	dr6	dr6	3		dr1	dr1	dr1	xxx	xxx	0	0	2	2	1	3	1	flpdr1	invdr1									0	0	0	0	0	pelt		item_helm	12	item_helm	0	0	5	0	0	0	0	0	3	0	0	0			0	1	0	0	0	0	255	0	0	0	0	255	0	0	0	0	255	0	0	0	0	255	0	0	0	0	255	0	0	0	0	255	0	0	0	0	255	0	0	0	0	255	0	0	0	0	255	0	0	255	0	0	0	0	0	0	255	0	0	0	0	255	0	0	0	0	255	0	0	0	0	255	0	0	0	0	255	0	0	0	0	255	0	0	0	0	20			1	0	0	xxx	xxx	0	0	1
Griffon Headress	3	0	1	1	45	55	0	0	50	0	25	0	40	24	6200	82062	dr7	dr7	3		dr4	dr4	dr2	xxx	xxx	0	0	2	2	1	3	1	flpdr4	invdr2									0	0	0	0	0	pelt		item_helm	12	item_helm	0	0	5	0	0	0	0	0	3	0	0	0			0	1	0	0	0	0	255	0	0	0	0	255	0	0	0	0	255	0	0	0	0	255	0	0	0	0	255	0	0	0	0	255	0	0	0	0	255	0	0	0	0	255	0	0	0	0	255	0	0	255	0	0	0	0	0	0	255	0	0	0	0	255	0	0	0	0	255	0	0	0	0	255	0	0	0	0	255	0	0	0	0	255	0	0	0	0	20			1	0	0	xxx	xxx	0	0	1
Hunter's Guise	3	0	1	1	55	65	0	0	56	0	30	0	46	28	7400	82063	dr8	dr8	3		dr3	dr3	dr3	xxx	xxx	0	0	2	2	1	3	1	flpdr3	invdr3									0	0	0	0	0	pelt		item_helm	12	item_helm	0	0	5	0	0	0	0	0	3	0	0	0			0	1	0	0	0	0	255	0	0	0	0	255	0	0	0	0	255	0	0	0	0	255	0	0	0	0	255	0	0	0	0	255	0	0	0	0	255	0	0	0	0	255	0	0	0	0	255	0	0	255	0	0	0	0	0	0	255	0	0	0	0	255	0	0	0	0	255	0	0	0	0	255	0	0	0	0	255	0	0	0	0	255	0	0	0	0	255			1	0	0	xxx	xxx	0	0	1
Sacred Feathers	3	0	1	1	65	75	0	1	62	0	35	0	50	30	8600	82064	dr9	dr9	3		dr4	dr4	dr4	xxx	xxx	0	0	2	2	1	3	1	flpdr4	invdr4									0	0	0	0	0	pelt		item_helm	12	item_helm	0	0	5	0	0	0	0	0	3	0	0	0			0	1	0	0	0	0	255	0	0	0	0	255	0	0	0	0	255	0	0	0	0	255	0	0	0	0	255	0	0	0	0	255	0	0	0	0	255	0	0	0	0	255	0	0	0	0	255	0	0	255	0	0	0	0	0	0	255	0	0	0	0	255	0	0	0	0	255	0	0	0	0	255	0	0	0	0	255	0	0	0	0	255	0	0	0	0	255			1	0	0	xxx	xxx	0	0	1
Ent Mask	3	0	1	1	75	85	0	2	70	0	40	0	55	33	10000	82065	dra	dra	3		dr1	dr1	dr5	xxx	xxx	0	0	2	2	1	3	1	flpdr1	invdr5									0	0	0	0	0	pelt		item_helm	12	item_helm	0	0	5	0	0	0	0	0	3	0	0	0			0	1	0	0	0	0	255	0	0	0	0	255	0	0	0	0	255	0	0	0	0	255	0	0	0	0	255	0	0	0	0	255	0	0	0	0	255	0	0	0	0	255	0	0	0	0	255	0	0	255	0	0	0	0	0	0	255	0	0	0	0	255	0	0	0	0	255	0	0	0	0	255	0	0	0	0	255	0	0	0	0	255	0	0	0	0	255			1	0	0	xxx	xxx	0	0	1
Warrior Helm	3	0	1	1	45	50	0	0	65	0	30	0	35	21	5000	82061	ba6	ba6	3		ba1	dr1	ba1	xxx	xxx	0	0	2	2	1	3	1	flpba1	invba1									0	0	0	0	0	phlm		item_helm	12	item_helm	0	0	5	0	0	0	0	0	3	0	0	0			0	1	0	0	0	0	255	0	0	0	0	255	0	0	0	0	255	0	0	0	0	255	0	0	0	0	255	0	0	0	0	255	0	0	0	0	255	0	0	0	0	255	0	0	0	0	255	0	0	255	0	0	0	0	0	0	255	0	0	0	0	255	0	0	0	0	255	0	0	0	0	255	0	0	0	0	255	0	0	0	0	255	0	0	0	0	20			5	0	0	xxx	xxx	0	0	1
Battle Helm	3	0	1	1	50	60	0	0	70	0	35	0	40	24	6200	82062	ba7	ba7	3		ba1	bhm	ba2	xxx	xxx	0	0	2	2	1	3	1	flpba1	invba2									0	0	0	0	0	phlm		item_helm	12	item_helm	0	0	5	0	0	0	0	0	3	0	0	0			0	1	0	0	0	0	255	0	0	0	0	255	0	0	0	0	255	0	0	0	0	255	0	0	0	0	255	0	0	0	0	255	0	0	0	0	255	0	0	0	0	255	0	0	0	0	255	0	0	255	0	0	0	0	0	0	255	0	0	0	0	255	0	0	0	0	255	0	0	0	0	255	0	0	0	0	255	0	0	0	0	255	0	0	0	0	20			5	0	0	xxx	xxx	0	0	1
War Mask	3	0	1	1	60	70	0	0	75	0	40	0	46	28	7400	82063	ba8	ba8	3		ba3	bhm	ba3	xxx	xxx	0	0	2	2	1	3	1	flpba3	invba3									0	0	0	0	0	phlm		item_helm	12	item_helm	0	0	5	0	0	0	0	0	3	0	0	0			0	3	0	0	0	0	255	0	0	0	0	255	0	0	0	0	255	0	0	0	0	255	0	0	0	0	255	0	0	0	0	255	0	0	0	0	255	0	0	0	0	255	0	0	0	0	255	0	0	255	0	0	0	0	0	0	255	0	0	0	0	255	0	0	0	0	255	0	0	0	0	255	0	0	0	0	255	0	0	0	0	255	0	0	0	0	255			5	0	0	xxx	xxx	0	0	1
Conquest Helmet	3	0	1	1	70	80	0	1	80	0	45	0	50	30	8600	82064	ba9	ba9	3		ba5	bhm	ba4	xxx	xxx	0	0	2	2	1	3	1	flpba5	invba4									0	0	0	0	0	phlm		item_helm	12	item_helm	0	0	5	0	0	0	0	0	3	0	0	0			0	3	0	0	0	0	255	0	0	0	0	255	0	0	0	0	255	0	0	0	0	255	0	0	0	0	255	0	0	0	0	255	0	0	0	0	255	0	0	0	0	255	0	0	0	0	255	0	0	255	0	0	0	0	0	0	255	0	0	0	0	255	0	0	0	0	255	0	0	0	0	255	0	0	0	0	255	0	0	0	0	255	0	0	0	0	255			5	0	0	xxx	xxx	0	0	1
Victory Guard	3	0	1	1	80	90	0	2	85	0	50	0	55	33	10000	82065	baa	baa	3		ba5	bhm	ba5	xxx	xxx	0	0	2	2	1	3	1	flpba5	invba5									0	0	0	0	0	phlm		item_helm	12	item_helm	0	0	5	0	0	0	0	0	3	0	0	0			0	3	0	0	0	0	255	0	0	0	0	255	0	0	0	0	255	0	0	0	0	255	0	0	0	0	255	0	0	0	0	255	0	0	0	0	255	0	0	0	0	255	0	0	0	0	255	0	0	255	0	0	0	0	0	0	255	0	0	0	0	255	0	0	0	0	255	0	0	0	0	255	0	0	0	0	255	0	0	0	0	255	0	0	0	0	255			5	0	0	xxx	xxx	0	0	1
Adunaic Targe	4	0	1	1	55	65	0	0	60	18	40	0	35	21	7500	82065	pa6	pa6	3	304	pa1	spk	pa1	xxx	xxx	0	7	2	2	1	4	2	flppa1	invpa1									0	0	0	0	0	ashd		item_metalshield	12	item_metalshield	0	0	5	0	1	0	0	0	1	0	6	16	100		0	3	0	0	0	0	255	0	0	0	0	255	0	0	0	0	255	0	0	0	0	255	0	0	0	0	255	0	0	0	0	255	0	0	0	0	255	0	0	0	0	255	0	0	0	0	255	0	0	255	0	0	0	0	0	0	255	0	0	0	0	255	0	0	0	0	255	0	0	0	0	255	0	0	0	0	255	0	0	0	0	255	0	0	0	0	20			0	0	0	xxx	xxx	0	0	1
Adunaic Ward	4	0	1	1	65	75	0	1	70	19	45	0	40	24	8500	82066	pa7	pa7	3	304	pa1	spk	pa2	xxx	xxx	0	7	2	2	1	4	2	flppa1	invpa2									0	0	0	0	0	ashd		item_metalshield	12	item_metalshield	0	0	5	0	2	0	0	0	1	0	7	17	100		0	3	0	0	0	0	255	0	0	0	0	255	0	0	0	0	255	0	0	0	0	255	0	0	0	0	255	0	0	0	0	255	0	0	0	0	255	0	0	0	0	255	0	0	0	0	255	0	0	255	0	0	0	0	0	0	255	0	0	0	0	255	0	0	0	0	255	0	0	0	0	255	0	0	0	0	255	0	0	0	0	255	0	0	0	0	20			0	0	0	xxx	xxx	0	0	1
Protector Shield	4	0	1	1	75	85	0	2	80	20	50	0	46	28	9500	82067	pa8	pa8	3	304	pa5	spk	pa3	xxx	xxx	0	7	2	2	1	4	2	flppa5	invpa5									0	0	0	0	0	ashd		item_metalshield	12	item_metalshield	0	0	5	0	3	0	0	0	1	0	8	18	100		0	3	0	0	0	0	255	0	0	0	0	255	0	0	0	0	255	0	0	0	0	255	0	0	0	0	255	0	0	0	0	255	0	0	0	0	255	0	0	0	0	255	0	0	0	0	255	0	0	255	0	0	0	0	0	0	255	0	0	0	0	255	0	0	0	0	255	0	0	0	0	255	0	0	0	0	255	0	0	0	0	255	0	0	0	0	255			0	0	0	xxx	xxx	0	0	1
Guilded Shield	4	0	1	1	85	95	0	4	90	22	55	0	50	30	11000	82068	pa9	pa9	3	304	pa3	spk	pa4	xxx	xxx	0	7	2	4	1	4	2	flppa3	invpa3									0	0	0	0	0	ashd		item_metalshield	12	item_metalshield	0	0	5	0	4	0	0	0	1	0	9	19	100		0	3	0	0	0	0	255	0	0	0	0	255	0	0	0	0	255	0	0	0	0	255	0	0	0	0	255	0	0	0	0	255	0	0	0	0	255	0	0	0	0	255	0	0	0	0	255	0	0	255	0	0	0	0	0	0	255	0	0	0	0	255	0	0	0	0	255	0	0	0	0	255	0	0	0	0	255	0	0	0	0	255	0	0	0	0	255			0	0	0	xxx	xxx	0	0	1
Royal Shield	4	0	1	1	95	105	0	6	100	24	60	0	55	33	12500	82069	paa	paa	3	304	pa3	spk	pa5	xxx	xxx	0	7	2	4	1	4	2	flppa3	invpa4									0	0	0	0	0	ashd		item_metalshield	12	item_metalshield	0	0	5	0	5	0	0	0	1	0	10	20	100		0	3	0	0	0	0	255	0	0	0	0	255	0	0	0	0	255	0	0	0	0	255	0	0	0	0	255	0	0	0	0	255	0	0	0	0	255	0	0	0	0	255	0	0	0	0	255	0	0	255	0	0	0	0	0	0	255	0	0	0	0	255	0	0	0	0	255	0	0	0	0	255	0	0	0	0	255	0	0	0	0	255	0	0	0	0	255			0	0	0	xxx	xxx	0	0	1
Corsair Trophy	3	0	1	1	40	50	0	0	35	6	20	0	35	21	7500	82069	ne6	ne6	3	305	ne1	dr1	ne1	xxx	xxx	0	10	2	2	1	3	2	flpne1	invne1									0	0	0	0	0	head		item_head	12	item_head	0	0	5	0	0	0	0	0	3	0	0	0			0	1	0	0	0	0	255	0	0	0	0	255	0	0	0	0	255	0	0	0	0	255	0	0	0	0	255	0	0	0	0	255	0	0	0	0	255	0	0	0	0	255	0	0	0	0	255	0	0	255	0	0	0	0	0	0	255	0	0	0	0	255	0	0	0	0	255	0	0	0	0	255	0	0	0	0	255	0	0	0	0	255	0	0	0	0	20			1	0	0	xxx	xxx	0	0	1
Easterling Trophy	3	0	1	1	45	55	0	0	40	9	25	0	40	24	8500	82070	ne7	ne7	3	305	ne2	bhm	ne2	xxx	xxx	0	10	2	2	1	3	2	flpne2	invne2									0	0	0	0	0	head		item_head	12	item_head	0	0	5	0	0	0	0	0	3	0	0	0			0	1	0	0	0	0	255	0	0	0	0	255	0	0	0	0	255	0	0	0	0	255	0	0	0	0	255	0	0	0	0	255	0	0	0	0	255	0	0	0	0	255	0	0	0	0	255	0	0	255	0	0	0	0	0	0	255	0	0	0	0	255	0	0	0	0	255	0	0	0	0	255	0	0	0	0	255	0	0	0	0	255	0	0	0	0	20			1	0	0	xxx	xxx	0	0	1
Dunlending Trophy	3	0	1	1	50	60	0	0	45	11	30	0	46	28	9500	82071	ne8	ne8	3	305	ne3	bhm	ne3	xxx	xxx	0	10	2	2	1	3	2	flpne3	invne3									0	0	0	0	0	head		item_head	12	item_head	0	0	5	0	0	0	0	0	3	0	0	0			0	1	0	0	0	0	255	0	0	0	0	255	0	0	0	0	255	0	0	0	0	255	0	0	0	0	255	0	0	0	0	255	0	0	0	0	255	0	0	0	0	255	0	0	0	0	255	0	0	255	0	0	0	0	0	0	255	0	0	0	0	255	0	0	0	0	255	0	0	0	0	255	0	0	0	0	255	0	0	0	0	255	0	0	0	0	255			1	0	0	xxx	xxx	0	0	1
Haradrim Trophy	3	0	1	1	65	75	0	1	50	13	35	0	50	30	11000	82072	ne9	ne9	3	305	ne3	bhm	ne4	xxx	xxx	0	10	2	2	1	3	2	flpne3	invne4									0	0	0	0	0	head		item_head	12	item_head	0	0	5	0	0	0	0	0	3	0	0	0			0	1	0	0	0	0	255	0	0	0	0	255	0	0	0	0	255	0	0	0	0	255	0	0	0	0	255	0	0	0	0	255	0	0	0	0	255	0	0	0	0	255	0	0	0	0	255	0	0	255	0	0	0	0	0	0	255	0	0	0	0	255	0	0	0	0	255	0	0	0	0	255	0	0	0	0	255	0	0	0	0	255	0	0	0	0	255			1	0	0	xxx	xxx	0	0	1
Variag Trophy	3	0	1	1	70	80	0	2	60	16	40	0	55	33	12500	82073	nea	nea	3	305	ne2	bhm	ne5	xxx	xxx	0	10	2	2	1	3	2	flpne2	invne5									0	0	0	0	0	head		item_head	12	item_head	0	0	5	0	0	0	0	0	3	0	0	0			0	1	0	0	0	0	255	0	0	0	0	255	0	0	0	0	255	0	0	0	0	255	0	0	0	0	255	0	0	0	0	255	0	0	0	0	255	0	0	0	0	255	0	0	0	0	255	0	0	255	0	0	0	0	0	0	255	0	0	0	0	255	0	0	0	0	255	0	0	0	0	255	0	0	0	0	255	0	0	0	0	255	0	0	0	0	255			1	0	0	xxx	xxx	0	0	1
Sereg Fea	3	0	1	1	85	90	0	0	70	0	40	0	62	37	11000	413914	drb	drb	7		dr1	dr1	dr1	xxx	xxx	0	0	2	2	1	3	1	flpdr1	invdr1									0	0	0	0	0	pelt		item_helm	12	item_helm	0	0	5	0	0	0	0	0	3	0	0	0			0	1	0	0	0	0	255	0	0	0	0	255	0	0	0	0	255	0	0	0	0	255	0	0	0	0	255	0	0	0	0	255	0	0	0	0	255	0	0	0	0	255	0	0	0	0	255	0	0	255	0	0	0	0	0	0	255	0	0	0	0	255	0	0	0	0	255	0	0	0	0	255	0	0	0	0	255	0	0	0	0	255	0	0	0	0	255			1	0	0	xxx	xxx	0	0	1
Anar Fea	3	0	1	1	90	95	0	0	80	0	45	0	69	41	13000	413915	drc	drc	7		dr4	dr4	dr2	xxx	xxx	0	0	2	2	1	3	1	flpdr4	invdr2									0	0	0	0	0	pelt		item_helm	12	item_helm	0	0	5	0	0	0	0	0	3	0	0	0			0	1	0	0	0	0	255	0	0	0	0	255	0	0	0	0	255	0	0	0	0	255	0	0	0	0	255	0	0	0	0	255	0	0	0	0	255	0	0	0	0	255	0	0	0	0	255	0	0	255	0	0	0	0	0	0	255	0	0	0	0	255	0	0	0	0	255	0	0	0	0	255	0	0	0	0	255	0	0	0	0	255	0	0	0	0	255			1	0	0	xxx	xxx	0	0	1
Kemen Fea	3	0	1	1	95	105	0	1	90	0	50	0	76	46	15000	413916	drd	drd	7		dr3	dr3	dr3	xxx	xxx	0	0	2	2	1	3	1	flpdr3	invdr3									0	0	0	0	0	pelt		item_helm	12	item_helm	0	0	5	0	0	0	0	0	3	0	0	0			0	1	0	0	0	0	255	0	0	0	0	255	0	0	0	0	255	0	0	0	0	255	0	0	0	0	255	0	0	0	0	255	0	0	0	0	255	0	0	0	0	255	0	0	0	0	255	0	0	255	0	0	0	0	0	0	255	0	0	0	0	255	0	0	0	0	255	0	0	0	0	255	0	0	0	0	255	0	0	0	0	255	0	0	0	0	255			1	0	0	xxx	xxx	0	0	1
Menel Fea	3	0	1	1	105	115	0	2	100	0	55	0	83	50	17000	413917	dre	dre	7		dr4	dr4	dr4	xxx	xxx	0	0	2	2	1	3	1	flpdr4	invdr4									0	0	0	0	0	pelt		item_helm	12	item_helm	0	0	5	0	0	0	0	0	3	0	0	0			0	1	0	0	0	0	255	0	0	0	0	255	0	0	0	0	255	0	0	0	0	255	0	0	0	0	255	0	0	0	0	255	0	0	0	0	255	0	0	0	0	255	0	0	0	0	255	0	0	255	0	0	0	0	0	0	255	0	0	0	0	255	0	0	0	0	255	0	0	0	0	255	0	0	0	0	255	0	0	0	0	255	0	0	0	0	255			1	0	0	xxx	xxx	0	0	1
Lor Fea	3	0	1	1	115	125	0	3	110	0	65	0	89	53	19000	413918	drf	drf	7		dr1	dr1	dr5	xxx	xxx	0	0	2	2	1	3	1	flpdr1	invdr5									0	0	0	0	0	pelt		item_helm	12	item_helm	0	0	5	0	0	0	0	0	3	0	0	0			0	1	0	0	0	0	255	0	0	0	0	255	0	0	0	0	255	0	0	0	0	255	0	0	0	0	255	0	0	0	0	255	0	0	0	0	255	0	0	0	0	255	0	0	0	0	255	0	0	255	0	0	0	0	0	0	255	0	0	0	0	255	0	0	0	0	255	0	0	0	0	255	0	0	0	0	255	0	0	0	0	255	0	0	0	0	255			1	0	0	xxx	xxx	0	0	1
Leader's Helm	3	0	1	1	90	100	0	0	90	0	55	0	62	37	11000	413918	bab	bab	7		ba1	dr1	ba1	xxx	xxx	0	0	2	2	1	3	1	flpba1	invba1									0	0	0	0	0	phlm		item_helm	12	item_helm	0	0	5	0	0	0	0	0	3	0	0	0			0	1	0	0	0	0	255	0	0	0	0	255	0	0	0	0	255	0	0	0	0	255	0	0	0	0	255	0	0	0	0	255	0	0	0	0	255	0	0	0	0	255	0	0	0	0	255	0	0	255	0	0	0	0	0	0	255	0	0	0	0	255	0	0	0	0	255	0	0	0	0	255	0	0	0	0	255	0	0	0	0	255	0	0	0	0	255			5	0	0	xxx	xxx	0	0	1
Knight's Visor	3	0	1	1	100	110	0	0	100	0	60	0	69	41	13000	413919	bac	bac	7		ba1	bhm	ba2	xxx	xxx	0	0	2	2	1	3	1	flpba1	invba2									0	0	0	0	0	phlm		item_helm	12	item_helm	0	0	5	0	0	0	0	0	3	0	0	0			0	1	0	0	0	0	255	0	0	0	0	255	0	0	0	0	255	0	0	0	0	255	0	0	0	0	255	0	0	0	0	255	0	0	0	0	255	0	0	0	0	255	0	0	0	0	255	0	0	255	0	0	0	0	0	0	255	0	0	0	0	255	0	0	0	0	255	0	0	0	0	255	0	0	0	0	255	0	0	0	0	255	0	0	0	0	255			5	0	0	xxx	xxx	0	0	1
Chieftain's Helm	3	0	1	1	110	120	0	1	110	0	65	0	76	46	15000	413920	bad	bad	7		ba5	bhm	ba3	xxx	xxx	0	0	2	2	1	3	1	flpba5	invba3	invba4								0	0	0	0	0	phlm		item_helm	12	item_helm	0	0	5	0	0	0	0	0	3	0	0	0			0	3	0	0	0	0	255	0	0	0	0	255	0	0	0	0	255	0	0	0	0	255	0	0	0	0	255	0	0	0	0	255	0	0	0	0	255	0	0	0	0	255	0	0	0	0	255	0	0	255	0	0	0	0	0	0	255	0	0	0	0	255	0	0	0	0	255	0	0	0	0	255	0	0	0	0	255	0	0	0	0	255	0	0	0	0	255			5	0	0	xxx	xxx	0	0	1
Lord's Crown	3	0	1	1	120	125	0	2	120	0	70	0	83	50	17000	413921	bae	bae	7		ba5	bhm	ba4	xxx	xxx	0	0	2	2	1	3	1	flpba5	invba4									0	0	0	0	0	phlm		item_helm	12	item_helm	0	0	5	0	0	0	0	0	3	0	0	0			0	3	0	0	0	0	255	0	0	0	0	255	0	0	0	0	255	0	0	0	0	255	0	0	0	0	255	0	0	0	0	255	0	0	0	0	255	0	0	0	0	255	0	0	0	0	255	0	0	255	0	0	0	0	0	0	255	0	0	0	0	255	0	0	0	0	255	0	0	0	0	255	0	0	0	0	255	0	0	0	0	255	0	0	0	0	255			5	0	0	xxx	xxx	0	0	1
Ruler's Crown	3	0	1	1	125	130	0	3	130	0	75	0	89	53	19000	413922	baf	baf	7		ba5	bhm	ba5	xxx	xxx	0	0	2	2	1	3	1	flpba5	invba5									0	0	0	0	0	phlm		item_helm	12	item_helm	0	0	5	0	0	0	0	0	3	0	0	0			0	3	0	0	0	0	255	0	0	0	0	255	0	0	0	0	255	0	0	0	0	255	0	0	0	0	255	0	0	0	0	255	0	0	0	0	255	0	0	0	0	255	0	0	0	0	255	0	0	255	0	0	0	0	0	0	255	0	0	0	0	255	0	0	0	0	255	0	0	0	0	255	0	0	0	0	255	0	0	0	0	255	0	0	0	0	255			5	0	0	xxx	xxx	0	0	1
Guard of Sorontil	4	0	1	1	105	115	0	1	100	24	80	0	63	38	15000	82065	pab	pab	7	304	pa1	spk	pa1	xxx	xxx	0	7	2	2	1	4	2	flppa1	invpa1									0	0	0	0	0	ashd		item_metalshield	12	item_metalshield	0	0	5	0	1	0	0	0	1	0	12	27	100		0	3	0	0	0	0	255	0	0	0	0	255	0	0	0	0	255	0	0	0	0	255	0	0	0	0	255	0	0	0	0	255	0	0	0	0	255	0	0	0	0	255	0	0	0	0	255	0	0	255	0	0	0	0	0	0	255	0	0	0	0	255	0	0	0	0	255	0	0	0	0	255	0	0	0	0	255	0	0	0	0	255	0	0	0	0	255			0	0	0	xxx	xxx	0	0	1
Guard of Rommena	4	0	1	1	115	130	0	2	120	26	100	0	70	42	17500	82066	pac	pac	7	304	pa1	spk	pa2	xxx	xxx	0	7	2	2	1	4	2	flppa1	invpa2									0	0	0	0	0	ashd		item_metalshield	12	item_metalshield	0	0	5	0	2	0	0	0	1	0	14	29	100		0	3	0	0	0	0	255	0	0	0	0	255	0	0	0	0	255	0	0	0	0	255	0	0	0	0	255	0	0	0	0	255	0	0	0	0	255	0	0	0	0	255	0	0	0	0	255	0	0	255	0	0	0	0	0	0	255	0	0	0	0	255	0	0	0	0	255	0	0	0	0	255	0	0	0	0	255	0	0	0	0	255	0	0	0	0	255			0	0	0	xxx	xxx	0	0	1
Guard of Andunie	4	0	1	1	130	150	0	4	140	28	120	0	77	46	20000	82067	pad	pad	7	304	pa5	spk	pa3	xxx	xxx	0	7	2	2	1	4	2	flppa5	invpa5									0	0	0	0	0	ashd		item_metalshield	12	item_metalshield	0	0	5	0	3	0	0	0	1	0	16	31	100		0	3	0	0	0	0	255	0	0	0	0	255	0	0	0	0	255	0	0	0	0	255	0	0	0	0	255	0	0	0	0	255	0	0	0	0	255	0	0	0	0	255	0	0	0	0	255	0	0	255	0	0	0	0	0	0	255	0	0	0	0	255	0	0	0	0	255	0	0	0	0	255	0	0	0	0	255	0	0	0	0	255	0	0	0	0	255			0	0	0	xxx	xxx	0	0	1
Guard of Eldalonde	4	0	1	1	150	170	0	6	165	30	130	0	84	50	22500	82068	pae	pae	7	304	pa3	spk	pa4	xxx	xxx	0	7	2	4	1	4	2	flppa3	invpa3									0	0	0	0	0	ashd		item_metalshield	12	item_metalshield	0	0	5	0	4	0	0	0	1	0	18	33	100		0	3	0	0	0	0	255	0	0	0	0	255	0	0	0	0	255	0	0	0	0	255	0	0	0	0	255	0	0	0	0	255	0	0	0	0	255	0	0	0	0	255	0	0	0	0	255	0	0	255	0	0	0	0	0	0	255	0	0	0	0	255	0	0	0	0	255	0	0	0	0	255	0	0	0	0	255	0	0	0	0	255	0	0	0	0	255			0	0	0	xxx	xxx	0	0	1
Guard of Armenelos	4	0	1	1	170	200	0	8	200	32	150	0	90	54	25000	82069	paf	paf	7	304	pa3	spk	pa5	xxx	xxx	0	7	2	4	1	4	2	flppa3	invpa4									0	0	0	0	0	ashd		item_metalshield	12	item_metalshield	0	0	5	0	5	0	0	0	1	0	20	35	100		0	3	0	0	0	0	255	0	0	0	0	255	0	0	0	0	255	0	0	0	0	255	0	0	0	0	255	0	0	0	0	255	0	0	0	0	255	0	0	0	0	255	0	0	0	0	255	0	0	255	0	0	0	0	0	0	255	0	0	0	0	255	0	0	0	0	255	0	0	0	0	255	0	0	0	0	255	0	0	0	0	255	0	0	0	0	255			0	0	0	xxx	xxx	0	0	1
Goblin King Skull	3	0	1	1	70	90	0	0	70	8	40	0	62	37	15000	82069	neb	neb	7	305	ne1	dr1	ne1	xxx	xxx	0	10	2	2	1	3	2	flpne1	invne1									0	0	0	0	0	head		item_head	12	item_head	0	0	5	0	0	0	0	0	3	0	0	0			0	1	0	0	0	0	255	0	0	0	0	255	0	0	0	0	255	0	0	0	0	255	0	0	0	0	255	0	0	0	0	255	0	0	0	0	255	0	0	0	0	255	0	0	0	0	255	0	0	255	0	0	0	0	0	0	255	0	0	0	0	255	0	0	0	0	255	0	0	0	0	255	0	0	0	0	255	0	0	0	0	255	0	0	0	0	255			1	0	0	xxx	xxx	0	0	1
Troll Warrior Skull	3	0	1	1	90	110	0	1	80	10	50	0	69	41	17500	82070	nec	neg	7	305	ne2	bhm	ne2	xxx	xxx	0	10	2	2	1	3	2	flpne2	invne2									0	0	0	0	0	head		item_head	12	item_head	0	0	5	0	0	0	0	0	3	0	0	0			0	1	0	0	0	0	255	0	0	0	0	255	0	0	0	0	255	0	0	0	0	255	0	0	0	0	255	0	0	0	0	255	0	0	0	0	255	0	0	0	0	255	0	0	0	0	255	0	0	255	0	0	0	0	0	0	255	0	0	0	0	255	0	0	0	0	255	0	0	0	0	255	0	0	0	0	255	0	0	0	0	255	0	0	0	0	255			1	0	0	xxx	xxx	0	0	1
Troll Leader Skull	3	0	1	1	110	130	0	2	90	14	60	0	76	46	20000	82071	ned	ned	7	305	ne3	bhm	ne3	xxx	xxx	0	10	2	2	1	3	2	flpne3	invne3									0	0	0	0	0	head		item_head	12	item_head	0	0	5	0	0	0	0	0	3	0	0	0			0	1	0	0	0	0	255	0	0	0	0	255	0	0	0	0	255	0	0	0	0	255	0	0	0	0	255	0	0	0	0	255	0	0	0	0	255	0	0	0	0	255	0	0	0	0	255	0	0	255	0	0	0	0	0	0	255	0	0	0	0	255	0	0	0	0	255	0	0	0	0	255	0	0	0	0	255	0	0	0	0	255	0	0	0	0	255			1	0	0	xxx	xxx	0	0	1
Vampire Skull	3	0	1	1	130	150	0	3	100	17	70	0	83	50	22500	82072	nee	nee	7	305	ne3	bhm	ne4	xxx	xxx	0	10	2	2	1	3	2	flpne3	invne4									0	0	0	0	0	head		item_head	12	item_head	0	0	5	0	0	0	0	0	3	0	0	0			0	1	0	0	0	0	255	0	0	0	0	255	0	0	0	0	255	0	0	0	0	255	0	0	0	0	255	0	0	0	0	255	0	0	0	0	255	0	0	0	0	255	0	0	0	0	255	0	0	255	0	0	0	0	0	0	255	0	0	0	0	255	0	0	0	0	255	0	0	0	0	255	0	0	0	0	255	0	0	0	0	255	0	0	0	0	255			1	0	0	xxx	xxx	0	0	1
Drake Skull	3	0	1	1	140	160	0	4	110	20	80	0	89	53	25000	82073	nef	nef	7	305	ne2	bhm	ne5	xxx	xxx	0	10	2	2	1	3	2	flpne2	invne5									0	0	0	0	0	head		item_head	12	item_head	0	0	5	0	0	0	0	0	3	0	0	0			0	1	0	0	0	0	255	0	0	0	0	255	0	0	0	0	255	0	0	0	0	255	0	0	0	0	255	0	0	0	0	255	0	0	0	0	255	0	0	0	0	255	0	0	0	0	255	0	0	255	0	0	0	0	0	0	255	0	0	0	0	255	0	0	0	0	255	0	0	0	0	255	0	0	0	0	255	0	0	0	0	255	0	0	0	0	255			1	0	0	xxx	xxx	0	0	1
