Hireling	SubType	Version	Id	Class	Act	Difficulty	Level	Seller	NameFirst	NameLast	Gold	Exp/Lvl	HP	HP/Lvl	Defense	Def/Lvl	Str	Str/Lvl	Dex	Dex/Lvl	AR	AR/Lvl	Share	Dmg-Min	Dmg-Max	Dmg/Lvl	Resist	Resist/Lvl	WType1	WType2	HireDesc	DefaultChance	Skill1	Mode1	Chance1	ChancePerLvl1	Level1	LvlPerLvl1	Skill2	Mode2	Chance2	ChancePerLvl2	Level2	LvlPerLvl2	Skill3	Mode3	Chance3	ChancePerLvl3	Level3	LvlPerLvl3	Skill4	Mode4	Chance4	ChancePerLvl4	Level4	LvlPerLvl4	Skill5	Mode5	Chance5	ChancePerLvl5	Level5	LvlPerLvl5	Skill6	Mode6	Chance6	ChancePerLvl6	Level6	LvlPerLvl6	Head	Torso	Weapon	Shield
Rogue Scout	Fire - Normal	0	0	271	1	1	3	150	merc01	merc41	75	54	45	6	26	8	35	10	45	16	0	0		2	2	1	25	7	bow		farw	75	Inner Sight	4	10	0	1	10	Fire Arrow	4	25	2	1	10																									2	1	2	0
Rogue Scout	Fire - Normal	0	0	271	1	1	25	150	merc01	merc41	75	54	145	6	126	8	63	10	89	16	0	0	1	5	7	2	60	7	bow		farw	75	Inner Sight	4	10	0	7	10	Fire Arrow	4	69	0	7	10																									2	1	2	0
Rogue Scout	Fire - Normal	0	0	271	1	1	49	150	merc01	merc41	75	54	253	6	248	8	93	10	137	16	0	0	2	11	17	2	100	7	bow		farw	75	Inner Sight	4	10	0	14	10	Fire Arrow	4	69	0	14	10																									2	1	2	0
Rogue Scout	Ice - Normal	0	1	271	1	1	3	150	merc01	merc41	100	56	45	6	26	8	35	10	45	16	0	0		2	2	1	25	7	bow		carw	75	Inner Sight	4	10	0	1	10	Cold Arrow	4	25	2	1	10																									2	1	2	0
Rogue Scout	Ice - Normal	0	1	271	1	1	25	150	merc01	merc41	100	56	145	6	126	8	63	10	89	16	0	0	1	5	7	2	60	7	bow		carw	75	Inner Sight	4	10	0	7	10	Cold Arrow	4	69	0	7	10																									2	1	2	0
Rogue Scout	Ice - Normal	0	1	271	1	1	49	150	merc01	merc41	100	56	253	6	248	8	93	10	137	16	0	0	2	11	17	2	100	7	bow		carw	75	Inner Sight	4	10	0	14	10	Cold Arrow	4	69	0	14	10																									2	1	2	0
Rogue Scout	Fire - Nightmare	0	2	271	1	2	25	150	merc01	merc41	4000	60	133	6	170	8	60	10	84	16	0	0	1	6	9	1	60	7	bow		farw	75	Inner Sight	4	10	0	6	10	Fire Arrow	4	69	0	6	10																									2	1	2	0
Rogue Scout	Fire - Nightmare	0	2	271	1	2	49	150	merc01	merc41	4000	60	245	6	298	8	90	10	132	16	0	0	2	11	17	2	100	7	bow		farw	75	Inner Sight	4	10	0	13	10	Fire Arrow	4	69	0	13	10																									2	1	2	0
Rogue Scout	Ice - Nightmare	0	3	271	1	2	25	150	merc01	merc41	4500	62	133	6	170	8	60	10	84	16	0	0	1	6	9	2	60	7	bow		carw	75	Inner Sight	4	10	0	6	10	Cold Arrow	4	69	0	6	10																									2	1	2	0
Rogue Scout	Ice - Nightmare	0	3	271	1	2	49	150	merc01	merc41	4500	62	245	6	298	8	90	10	132	16	0	0	2	11	17	2	100	7	bow		carw	75	Inner Sight	4	10	0	13	10	Cold Arrow	4	69	0	13	10																									2	1	2	0
Rogue Scout	Fire - Hell	0	4	271	1	3	49	150	merc01	merc41	8000	65	274	6	319	8	87	10	127	16	0	0	2	12	19	2	100	7	bow		farw	75	Inner Sight	4	10	0	12	10	Fire Arrow	4	69	0	12	10																									2	1	2	0
Rogue Scout	Ice - Hell	0	5	271	1	3	49	150	merc01	merc41	9000	67	274	6	319	8	87	10	127	16	0	0	2	12	19	2	100	7	bow		carw	75	Inner Sight	4	10	0	12	10	Cold Arrow	4	69	0	12	10																									2	1	2	0
Rogue Scout	Fire - Normal	100	0	271	1	1	3	150	merc01	merc41	75	54	45	6	26	8	35	10	45	16	0	0		2	2	1	25	7	bow		farw	75	Inner Sight	4	10	0	1	10	Fire Arrow	4	25	2	1	10																									2	1	2	0
Rogue Scout	Fire - Normal	100	0	271	1	1	25	150	merc01	merc41	75	54	145	6	126	8	63	10	89	16	0	0	1	5	7	2	60	7	bow		farw	75	Inner Sight	4	10	0	7	10	Fire Arrow	4	69	0	7	10																									2	1	2	0
Rogue Scout	Fire - Normal	100	0	271	1	1	49	150	merc01	merc41	75	54	253	6	248	8	93	10	137	16	0	0	2	11	17	2	100	7	bow		farw	75	Inner Sight	4	10	0	14	10	Fire Arrow	4	69	0	14	10																									2	1	2	0
Rogue Scout	Ice - Normal	100	1	271	1	1	3	150	merc01	merc41	100	56	45	6	26	8	35	10	45	16	0	0		2	2	1	25	7	bow		carw	75	Inner Sight	4	10	0	1	10	Cold Arrow	4	25	2	1	10																									2	1	2	0
Rogue Scout	Ice - Normal	100	1	271	1	1	25	150	merc01	merc41	100	56	145	6	126	8	63	10	89	16	0	0	1	5	7	2	60	7	bow		carw	75	Inner Sight	4	10	0	7	10	Cold Arrow	4	69	0	7	10																									2	1	2	0
Rogue Scout	Ice - Normal	100	1	271	1	1	49	150	merc01	merc41	100	56	253	6	248	8	93	10	137	16	0	0	2	11	17	2	100	7	bow		carw	75	Inner Sight	4	10	0	14	10	Cold Arrow	4	69	0	14	10																									2	1	2	0
Rogue Scout	Fire - Nightmare	100	2	271	1	2	25	150	merc01	merc41	4000	60	133	6	170	8	60	10	84	16	0	0	1	6	9	1	60	7	bow		farw	75	Inner Sight	4	10	0	6	10	Fire Arrow	4	69	0	6	10																									2	1	2	0
Rogue Scout	Fire - Nightmare	100	2	271	1	2	49	150	merc01	merc41	4000	60	245	6	298	8	90	10	132	16	0	0	2	11	17	2	100	7	bow		farw	75	Inner Sight	4	10	0	13	10	Fire Arrow	4	69	0	13	10																									2	1	2	0
Rogue Scout	Ice - Nightmare	100	3	271	1	2	25	150	merc01	merc41	4500	62	133	6	170	8	60	10	84	16	0	0	1	6	9	2	60	7	bow		carw	75	Inner Sight	4	10	0	6	10	Cold Arrow	4	69	0	6	10																									2	1	2	0
Rogue Scout	Ice - Nightmare	100	3	271	1	2	49	150	merc01	merc41	4500	62	245	6	298	8	90	10	132	16	0	0	2	11	17	2	100	7	bow		carw	75	Inner Sight	4	10	0	13	10	Cold Arrow	4	69	0	13	10																									2	1	2	0
Rogue Scout	Fire - Hell	100	4	271	1	3	49	150	merc01	merc41	8000	65	274	6	319	8	87	10	127	16	0	0	2	12	19	2	100	7	bow		farw	75	Inner Sight	4	10	0	12	10	Fire Arrow	4	69	0	12	10																									2	1	2	0
Rogue Scout	Ice - Hell	100	5	271	1	3	49	150	merc01	merc41	9000	67	274	6	319	8	87	10	127	16	0	0	2	12	19	2	100	7	bow		carw	75	Inner Sight	4	10	0	12	10	Cold Arrow	4	69	0	12	10																									2	1	2	0
Desert Mercenary	Comb-Normal	0	6	338	2	1	9	198	merca201	merca221	250	60	88	7	38	10	57	14	40	12	13	3	1	2	6	2	33	7	pole	spea	comb	100	Jab	14	0	0	3	10	Prayer	1	10	0	3	10																									2	2	2	0
Desert Mercenary	Comb-Normal	0	6	338	2	1	31	198	merca201	merca221	250	60	211	7	206	10	96	14	73	12	71	5	3	7	10	2	67	7	pole	spea	comb	100	Jab	14	0	0	10	10	Prayer	1	10	0	10	10																									2	2	2	0
Desert Mercenary	Comb-Normal	0	6	338	2	1	55	198	merca201	merca221	250	60	346	7	390	10	138	14	109	12	198	7	4	16	19	3	113	7	pole	spea	comb	100	Jab	14	0	0	17	0	Prayer	1	10	0	18	0																									2	2	2	0
Desert Mercenary	Def-Normal	0	7	338	2	1	9	198	merca201	merca221	250	60	88	7	38	10	57	14	40	12	13	3	1	2	6	2	33	7	pole	spea	def	100	Jab	14	0	0	3	10	Defiance	1	10	0	1	5																									2	2	2	0
Desert Mercenary	Def-Normal	0	7	338	2	1	31	198	merca201	merca221	250	60	211	7	206	10	96	14	73	12	71	5	3	7	10	2	67	7	pole	spea	def	100	Jab	14	0	0	10	10	Defiance	1	10	0	5	5																									2	2	2	0
Desert Mercenary	Def-Normal	0	7	338	2	1	55	198	merca201	merca221	250	60	346	7	390	10	138	14	109	12	198	7	4	16	19	3	113	7	pole	spea	def	100	Jab	14	0	0	17	0	Defiance	1	10	0	9	0																									2	2	2	0
Desert Mercenary	Off-Normal	0	8	338	2	1	9	198	merca201	merca221	250	60	88	7	38	10	57	14	40	12	13	3	1	2	6	2	33	7	pole	spea	off	100	Jab	14	0	0	3	10	Blessed Aim	1	10	0	3	10																									2	2	2	0
Desert Mercenary	Off-Normal	0	8	338	2	1	31	198	merca201	merca221	250	60	211	7	206	10	96	14	73	12	71	5	3	7	10	2	67	7	pole	spea	off	100	Jab	14	0	0	10	10	Blessed Aim	1	10	0	10	10																									2	2	2	0
Desert Mercenary	Off-Normal	0	8	338	2	1	55	198	merca201	merca221	250	60	346	7	390	10	138	14	109	12	198	7	4	16	19	3	113	7	pole	spea	off	100	Jab	14	0	0	17	0	Blessed Aim	1	10	0	18	0																									2	2	2	0
Desert Mercenary	Comb-Nightmare	0	9	338	2	2	31	198	merca201	merca221	5000	65	301	7	255	10	92	14	69	12	65	5	3	15	26	2	67	7	pole	spea	comb	100	Jab	14	0	0	9	10	Thorns	1	10	0	7	10																									2	2	2	0
Desert Mercenary	Comb-Nightmare	0	9	338	2	2	55	198	merca201	merca221	5000	65	358	7	341	10	134	14	105	12	198	7	4	20	35	3	113	7	pole	spea	comb	100	Jab	14	0	0	16	0	Thorns	1	10	0	15	0																									2	2	2	0
Desert Mercenary	Def-Nightmare	0	10	338	2	2	31	198	merca201	merca221	5000	65	301	7	255	10	92	14	69	12	198	5	3	15	26	2	67	7	pole	spea	def	100	Jab	14	0	0	9	10	Holy Freeze	1	10	0	7	10																									2	2	2	0
Desert Mercenary	Def-Nightmare	0	10	338	2	2	55	198	merca201	merca221	5000	65	358	7	341	10	134	14	105	12	198	7	4	20	26	3	113	7	pole	spea	def	100	Jab	14	0	0	16	0	Holy Freeze	1	10	0	15	0																									2	2	2	0
Desert Mercenary	Off-Nightmare	0	11	338	2	2	31	198	merca201	merca221	5000	65	301	7	255	10	92	14	69	12	198	5	3	15	26	2	67	7	pole	spea	off	100	Jab	14	0	0	9	10	Might	1	10	0	8	10																									2	2	2	0
Desert Mercenary	Off-Nightmare	0	11	338	2	2	55	198	merca201	merca221	5000	65	358	7	341	10	134	14	105	12	231	7	4	20	35	3	113	7	pole	spea	off	100	Jab	14	0	0	16	0	Might	1	10	0	16	10																									2	2	2	0
Desert Mercenary	Comb-Hell	0	12	338	2	3	55	198	merca201	merca221	12000	71	386	7	362	10	130	14	101	12	264	7	4	20	35	3	113	7	pole	spea	comb	100	Jab	14	0	0	15	0	Prayer	1	10	0	16	0																									2	2	2	0
Desert Mercenary	Def-Hell	0	13	338	2	3	55	198	merca201	merca221	12000	71	386	7	362	10	130	14	101	12	231	7	4	20	35	3	113	7	pole	spea	def	100	Jab	14	0	0	15	0	Defiance	1	10	0	8	0																									2	2	2	0
Desert Mercenary	Off-Hell	0	14	338	2	3	55	198	merca201	merca221	12000	71	386	7	362	10	130	14	101	12	264	7	4	20	35	3	113	7	pole	spea	off	100	Jab	14	0	0	15	0	Blessed Aim	1	10	0	15	0																									2	2	2	0
Desert Mercenary	Comb-Normal	100	6	338	2	1	9	198	merca201	merca221	250	60	88	7	38	10	57	14	40	12	13	3	1	2	6	2	33	7	pole	spea	comb	100	Jab	14	0	0	3	10	Prayer	1	10	0	3	10																									2	2	2	0
Desert Mercenary	Comb-Normal	100	6	338	2	1	31	198	merca201	merca221	250	60	211	7	206	10	96	14	73	12	71	5	3	7	10	2	67	7	pole	spea	comb	100	Jab	14	0	0	10	10	Prayer	1	10	0	10	10																									2	2	2	0
Desert Mercenary	Comb-Normal	100	6	338	2	1	55	198	merca201	merca221	250	60	346	7	390	10	138	14	109	12	198	7	4	16	19	3	113	7	pole	spea	comb	100	Jab	14	0	0	17	0	Prayer	1	10	0	18	0																									2	2	2	0
Desert Mercenary	Def-Normal	100	7	338	2	1	9	198	merca201	merca221	250	60	88	7	38	10	57	14	40	12	13	3	1	2	6	2	33	7	pole	spea	def	100	Jab	14	0	0	3	10	Defiance	1	10	0	1	5																									2	2	2	0
Desert Mercenary	Def-Normal	100	7	338	2	1	31	198	merca201	merca221	250	60	211	7	206	10	96	14	73	12	71	5	3	7	10	2	67	7	pole	spea	def	100	Jab	14	0	0	10	10	Defiance	1	10	0	5	5																									2	2	2	0
Desert Mercenary	Def-Normal	100	7	338	2	1	55	198	merca201	merca221	250	60	346	7	390	10	138	14	109	12	198	7	4	16	19	3	113	7	pole	spea	def	100	Jab	14	0	0	17	0	Defiance	1	10	0	9	0																									2	2	2	0
Desert Mercenary	Off-Normal	100	8	338	2	1	9	198	merca201	merca221	250	60	88	7	38	10	57	14	40	12	13	3	1	2	6	2	33	7	pole	spea	off	100	Jab	14	0	0	3	10	Blessed Aim	1	10	0	3	10																									2	2	2	0
Desert Mercenary	Off-Normal	100	8	338	2	1	31	198	merca201	merca221	250	60	211	7	206	10	96	14	73	12	71	5	3	7	10	2	67	7	pole	spea	off	100	Jab	14	0	0	10	10	Blessed Aim	1	10	0	10	10																									2	2	2	0
Desert Mercenary	Off-Normal	100	8	338	2	1	55	198	merca201	merca221	250	60	346	7	390	10	138	14	109	12	198	7	4	16	19	3	113	7	pole	spea	off	100	Jab	14	0	0	17	0	Blessed Aim	1	10	0	18	0																									2	2	2	0
Desert Mercenary	Comb-Nightmare	100	9	338	2	2	31	198	merca201	merca221	5000	65	301	7	255	10	92	14	69	12	65	5	3	15	26	2	67	7	pole	spea	comb	100	Jab	14	0	0	9	10	Thorns	1	10	0	7	10																									2	2	2	0
Desert Mercenary	Comb-Nightmare	100	9	338	2	2	55	198	merca201	merca221	5000	65	358	7	341	10	134	14	105	12	198	7	4	20	35	3	113	7	pole	spea	comb	100	Jab	14	0	0	16	0	Thorns	1	10	0	15	0																									2	2	2	0
Desert Mercenary	Def-Nightmare	100	10	338	2	2	31	198	merca201	merca221	5000	65	301	7	255	10	92	14	69	12	198	5	3	15	26	2	67	7	pole	spea	def	100	Jab	14	0	0	9	10	Holy Freeze	1	10	0	7	10																									2	2	2	0
Desert Mercenary	Def-Nightmare	100	10	338	2	2	55	198	merca201	merca221	5000	65	358	7	341	10	134	14	105	12	198	7	4	20	26	3	113	7	pole	spea	def	100	Jab	14	0	0	16	0	Holy Freeze	1	10	0	15	0																									2	2	2	0
Desert Mercenary	Off-Nightmare	100	11	338	2	2	31	198	merca201	merca221	5000	65	301	7	255	10	92	14	69	12	198	5	3	15	26	2	67	7	pole	spea	off	100	Jab	14	0	0	9	10	Might	1	10	0	8	10																									2	2	2	0
Desert Mercenary	Off-Nightmare	100	11	338	2	2	55	198	merca201	merca221	5000	65	358	7	341	10	134	14	105	12	231	7	4	20	35	3	113	7	pole	spea	off	100	Jab	14	0	0	16	0	Might	1	10	0	16	10																									2	2	2	0
Desert Mercenary	Comb-Hell	100	12	338	2	3	55	198	merca201	merca221	12000	71	386	7	362	10	130	14	101	12	264	7	4	20	35	3	113	7	pole	spea	comb	100	Jab	14	0	0	15	0	Prayer	1	10	0	16	0																									2	2	2	0
Desert Mercenary	Def-Hell	100	13	338	2	3	55	198	merca201	merca221	12000	71	386	7	362	10	130	14	101	12	231	7	4	20	35	3	113	7	pole	spea	def	100	Jab	14	0	0	15	0	Defiance	1	10	0	8	0																									2	2	2	0
Desert Mercenary	Off-Hell	100	14	338	2	3	55	198	merca201	merca221	12000	71	386	7	362	10	130	14	101	12	264	7	4	20	35	3	113	7	pole	spea	off	100	Jab	14	0	0	15	0	Blessed Aim	1	10	0	15	0																									2	2	2	0
Eastern Sorceror	Fire-Normal	0	15	359	3	1	15	252	merca222	merca241	750	60	110	5	68	6	49	10	40	8	0	0		1	3	3	42	7	swor	shie	fire	10	Inferno	7	60	0	6	10	Fire Ball	7	30	0	4	10																									2	2	2	1
Eastern Sorceror	Fire-Normal	0	15	359	3	1	37	252	merca222	merca241	750	60	185	5	142	6	77	10	62	8	0	0	3	6	9	3	74	7	swor	shie	fire	10	Inferno	7	60	0	13	10	Fire Ball	7	30	0	11	10																									2	2	2	1
Eastern Sorceror	Fire-Normal	0	15	359	3	1	61	252	merca222	merca241	750	60	266	5	225	6	107	10	86	8	0	0	5	11	14	3	126	7	swor	shie	fire	10	Inferno	7	60	0	20	0	Fire Ball	7	30	0	18	10																									2	2	2	1
Eastern Sorceror	Cold-Normal	0	16	359	3	1	15	252	merca222	merca241	750	65	110	5	68	6	49	10	40	8	0	0		1	3	3	42	7	swor	shie	cold	10	Glacial Spike	7	60	0	1	5	Frozen Armor	7	1000	0	2	10	Ice Blast	7	240	0	6	10																			2	2	2	1
Eastern Sorceror	Cold-Normal	0	16	359	3	1	37	252	merca222	merca241	750	65	185	5	142	6	77	10	62	8	0	0	3	6	9	3	74	7	swor	shie	cold	10	Glacial Spike	7	60	0	5	5	Frozen Armor	7	1000	0	9	10	Ice Blast	7	240	0	13	10																			2	2	2	1
Eastern Sorceror	Cold-Normal	0	16	359	3	1	61	252	merca222	merca241	750	65	266	5	225	6	107	10	86	8	0	0	5	11	14	3	126	7	swor	shie	cold	10	Glacial Spike	7	60	0	9	0	Frozen Armor	7	1000	0	16	0	Ice Blast	7	240	0	20	0																			2	2	2	1
Eastern Sorceror	Ltng-Normal	0	17	359	3	1	15	252	merca222	merca241	750	60	110	5	68	6	49	10	40	8	0	0		1	3	3	42	7	swor	shie	ltng	10	Charged Bolt	7	60	0	4	5	Lightning	7	30	0	3	10																									2	2	2	1
Eastern Sorceror	Ltng-Normal	0	17	359	3	1	37	252	merca222	merca241	750	60	185	5	142	6	77	10	62	8	0	0	3	6	9	3	74	7	swor	shie	ltng	10	Charged Bolt	7	60	0	8	5	Lightning	7	30	0	10	10																									2	2	2	1
Eastern Sorceror	Ltng-Normal	0	17	359	3	1	61	252	merca222	merca241	750	60	266	5	225	6	107	10	86	8	0	0	5	11	14	3	126	7	swor	shie	ltng	10	Charged Bolt	7	60	0	12	0	Lightning	7	30	0	17	10																									2	2	2	1
Eastern Sorceror	Fire-Nightmare	0	18	359	3	2	37	252	merca222	merca241	5500	65	245	6	255	6	73	10	58	8	0	0	3	14	22	3	74	7	swor	shie	fire	10	Inferno	7	60	0	12	10	Fire Ball	7	30	0	10	10																									2	2	2	1
Eastern Sorceror	Fire-Nightmare	0	18	359	3	2	61	252	merca222	merca241	5500	65	301	6	341	6	103	10	82	8	0	0	5	19	29	3	126	7	swor	shie	fire	10	Inferno	7	60	0	19	0	Fire Ball	7	30	0	17	10																									2	2	2	1
Eastern Sorceror	Cold-Nightmare	0	19	359	3	2	37	252	merca222	merca241	8000	71	245	6	255	6	73	10	58	8	0	0	3	14	22	3	74	7	swor	shie	cold	10	Glacial Spike	7	60	0	4	5	Frozen Armor	7	1000	0	8	10	Ice Blast	7	240	0	12	10																			2	2	2	1
Eastern Sorceror	Cold-Nightmare	0	19	359	3	2	61	252	merca222	merca241	8000	71	301	6	341	6	103	10	82	8	0	0	5	19	29	3	126	7	swor	shie	cold	10	Glacial Spike	7	60	0	8	0	Frozen Armor	7	1000	0	15	0	Ice Blast	7	240	0	19	0																			2	2	2	1
Eastern Sorceror	Ltng-Nightmare	0	20	359	3	2	37	252	merca222	merca241	6000	65	245	6	255	6	73	10	58	8	0	0	3	14	22	3	74	7	swor	shie	ltng	10	Charged Bolt	7	60	0	7	5	Lightning	7	30	0	9	10																									2	2	2	1
Eastern Sorceror	Ltng-Nightmare	0	20	359	3	2	61	252	merca222	merca241	6000	65	301	6	341	6	103	10	82	8	0	0	5	19	29	3	126	7	swor	shie	ltng	10	Charged Bolt	7	60	0	11	0	Lightning	7	30	0	16	10																									2	2	2	1
Eastern Sorceror	Fire-Hell	0	21	359	3	3	61	252	merca222	merca241	15000	71	330	6	341	6	99	10	78	8	0	0	5	19	29	3	126	7	swor	shie	fire	10	Inferno	7	60	0	18	0	Fire Ball	7	30	0	16	0																									2	2	2	1
Eastern Sorceror	Cold-Hell	0	22	359	3	3	61	252	merca222	merca241	17000	76	330	6	341	6	99	10	78	8	0	0	5	19	29	3	126	7	swor	shie	cold	10	Glacial Spike	7	60	0	7	0	Frozen Armor	7	1000	0	15	0	Ice Blast	7	240	0	18	0																			2	2	2	1
Eastern Sorceror	Ltng-Hell	0	23	359	3	3	61	252	merca222	merca241	15000	71	330	6	341	6	99	10	78	8	0	0	5	19	29	3	126	7	swor	shie	ltng	10	Charged Bolt	7	60	0	10	0	Lightning	7	30	0	15	10																									2	2	2	1
Eastern Sorceror	Fire-Normal	100	15	359	3	1	15	252	merca222	merca241	750	60	110	5	68	6	49	10	40	8	0	0		1	3	3	42	7	swor	shie	fire	10	Inferno	7	60	0	6	10	Fire Ball	7	30	0	4	10																									2	2	2	1
Eastern Sorceror	Fire-Normal	100	15	359	3	1	37	252	merca222	merca241	750	60	185	5	142	6	77	10	62	8	0	0	3	6	9	3	74	7	swor	shie	fire	10	Inferno	7	60	0	13	10	Fire Ball	7	30	0	11	10																									2	2	2	1
Eastern Sorceror	Fire-Normal	100	15	359	3	1	61	252	merca222	merca241	750	60	266	5	225	6	107	10	86	8	0	0	5	11	14	3	126	7	swor	shie	fire	10	Inferno	7	60	0	20	0	Fire Ball	7	30	0	18	10																									2	2	2	1
Eastern Sorceror	Cold-Normal	100	16	359	3	1	15	252	merca222	merca241	750	65	110	5	68	6	49	10	40	8	0	0		1	3	3	42	7	swor	shie	cold	10	Glacial Spike	7	60	0	1	5	Frozen Armor	7	1000	0	2	10	Ice Blast	7	240	0	6	10																			2	2	2	1
Eastern Sorceror	Cold-Normal	100	16	359	3	1	37	252	merca222	merca241	750	65	185	5	142	6	77	10	62	8	0	0	3	6	9	3	74	7	swor	shie	cold	10	Glacial Spike	7	60	0	5	5	Frozen Armor	7	1000	0	9	10	Ice Blast	7	240	0	13	10																			2	2	2	1
Eastern Sorceror	Cold-Normal	100	16	359	3	1	61	252	merca222	merca241	750	65	266	5	225	6	107	10	86	8	0	0	5	11	14	3	126	7	swor	shie	cold	10	Glacial Spike	7	60	0	9	0	Frozen Armor	7	1000	0	16	0	Ice Blast	7	240	0	20	0																			2	2	2	1
Eastern Sorceror	Ltng-Normal	100	17	359	3	1	15	252	merca222	merca241	750	60	110	5	68	6	49	10	40	8	0	0		1	3	3	42	7	swor	shie	ltng	10	Charged Bolt	7	60	0	4	5	Lightning	7	30	0	3	10																									2	2	2	1
Eastern Sorceror	Ltng-Normal	100	17	359	3	1	37	252	merca222	merca241	750	60	185	5	142	6	77	10	62	8	0	0	3	6	9	3	74	7	swor	shie	ltng	10	Charged Bolt	7	60	0	8	5	Lightning	7	30	0	10	10																									2	2	2	1
Eastern Sorceror	Ltng-Normal	100	17	359	3	1	61	252	merca222	merca241	750	60	266	5	225	6	107	10	86	8	0	0	5	11	14	3	126	7	swor	shie	ltng	10	Charged Bolt	7	60	0	12	0	Lightning	7	30	0	17	10																									2	2	2	1
Eastern Sorceror	Fire-Nightmare	100	18	359	3	2	37	252	merca222	merca241	5500	65	245	6	255	6	73	10	58	8	0	0	3	14	22	3	74	7	swor	shie	fire	10	Inferno	7	60	0	12	10	Fire Ball	7	30	0	10	10																									2	2	2	1
Eastern Sorceror	Fire-Nightmare	100	18	359	3	2	61	252	merca222	merca241	5500	65	301	6	341	6	103	10	82	8	0	0	5	19	29	3	126	7	swor	shie	fire	10	Inferno	7	60	0	19	0	Fire Ball	7	30	0	17	10																									2	2	2	1
Eastern Sorceror	Cold-Nightmare	100	19	359	3	2	37	252	merca222	merca241	8000	71	245	6	255	6	73	10	58	8	0	0	3	14	22	3	74	7	swor	shie	cold	10	Glacial Spike	7	60	0	4	5	Frozen Armor	7	1000	0	8	10	Ice Blast	7	240	0	12	10																			2	2	2	1
Eastern Sorceror	Cold-Nightmare	100	19	359	3	2	61	252	merca222	merca241	8000	71	301	6	341	6	103	10	82	8	0	0	5	19	29	3	126	7	swor	shie	cold	10	Glacial Spike	7	60	0	8	0	Frozen Armor	7	1000	0	15	0	Ice Blast	7	240	0	19	0																			2	2	2	1
Eastern Sorceror	Ltng-Nightmare	100	20	359	3	2	37	252	merca222	merca241	6000	65	245	6	255	6	73	10	58	8	0	0	3	14	22	3	74	7	swor	shie	ltng	10	Charged Bolt	7	60	0	7	5	Lightning	7	30	0	9	10																									2	2	2	1
Eastern Sorceror	Ltng-Nightmare	100	20	359	3	2	61	252	merca222	merca241	6000	65	301	6	341	6	103	10	82	8	0	0	5	19	29	3	126	7	swor	shie	ltng	10	Charged Bolt	7	60	0	11	0	Lightning	7	30	0	16	10																									2	2	2	1
Eastern Sorceror	Fire-Hell	100	21	359	3	3	61	252	merca222	merca241	15000	71	330	6	341	6	99	10	78	8	0	0	5	19	29	3	126	7	swor	shie	fire	10	Inferno	7	60	0	18	0	Fire Ball	7	30	0	16	0																									2	2	2	1
Eastern Sorceror	Cold-Hell	100	22	359	3	3	61	252	merca222	merca241	17000	76	330	6	341	6	99	10	78	8	0	0	5	19	29	3	126	7	swor	shie	cold	10	Glacial Spike	7	60	0	7	0	Frozen Armor	7	1000	0	15	0	Ice Blast	7	240	0	18	0																			2	2	2	1
Eastern Sorceror	Ltng-Hell	100	23	359	3	3	61	252	merca222	merca241	15000	71	330	6	341	6	99	10	78	8	0	0	5	19	29	3	126	7	swor	shie	ltng	10	Charged Bolt	7	60	0	10	0	Lightning	7	30	0	15	10																									2	2	2	1
Barbarian	1hs-Normal	0	24	561	5	1	28	515	MercX101	MercX167	9000	65	183	9	153	10	101	15	63	10	99	6	1	8	12	2	50	7	swor	shie		50	Bash	5	15	0	4	10	Stun	5	15	0	3	8																									0	0	0	0
Barbarian	1hs-Normal	0	24	561	5	1	42	515	MercX101	MercX167	9000	65	278	9	237	10	128	15	81	10	154	6	1	13	19	3	80	7	swor	shie		50	Bash	5	50	0	9	10	Stun	5	50	0	7	8																									0	0	0	0
Barbarian	1hs-Normal	0	24	561	5	1	75	515	MercX101	MercX167	9000	65	500	9	434	10	190	15	123	10	285	8	1	29	41	3	140	7	swor	shie		50	Bash	5	75	0	20	0	Stun	5	75	0	16	0																									0	0	0	0
Barbarian	1hs-Normal	0	25	561	5	1	28	515	MercX101	MercX167	9000	65	183	9	153	10	101	15	63	10	99	6	1	8	12	2	50	7	swor	shie		50	Bash	5	15	0	4	10	Stun	5	15	0	3	8																									0	0	0	0
Barbarian	1hs-Normal	0	25	561	5	1	42	515	MercX101	MercX167	9000	65	278	9	237	10	128	15	81	10	154	6	1	13	19	3	80	7	swor	shie		50	Bash	5	50	0	9	10	Stun	5	50	0	7	8																									0	0	0	0
Barbarian	1hs-Normal	0	25	561	5	1	75	515	MercX101	MercX167	9000	65	500	9	434	10	190	15	123	10	285	8	1	29	41	3	140	7	swor	shie		50	Bash	5	75	0	20	0	Stun	5	75	0	16	0																									0	0	0	0
Barbarian	1hs-Nightmare	0	26	561	5	2	42	515	MercX101	MercX167	18000	71	258	9	224	10	125	15	76	10	141	6	4	12	18	3	80	7	swor	shie		50	Bash	5	50	0	8	10	Stun	5	50	0	6	8																									0	0	0	0
Barbarian	1hs-Nightmare	0	26	561	5	2	75	515	MercX101	MercX167	18000	71	480	9	421	10	187	15	118	10	272	8	4	28	41	3	140	7	swor	shie		50	Bash	5	75	0	19	0	Stun	5	75	0	15	0																									0	0	0	0
Barbarian	1hs-Nightmare	0	27	561	5	2	42	515	MercX101	MercX167	18000	71	258	9	224	10	125	15	76	10	141	6	4	12	18	3	80	7	swor	shie		50	Bash	5	50	0	8	10	Stun	5	50	0	6	8																									0	0	0	0
Barbarian	1hs-Nightmare	0	27	561	5	2	75	515	MercX101	MercX167	18000	71	480	9	421	10	187	15	118	10	272	8	4	28	41	3	140	7	swor	shie		50	Bash	5	75	0	19	0	Stun	5	75	0	15	0																									0	0	0	0
Barbarian	1hs-Hell	0	28	561	5	3	75	515	MercX101	MercX167	32000	76	464	9	408	10	184	15	113	10	259	8	6	27	40	3	140	7	swor	shie		50	Bash	5	70	0	18	0	Stun	5	70	0	14	0																									0	0	0	0
Barbarian	1hs-Hell	0	29	561	5	3	75	515	MercX101	MercX167	32000	76	464	9	408	10	184	15	113	10	259	8	6	27	40	3	140	7	swor	shie		50	Bash	5	70	0	18	0	Stun	5	70	0	14	0																									0	0	0	0
Barbarian	1hs-Normal	100	24	561	5	1	28	515	MercX101	MercX167	9000	65	183	9	153	10	101	15	63	10	99	6	1	8	12	2	50	7	swor	shie		50	Bash	5	15	0	4	10	Stun	5	15	0	3	8																									0	0	0	0
Barbarian	1hs-Normal	100	24	561	5	1	42	515	MercX101	MercX167	9000	65	278	9	237	10	128	15	81	10	154	6	1	13	19	3	80	7	swor	shie		50	Bash	5	50	0	9	10	Stun	5	50	0	7	8																									0	0	0	0
Barbarian	1hs-Normal	100	24	561	5	1	75	515	MercX101	MercX167	9000	65	500	9	434	10	190	15	123	10	285	8	1	29	41	3	140	7	swor	shie		50	Bash	5	75	0	20	0	Stun	5	75	0	16	0																									0	0	0	0
Barbarian	1hs-Normal	100	25	561	5	1	28	515	MercX101	MercX167	9000	65	183	9	153	10	101	15	63	10	99	6	1	8	12	2	50	7	swor	shie		50	Bash	5	15	0	4	10	Stun	5	15	0	3	8																									0	0	0	0
Barbarian	1hs-Normal	100	25	561	5	1	42	515	MercX101	MercX167	9000	65	278	9	237	10	128	15	81	10	154	6	1	13	19	3	80	7	swor	shie		50	Bash	5	50	0	9	10	Stun	5	50	0	7	8																									0	0	0	0
Barbarian	1hs-Normal	100	25	561	5	1	75	515	MercX101	MercX167	9000	65	500	9	434	10	190	15	123	10	285	8	1	29	41	3	140	7	swor	shie		50	Bash	5	75	0	20	0	Stun	5	75	0	16	0																									0	0	0	0
Barbarian	1hs-Nightmare	100	26	561	5	2	42	515	MercX101	MercX167	18000	71	258	9	224	10	125	15	76	10	141	6	4	12	18	3	80	7	swor	shie		50	Bash	5	50	0	8	10	Stun	5	50	0	6	8																									0	0	0	0
Barbarian	1hs-Nightmare	100	26	561	5	2	75	515	MercX101	MercX167	18000	71	480	9	421	10	187	15	118	10	272	8	4	28	41	3	140	7	swor	shie		50	Bash	5	75	0	19	0	Stun	5	75	0	15	0																									0	0	0	0
Barbarian	1hs-Nightmare	100	27	561	5	2	42	515	MercX101	MercX167	18000	71	258	9	224	10	125	15	76	10	141	6	4	12	18	3	80	7	swor	shie		50	Bash	5	50	0	8	10	Stun	5	50	0	6	8																									0	0	0	0
Barbarian	1hs-Nightmare	100	27	561	5	2	75	515	MercX101	MercX167	18000	71	480	9	421	10	187	15	118	10	272	8	4	28	41	3	140	7	swor	shie		50	Bash	5	75	0	19	0	Stun	5	75	0	15	0																									0	0	0	0
Barbarian	1hs-Hell	100	28	561	5	3	75	515	MercX101	MercX167	32000	76	464	9	408	10	184	15	113	10	259	8	6	27	40	3	140	7	swor	shie		50	Bash	5	70	0	18	0	Stun	5	70	0	14	0																									0	0	0	0
Barbarian	1hs-Hell	100	29	561	5	3	75	515	MercX101	MercX167	32000	76	464	9	408	10	184	15	113	10	259	8	6	27	40	3	140	7	swor	shie		50	Bash	5	70	0	18	0	Stun	5	70	0	14	0																									0	0	0	0
